app#(app(forsome(),p),xs) -> app#(app(forsome(),p),app(app(cons(),x),xs))

app#(app(forsome(),p),xs) -> app#(app(forsome(),p),app(app(cons(),x),xs))

app#(app(forsome(),p),xs) -> app#(app(forsome(),p),app(app(cons(),x),xs))

app#(app(forsome(),p),xs) -> app#(app(forsome(),p),app(app(cons(),x),xs))

app#(p,x) -> app#(app(forall(),p),app(app(cons(),x),xs))
app#(p,x) -> 
app#(app(forall(),p),app(app(cons(),x),xs))
app#(p,x) -> app#(app(forall(),p),app(app(cons(),x),xs))

app#(p,x) -> app#(app(forall(),p),app(app(cons(),x),xs))
app#(p,x) -> 
app#(app(forsome(),p),app(app(cons(),x),xs))
app#(p,x) -> app#(app(forsome(),p),
                                                               app(app(cons(),x),xs))

app#(p,x) -> app#(app(forsome(),p),app(app(cons(),x),xs))
app#(p,x) -> 
app#(app(forsome(),p),app(app(cons(),x),xs))
app#(app(forall(),p),xs) -> 
app#(app(forall(),p),app(app(cons(),x),xs))
app#(app(forall(),p),xs) -> 
app#(app(forall(),p),app(app(cons(),x),xs))
app#(app(forall(),p),xs) -> 
app#(app(forall(),p),app(app(cons(),x),xs))
app#(app(forall(),p),xs) -> 
app#(app(forall(),p),app(app(cons(),x),xs))
app#(p,x) -> app#(app(forall(),p),app(app(cons(),x),xs))

app#(p,x) -> app#(app(forall(),p),app(app(cons(),x),xs))
app#(p,x) -> 
app#(app(forall(),p),app(app(cons(),x),xs))
app#(p,x) -> app#(app(forall(),p),app(app(cons(),x),xs))

app#(p,x) -> app#(app(forsome(),p),app(app(cons(),x),xs))
app#(p,x) -> 
app#(app(forsome(),p),app(app(cons(),x),xs))
app#(p,x) -> app#(app(forsome(),p),
                                                               app(app(cons(),x),xs))

app#(p,x) -> app#(app(forsome(),p),app(app(cons(),x),xs))
