app#(app(mult(),x),y) -> app#(app(mult(),app(s(),x)),y)
app#(app(mult(),x),y) -> 
app#(app(mult(),app(s(),x)),y)
app#(app(mult(),x),y) -> app#(app(mult(),app(s(),x)),y)

app#(app(mult(),x),y) -> app#(app(mult(),app(s(),x)),y)
app#(app(add(),app(app(mult(),x),y)),y) -> 
app#(app(add(),app(s(),x)),y)
app#(app(add(),app(app(mult(),x),y)),y) -> 
app#(app(add(),app(s(),x)),y)
app#(app(add(),app(app(mult(),x),y)),y) -> 
app#(app(add(),app(s(),x)),y)
app#(app(app(rec(),f),x),y) -> app#(app(app(rec(),f),x),app(s(),y))

app#(app(app(rec(),f),x),y) -> app#(app(app(rec(),f),x),app(s(),y))
app#(app(app(rec(),f),x),y) -> 
app#(app(app(rec(),f),x),app(s(),y))
app#(app(f,app(s(),y)),app(app(app(rec(),f),x),y)) -> 
app#(app(add(),app(s(),x)),y)
app#(app(f,app(s(),y)),app(app(app(rec(),f),x),y)) -> 
app#(app(add(),app(s(),x)),y)
app#(app(f,app(s(),y)),app(app(app(rec(),f),x),y)) -> 
app#(app(add(),app(s(),x)),y)
app#(app(f,app(s(),y)),app(app(app(rec(),f),x),y)) -> 
app#(app(mult(),app(s(),x)),y)
app#(app(f,app(s(),y)),app(app(app(rec(),f),x),y)) -> 
app#(app(mult(),app(s(),x)),y)
app#(app(f,app(s(),y)),app(app(app(rec(),f),x),y)) -> 
app#(app(mult(),app(s(),x)),y)
app#(app(f,app(s(),y)),app(app(app(rec(),f),x),y)) -> 
app#(app(mult(),app(s(),x)),y)
app#(app(f,app(s(),y)),app(app(app(rec(),f),x),y)) -> 
app#(app(app(rec(),f),x),app(s(),y))
app#(app(f,app(s(),y)),app(app(app(rec(),f),x),y)) -> 
app#(app(app(rec(),f),x),app(s(),y))
app#(app(f,app(s(),y)),app(app(app(rec(),f),x),y)) -> 
app#(app(app(rec(),f),x),app(s(),y))
app#(f,app(s(),y)) -> app#(app(add(),app(s(),x)),y)

app#(f,app(s(),y)) -> app#(app(add(),app(s(),x)),y)
app#(f,app(s(),y)) -> 
app#(app(add(),app(s(),x)),y)
app#(f,app(s(),y)) -> app#(app(mult(),app(s(),x)),y)

app#(f,app(s(),y)) -> app#(app(mult(),app(s(),x)),y)
app#(f,app(s(),y)) -> 
app#(app(mult(),app(s(),x)),y)
app#(f,app(s(),y)) -> app#(app(mult(),app(s(),x)),y)

app#(f,app(s(),y)) -> app#(app(app(rec(),f),x),app(s(),y))
app#(f,app(s(),y)) -> 
app#(app(app(rec(),f),x),app(s(),y))
app#(f,app(s(),y)) -> app#(app(app(rec(),f),x),app(s(),y))

app#(app(add(),x),y) -> app#(app(add(),app(s(),x)),y)
app#(app(add(),x),y) -> 
app#(app(add(),app(s(),x)),y)
app#(app(add(),x),y) -> app#(app(add(),app(s(),x)),y)
