append#() -> append#()
append#() -> append#()
append#() -> append#()

append#() -> append#()
app#(app(app(app(fold(),add()),id()),0()),l) -> 
app#(app(app(app(fold(),f_3),g_2),x),app(app(cons(),z),t))
app#(app(app(app(fold(),add()),id()),0()),
                                                                l) -> 
app#(app(app(app(fold(),f_3),g_2),x),app(app(cons(),z),t))
app#(app(app(app(fold(),add()),id()),0()),
                                                                l) -> 
app#(app(app(app(fold(),f_3),g_2),x),app(app(cons(),z),t))
app#(app(app(app(fold(),add()),id()),0()),
                                                                l) -> 
app#(app(app(app(fold(),f_3),g_2),x),app(app(cons(),z),t))
app#(g_1,app(f_1,x)) -> 
app#(app(apply(),f_1),x)
app#(g_1,app(f_1,x)) -> app#(app(app(uncurry(),f_2),x),y)

app#(g_1,app(f_1,x)) -> app#(app(app(uncurry(),f_2),x),y)
app#(g_1,app(f_1,x)) -> 
app#(app(app(swap(),f_2),y),x)
app#(g_1,app(f_1,x)) -> app#(app(app(swap(),f_2),y),x)

app#(g_1,app(f_1,x)) -> app#(app(app(compose(),g_1),f_1),x)
app#(g_1,app(f_1,x)) -> 
app#(app(app(compose(),g_1),f_1),x)
app#(g_1,app(f_1,x)) -> app#(listify(),x)

app#(g_1,app(f_1,x)) -> app#(listify(),x)
app#(g_1,app(f_1,x)) -> app#
                                                                  (app(app(app(fold(),f_3),g_2),x),
                                                                   app
                                                                   (app(cons(),z),t))

app#(g_1,app(f_1,x)) -> app#(app(app(app(fold(),f_3),g_2),x),app(app(cons(),z),t))

app#(g_1,app(f_1,x)) -> app#(app(app(app(fold(),f_3),g_2),x),app(app(cons(),z),t))

app#(g_1,app(f_1,x)) -> app#(app(app(app(fold(),f_3),g_2),x),app(app(cons(),z),t))

app#(g_1,app(f_1,x)) -> app#(sum(),l)
app#(g_1,app(f_1,x)) -> app#(sum(),l)

app#(g_1,app(f_1,x)) -> app#(sum(),l)
app#(g_1,app(f_1,x)) -> app#(sum(),l)

app#(f_1,x) -> app#(app(apply(),f_1),x)
app#(f_1,x) -> app#(app(app(uncurry(),f_2),x),y)

app#(f_1,x) -> app#(app(app(uncurry(),f_2),x),y)
app#(f_1,x) -> app#(app(app(swap(),f_2),y),x)

app#(f_1,x) -> app#(app(app(swap(),f_2),y),x)
app#(f_1,x) -> app#(app(app(compose(),g_1),f_1),x)

app#(f_1,x) -> app#(app(app(compose(),g_1),f_1),x)
app#(f_1,x) -> app#(listify(),x)

app#(f_1,x) -> app#(listify(),x)
app#(f_1,x) -> app#(app(app(app(fold(),f_3),g_2),x),
                                                     app(app(cons(),z),t))

app#(f_1,x) -> app#(app(app(app(fold(),f_3),g_2),x),app(app(cons(),z),t))

app#(f_1,x) -> app#(app(app(app(fold(),f_3),g_2),x),app(app(cons(),z),t))

app#(f_1,x) -> app#(app(app(app(fold(),f_3),g_2),x),app(app(cons(),z),t))

app#(f_1,x) -> app#(sum(),l)
app#(f_1,x) -> app#(sum(),l)
app#(f_1,x) -> 
app#(sum(),l)
app#(f_1,x) -> app#(sum(),l)
app#(app(f_2,x),y) -> app#(app(apply(),f_1),x)

app#(app(f_2,x),y) -> app#(app(app(uncurry(),f_2),x),y)
app#(app(f_2,x),y) -> 
app#(app(app(uncurry(),f_2),x),y)
app#(app(f_2,x),y) -> app#(app(app(swap(),f_2),y),x)

app#(app(f_2,x),y) -> app#(app(app(swap(),f_2),y),x)
app#(app(f_2,x),y) -> 
app#(app(app(compose(),g_1),f_1),x)
app#(app(f_2,x),y) -> app#(app(app(compose(),g_1),f_1),x)

app#(app(f_2,x),y) -> app#(listify(),x)
app#(app(f_2,x),y) -> app#(listify(),x)

app#(app(f_2,x),y) -> app#(app(app(app(fold(),f_3),g_2),x),app(app(cons(),z),t))

app#(app(f_2,x),y) -> app#(app(app(app(fold(),f_3),g_2),x),app(app(cons(),z),t))

app#(app(f_2,x),y) -> app#(app(app(app(fold(),f_3),g_2),x),app(app(cons(),z),t))

app#(app(f_2,x),y) -> app#(app(app(app(fold(),f_3),g_2),x),app(app(cons(),z),t))

app#(app(f_2,x),y) -> app#(sum(),l)
app#(app(f_2,x),y) -> app#(sum(),l)

app#(app(f_2,x),y) -> app#(sum(),l)
app#(app(f_2,x),y) -> app#(sum(),l)

app#(f_2,x) -> app#(app(apply(),f_1),x)
app#(f_2,x) -> app#(app(app(uncurry(),f_2),x),y)

app#(f_2,x) -> app#(app(app(uncurry(),f_2),x),y)
app#(f_2,x) -> app#(app(app(swap(),f_2),y),x)

app#(f_2,x) -> app#(app(app(swap(),f_2),y),x)
app#(f_2,x) -> app#(app(app(compose(),g_1),f_1),x)

app#(f_2,x) -> app#(app(app(compose(),g_1),f_1),x)
app#(f_2,x) -> app#(listify(),x)

app#(f_2,x) -> app#(listify(),x)
app#(f_2,x) -> app#(app(app(app(fold(),f_3),g_2),x),
                                                     app(app(cons(),z),t))

app#(f_2,x) -> app#(app(app(app(fold(),f_3),g_2),x),app(app(cons(),z),t))

app#(f_2,x) -> app#(app(app(app(fold(),f_3),g_2),x),app(app(cons(),z),t))

app#(f_2,x) -> app#(app(app(app(fold(),f_3),g_2),x),app(app(cons(),z),t))

app#(f_2,x) -> app#(sum(),l)
app#(f_2,x) -> app#(sum(),l)
app#(f_2,x) -> 
app#(sum(),l)
app#(f_2,x) -> app#(sum(),l)
app#(app(f_2,x),y) -> app#(app(apply(),f_1),x)

app#(app(f_2,x),y) -> app#(app(app(uncurry(),f_2),x),y)
app#(app(f_2,x),y) -> 
app#(app(app(uncurry(),f_2),x),y)
app#(app(f_2,x),y) -> app#(app(app(swap(),f_2),y),x)

app#(app(f_2,x),y) -> app#(app(app(swap(),f_2),y),x)
app#(app(f_2,x),y) -> 
app#(app(app(compose(),g_1),f_1),x)
app#(app(f_2,x),y) -> app#(app(app(compose(),g_1),f_1),x)

app#(app(f_2,x),y) -> app#(listify(),x)
app#(app(f_2,x),y) -> app#(listify(),x)

app#(app(f_2,x),y) -> app#(app(app(app(fold(),f_3),g_2),x),app(app(cons(),z),t))

app#(app(f_2,x),y) -> app#(app(app(app(fold(),f_3),g_2),x),app(app(cons(),z),t))

app#(app(f_2,x),y) -> app#(app(app(app(fold(),f_3),g_2),x),app(app(cons(),z),t))

app#(app(f_2,x),y) -> app#(app(app(app(fold(),f_3),g_2),x),app(app(cons(),z),t))

app#(app(f_2,x),y) -> app#(sum(),l)
app#(app(f_2,x),y) -> app#(sum(),l)

app#(app(f_2,x),y) -> app#(sum(),l)
app#(app(f_2,x),y) -> app#(sum(),l)

app#(f_2,x) -> app#(app(apply(),f_1),x)
app#(f_2,x) -> app#(app(app(uncurry(),f_2),x),y)

app#(f_2,x) -> app#(app(app(uncurry(),f_2),x),y)
app#(f_2,x) -> app#(app(app(swap(),f_2),y),x)

app#(f_2,x) -> app#(app(app(swap(),f_2),y),x)
app#(f_2,x) -> app#(app(app(compose(),g_1),f_1),x)

app#(f_2,x) -> app#(app(app(compose(),g_1),f_1),x)
app#(f_2,x) -> app#(listify(),x)

app#(f_2,x) -> app#(listify(),x)
app#(f_2,x) -> app#(app(app(app(fold(),f_3),g_2),x),
                                                     app(app(cons(),z),t))

app#(f_2,x) -> app#(app(app(app(fold(),f_3),g_2),x),app(app(cons(),z),t))

app#(f_2,x) -> app#(app(app(app(fold(),f_3),g_2),x),app(app(cons(),z),t))

app#(f_2,x) -> app#(app(app(app(fold(),f_3),g_2),x),app(app(cons(),z),t))

app#(f_2,x) -> app#(sum(),l)
app#(f_2,x) -> app#(sum(),l)
app#(f_2,x) -> 
app#(sum(),l)
app#(f_2,x) -> app#(sum(),l)
app#(app(app(app(fold(),f_3),g_2),x),t) -> 
app#(app(app(app(fold(),f_3),g_2),x),app(app(cons(),z),t))
app#(app(app(app(fold(),f_3),g_2),x),t) -> 
app#(app(app(app(fold(),f_3),g_2),x),app(app(cons(),z),t))
app#(app(app(app(fold(),f_3),g_2),x),t) -> 
app#(app(app(app(fold(),f_3),g_2),x),app(app(cons(),z),t))
app#(app(app(app(fold(),f_3),g_2),x),t) -> 
app#(app(app(app(fold(),f_3),g_2),x),app(app(cons(),z),t))
app#(app(f_3,app(g_2,z)),
                                                                app(app(app(app(fold(),f_3),g_2),x),
                                                                    t)) -> 
app#(app(apply(),f_1),x)
app#(app(f_3,app(g_2,z)),app(app(app(app(fold(),f_3),g_2),x),t)) -> 
app#(app(app(uncurry(),f_2),x),y)
app#(app(f_3,app(g_2,z)),app(app(app(app(fold(),f_3),g_2),x),t)) -> 
app#(app(app(uncurry(),f_2),x),y)
app#(app(f_3,app(g_2,z)),app(app(app(app(fold(),f_3),g_2),x),t)) -> 
app#(app(app(swap(),f_2),y),x)
app#(app(f_3,app(g_2,z)),app(app(app(app(fold(),f_3),g_2),x),t)) -> 
app#(app(app(swap(),f_2),y),x)
app#(app(f_3,app(g_2,z)),app(app(app(app(fold(),f_3),g_2),x),t)) -> 
app#(app(app(compose(),g_1),f_1),x)
app#(app(f_3,app(g_2,z)),app(app(app(app(fold(),f_3),g_2),x),t)) -> 
app#(app(app(compose(),g_1),f_1),x)
app#(app(f_3,app(g_2,z)),app(app(app(app(fold(),f_3),g_2),x),t)) -> 
app#(listify(),x)
app#(app(f_3,app(g_2,z)),app(app(app(app(fold(),f_3),g_2),x),t)) -> 
app#(listify(),x)
app#(app(f_3,app(g_2,z)),app(app(app(app(fold(),f_3),g_2),x),t)) -> 
app#(app(app(app(fold(),f_3),g_2),x),app(app(cons(),z),t))
app#(app(f_3,app(g_2,z)),
                                                                app(app(app(app(fold(),f_3),g_2),x),
                                                                    t)) -> 
app#(app(app(app(fold(),f_3),g_2),x),app(app(cons(),z),t))
app#(app(f_3,app(g_2,z)),
                                                                app(app(app(app(fold(),f_3),g_2),x),
                                                                    t)) -> 
app#(app(app(app(fold(),f_3),g_2),x),app(app(cons(),z),t))
app#(app(f_3,app(g_2,z)),
                                                                app(app(app(app(fold(),f_3),g_2),x),
                                                                    t)) -> 
app#(app(app(app(fold(),f_3),g_2),x),app(app(cons(),z),t))
app#(app(f_3,app(g_2,z)),
                                                                app(app(app(app(fold(),f_3),g_2),x),
                                                                    t)) -> 
app#(sum(),l)
app#(app(f_3,app(g_2,z)),app(app(app(app(fold(),f_3),g_2),x),t)) -> 
app#(sum(),l)
app#(app(f_3,app(g_2,z)),app(app(app(app(fold(),f_3),g_2),x),t)) -> 
app#(sum(),l)
app#(app(f_3,app(g_2,z)),app(app(app(app(fold(),f_3),g_2),x),t)) -> 
app#(sum(),l)
app#(g_2,z) -> app#(app(apply(),f_1),x)
app#(g_2,z) -> 
app#(app(app(uncurry(),f_2),x),y)
app#(g_2,z) -> app#(app(app(uncurry(),f_2),x),y)

app#(g_2,z) -> app#(app(app(swap(),f_2),y),x)
app#(g_2,z) -> app#(app(app(swap(),f_2),y),x)

app#(g_2,z) -> app#(app(app(compose(),g_1),f_1),x)
app#(g_2,z) -> app#
                                                                  (app(app(compose(),g_1),f_1),x)

app#(g_2,z) -> app#(listify(),x)
app#(g_2,z) -> app#(listify(),x)
app#(g_2,z) -> 
app#(app(app(app(fold(),f_3),g_2),x),app(app(cons(),z),t))
app#(g_2,z) -> 
app#(app(app(app(fold(),f_3),g_2),x),app(app(cons(),z),t))
app#(g_2,z) -> 
app#(app(app(app(fold(),f_3),g_2),x),app(app(cons(),z),t))
app#(g_2,z) -> 
app#(app(app(app(fold(),f_3),g_2),x),app(app(cons(),z),t))
app#(g_2,z) -> 
app#(sum(),l)
app#(g_2,z) -> app#(sum(),l)
app#(g_2,z) -> app#(sum(),l)

app#(g_2,z) -> app#(sum(),l)
app#(f_3,app(g_2,z)) -> app#(app(apply(),f_1),x)

app#(f_3,app(g_2,z)) -> app#(app(app(uncurry(),f_2),x),y)
app#(f_3,app(g_2,z)) -> 
app#(app(app(uncurry(),f_2),x),y)
app#(f_3,app(g_2,z)) -> app#(app(app(swap(),f_2),y),x)

app#(f_3,app(g_2,z)) -> app#(app(app(swap(),f_2),y),x)
app#(f_3,app(g_2,z)) -> 
app#(app(app(compose(),g_1),f_1),x)
app#(f_3,app(g_2,z)) -> app#(app(app(compose(),g_1),f_1),x)

app#(f_3,app(g_2,z)) -> app#(listify(),x)
app#(f_3,app(g_2,z)) -> app#(listify(),x)

app#(f_3,app(g_2,z)) -> app#(app(app(app(fold(),f_3),g_2),x),app(app(cons(),z),t))

app#(f_3,app(g_2,z)) -> app#(app(app(app(fold(),f_3),g_2),x),app(app(cons(),z),t))

app#(f_3,app(g_2,z)) -> app#(app(app(app(fold(),f_3),g_2),x),app(app(cons(),z),t))

app#(f_3,app(g_2,z)) -> app#(app(app(app(fold(),f_3),g_2),x),app(app(cons(),z),t))

app#(f_3,app(g_2,z)) -> app#(sum(),l)
app#(f_3,app(g_2,z)) -> app#(sum(),l)

app#(f_3,app(g_2,z)) -> app#(sum(),l)
app#(f_3,app(g_2,z)) -> app#(sum(),l)

app#(f_1,x) -> app#(app(apply(),f_1),x)
app#(f_1,x) -> app#(app(app(uncurry(),f_2),x),y)

app#(f_1,x) -> app#(app(app(uncurry(),f_2),x),y)
app#(f_1,x) -> app#(app(app(swap(),f_2),y),x)

app#(f_1,x) -> app#(app(app(swap(),f_2),y),x)
app#(f_1,x) -> app#(app(app(compose(),g_1),f_1),x)

app#(f_1,x) -> app#(app(app(compose(),g_1),f_1),x)
app#(f_1,x) -> app#(listify(),x)

app#(f_1,x) -> app#(listify(),x)
app#(f_1,x) -> app#(app(app(app(fold(),f_3),g_2),x),
                                                     app(app(cons(),z),t))

app#(f_1,x) -> app#(app(app(app(fold(),f_3),g_2),x),app(app(cons(),z),t))

app#(f_1,x) -> app#(app(app(app(fold(),f_3),g_2),x),app(app(cons(),z),t))

app#(f_1,x) -> app#(app(app(app(fold(),f_3),g_2),x),app(app(cons(),z),t))

app#(f_1,x) -> app#(sum(),l)
app#(f_1,x) -> app#(sum(),l)
app#(f_1,x) -> 
app#(sum(),l)
app#(f_1,x) -> app#(sum(),l)
