app#(app(map(),f),t) -> app#(app(map(),f),app(app(cons(),h),t))
app#(app(map(),f),t) -> 
app#(app(map(),f),app(app(cons(),h),t))
app#(app(map(),f),t) -> app#(
                                                                    app(map(),f),
                                                                    app
                                                                    (app(cons(),h),t))

app#(app(map(),f),t) -> app#(app(map(),f),app(app(cons(),h),t))
app#(app(map(),f),t) -> 
app#(app(map(),f),app(app(append(),l1),l2))
app#(app(map(),f),t) -> app#
                                                                    (
                                                                    app(map(),f),
                                                                    app
                                                                    (app(append(),l1),l2))

app#(app(map(),f),t) -> app#(app(map(),f),app(app(append(),l1),l2))
app#(app(map(),f),t) -> 
app#(app(map(),f),app(app(append(),l1),l2))
app#(f,h) -> app#(app(append(),app(app(cons(),h),t)),l)

app#(f,h) -> app#(app(append(),app(app(cons(),h),t)),l)
app#(f,h) -> 
app#(app(append(),app(app(cons(),h),t)),l)
app#(f,h) -> app#(app(map(),f),app(app(cons(),h),t))

app#(f,h) -> app#(app(map(),f),app(app(cons(),h),t))
app#(f,h) -> app#
                                                                  (app(map(),f),
                                                                   app
                                                                   (app(cons(),h),t))

app#(f,h) -> app#(app(map(),f),app(app(cons(),h),t))
app#(f,h) -> app#
                                                                  (app
                                                                   (append(),
                                                                    app
                                                                    (app(append(),l1),l2)),
                                                                   l3)

app#(f,h) -> app#(app(append(),app(app(append(),l1),l2)),l3)
app#(f,h) -> 
app#(app(append(),app(app(append(),l1),l2)),l3)
app#(f,h) -> app#(app(map(),f),
                                                                  app
                                                                  (app(append(),l1),l2))

app#(f,h) -> app#(app(map(),f),app(app(append(),l1),l2))
app#(f,h) -> 
app#(app(map(),f),app(app(append(),l1),l2))
app#(f,h) -> app#(app(map(),f),app(app(append(),l1),l2))

app#(app(map(),f),l2) -> app#(app(map(),f),app(app(cons(),h),t))
app#(app(map(),f),l2) -> 
app#(app(map(),f),app(app(cons(),h),t))
app#(app(map(),f),l2) -> app#
                                                                 (app(map(),f),app(app(cons(),h),t))

app#(app(map(),f),l2) -> app#(app(map(),f),app(app(cons(),h),t))
app#(app(map(),f),l2) -> 
app#(app(map(),f),app(app(append(),l1),l2))
app#(app(map(),f),l2) -> 
app#(app(map(),f),app(app(append(),l1),l2))
app#(app(map(),f),l2) -> 
app#(app(map(),f),app(app(append(),l1),l2))
app#(app(map(),f),l2) -> 
app#(app(map(),f),app(app(append(),l1),l2))
app#(app(map(),f),l1) -> 
app#(app(map(),f),app(app(cons(),h),t))
app#(app(map(),f),l1) -> app#
                                                                 (app(map(),f),app(app(cons(),h),t))

app#(app(map(),f),l1) -> app#(app(map(),f),app(app(cons(),h),t))
app#(app(map(),f),l1) -> 
app#(app(map(),f),app(app(cons(),h),t))
app#(app(map(),f),l1) -> app#
                                                                 (app(map(),f),
                                                                  app
                                                                  (app(append(),l1),l2))

app#(app(map(),f),l1) -> app#(app(map(),f),app(app(append(),l1),l2))

app#(app(map(),f),l1) -> app#(app(map(),f),app(app(append(),l1),l2))

app#(app(map(),f),l1) -> app#(app(map(),f),app(app(append(),l1),l2))

app#(app(append(),app(app(map(),f),l1)),app(app(map(),f),l2)) -> app#
                                                                 (app
                                                                  (append(),app(app(cons(),h),t)),
                                                                  l)

app#(app(append(),app(app(map(),f),l1)),app(app(map(),f),l2)) -> app#
                                                                 (app
                                                                  (append(),app(app(cons(),h),t)),
                                                                  l)

app#(app(append(),app(app(map(),f),l1)),app(app(map(),f),l2)) -> app#
                                                                 (app
                                                                  (append(),app(app(cons(),h),t)),
                                                                  l)

app#(app(append(),app(app(map(),f),l1)),app(app(map(),f),l2)) -> app#
                                                                 (app
                                                                  (append(),
                                                                   app
                                                                   (app(append(),l1),l2)),
                                                                  l3)

app#(app(append(),app(app(map(),f),l1)),app(app(map(),f),l2)) -> app#
                                                                 (app
                                                                  (append(),
                                                                   app
                                                                   (app(append(),l1),l2)),
                                                                  l3)

app#(app(append(),app(app(map(),f),l1)),app(app(map(),f),l2)) -> app#
                                                                 (app
                                                                  (append(),
                                                                   app
                                                                   (app(append(),l1),l2)),
                                                                  l3)

app#(app(append(),t),l) -> app#(app(append(),app(app(cons(),h),t)),l)

app#(app(append(),t),l) -> app#(app(append(),app(app(cons(),h),t)),l)

app#(app(append(),t),l) -> app#(app(append(),app(app(cons(),h),t)),l)

app#(app(append(),t),l) -> app#(app(append(),app(app(append(),l1),l2)),l3)

app#(app(append(),t),l) -> app#(app(append(),app(app(append(),l1),l2)),l3)

app#(app(append(),t),l) -> app#(app(append(),app(app(append(),l1),l2)),l3)

app#(app(append(),l2),l3) -> app#(app(append(),app(app(cons(),h),t)),l)

app#(app(append(),l2),l3) -> app#(app(append(),app(app(cons(),h),t)),l)

app#(app(append(),l2),l3) -> app#(app(append(),app(app(cons(),h),t)),l)

app#(app(append(),l2),l3) -> app#(app(append(),app(app(append(),l1),l2)),l3)

app#(app(append(),l2),l3) -> app#(app(append(),app(app(append(),l1),l2)),l3)

app#(app(append(),l2),l3) -> app#(app(append(),app(app(append(),l1),l2)),l3)

app#(app(append(),l1),app(app(append(),l2),l3)) -> app#(app(append(),app(app(cons(),h),t)),l)

app#(app(append(),l1),app(app(append(),l2),l3)) -> app#(app(append(),app(app(cons(),h),t)),l)

app#(app(append(),l1),app(app(append(),l2),l3)) -> app#(app(append(),app(app(cons(),h),t)),l)

app#(app(append(),l1),app(app(append(),l2),l3)) -> app#(app(append(),app(app(append(),l1),l2)),l3)

app#(app(append(),l1),app(app(append(),l2),l3)) -> app#(app(append(),app(app(append(),l1),l2)),l3)

app#(app(append(),l1),app(app(append(),l2),l3)) -> app#(app(append(),app(app(append(),l1),l2)),l3)
