app#(app(times(),x),y) -> app#(app(times(),app(s(),x)),y)
app#(app(times(),x),y) -> 
app#(app(times(),app(s(),x)),y)
app#(app(times(),x),y) -> app#(app(times(),app(s(),x)),y)

app#(app(times(),x),y) -> app#(app(times(),app(s(),x)),y)
app#(app(plus(),app(app(times(),x),y)),y) -> 
app#(app(plus(),app(s(),x)),y)
app#(app(plus(),app(app(times(),x),y)),y) -> 
app#(app(plus(),app(s(),x)),y)
app#(app(plus(),app(app(times(),x),y)),y) -> 
app#(app(plus(),app(s(),x)),y)
app#(app(plus(),x),y) -> app#(app(plus(),app(s(),x)),y)

app#(app(plus(),x),y) -> app#(app(plus(),app(s(),x)),y)
app#(app(plus(),x),y) -> 
app#(app(plus(),app(s(),x)),y)
app#(app(app(fold(),f),x),z) -> app#(app(app(fold(),f),x),
                                                                    app
                                                                    (app(cons(),y),z))

app#(app(app(fold(),f),x),z) -> app#(app(app(fold(),f),x),app(app(cons(),y),z))

app#(app(app(fold(),f),x),z) -> app#(app(app(fold(),f),x),app(app(cons(),y),z))

app#(app(f,y),app(app(app(fold(),f),x),z)) -> app#(app(app(fold(),f),x),app(app(cons(),y),z))

app#(app(f,y),app(app(app(fold(),f),x),z)) -> app#(app(app(fold(),f),x),app(app(cons(),y),z))

app#(app(f,y),app(app(app(fold(),f),x),z)) -> app#(app(app(fold(),f),x),app(app(cons(),y),z))

app#(app(f,y),app(app(app(fold(),f),x),z)) -> app#(app(plus(),app(s(),x)),y)

app#(app(f,y),app(app(app(fold(),f),x),z)) -> app#(app(plus(),app(s(),x)),y)

app#(app(f,y),app(app(app(fold(),f),x),z)) -> app#(app(plus(),app(s(),x)),y)

app#(app(f,y),app(app(app(fold(),f),x),z)) -> app#(app(times(),app(s(),x)),y)

app#(app(f,y),app(app(app(fold(),f),x),z)) -> app#(app(times(),app(s(),x)),y)

app#(app(f,y),app(app(app(fold(),f),x),z)) -> app#(app(times(),app(s(),x)),y)

app#(app(f,y),app(app(app(fold(),f),x),z)) -> app#(app(times(),app(s(),x)),y)

app#(f,y) -> app#(app(app(fold(),f),x),app(app(cons(),y),z))
app#(f,y) -> 
app#(app(app(fold(),f),x),app(app(cons(),y),z))
app#(f,y) -> app#(app(app(fold(),f),x),
                                                                  app
                                                                  (app(cons(),y),z))

app#(f,y) -> app#(app(plus(),app(s(),x)),y)
app#(f,y) -> app#(app(plus(),app(s(),x)),y)

app#(f,y) -> app#(app(plus(),app(s(),x)),y)
app#(f,y) -> app#(app(times(),app(s(),x)),y)

app#(f,y) -> app#(app(times(),app(s(),x)),y)
app#(f,y) -> app#(app(times(),app(s(),x)),y)

app#(f,y) -> app#(app(times(),app(s(),x)),y)
