app#(app(app(sort(),max()),min()),l) -> app#(app(app(sort(),f),g),app(app(cons(),h),t))

app#(app(app(sort(),max()),min()),l) -> app#(app(app(sort(),f),g),app(app(cons(),h),t))

app#(app(app(sort(),max()),min()),l) -> app#(app(app(sort(),f),g),app(app(cons(),h),t))

app#(app(app(sort(),max()),min()),l) -> app#(app(app(sort(),f),g),app(app(cons(),h),t))

app#(app(app(sort(),max()),min()),l) -> app#(app(app(sort(),f),g),app(app(cons(),h),t))

app#(app(app(sort(),min()),max()),l) -> app#(app(app(sort(),f),g),app(app(cons(),h),t))

app#(app(app(sort(),min()),max()),l) -> app#(app(app(sort(),f),g),app(app(cons(),h),t))

app#(app(app(sort(),min()),max()),l) -> app#(app(app(sort(),f),g),app(app(cons(),h),t))

app#(app(app(sort(),min()),max()),l) -> app#(app(app(sort(),f),g),app(app(cons(),h),t))

app#(app(app(sort(),min()),max()),l) -> app#(app(app(sort(),f),g),app(app(cons(),h),t))

app#(app(min(),x),y) -> app#(app(min(),app(s(),x)),app(s(),y))
app#(app(min(),x),y) -> 
app#(app(min(),app(s(),x)),app(s(),y))
app#(app(app(sort(),f),g),t) -> 
app#(app(app(sort(),f),g),app(app(cons(),h),t))
app#(app(app(sort(),f),g),t) -> 
app#(app(app(sort(),f),g),app(app(cons(),h),t))
app#(app(app(sort(),f),g),t) -> 
app#(app(app(sort(),f),g),app(app(cons(),h),t))
app#(app(app(sort(),f),g),t) -> 
app#(app(app(sort(),f),g),app(app(cons(),h),t))
app#(app(app(sort(),f),g),t) -> 
app#(app(app(sort(),f),g),app(app(cons(),h),t))
app#(app(app(app(insert(),f),g),
                                                         app(app(app(sort(),f),g),t)),
                                                     h) -> app#(app(app(app(insert(),f),g),nil()),x)

app#(app(app(app(insert(),f),g),app(app(app(sort(),f),g),t)),h) -> app#
                                                                   (app
                                                                    (
                                                                    app(app(insert(),f),g),nil()),
                                                                    x)

app#(app(app(app(insert(),f),g),app(app(app(sort(),f),g),t)),h) -> app#
                                                                   (app
                                                                    (
                                                                    app(app(insert(),f),g),
                                                                    app
                                                                    (app(cons(),h),t)),
                                                                    x)

app#(app(app(app(insert(),f),g),app(app(app(sort(),f),g),t)),h) -> app#
                                                                   (app
                                                                    (
                                                                    app(app(insert(),f),g),
                                                                    app
                                                                    (app(cons(),h),t)),
                                                                    x)

app#(app(app(app(insert(),f),g),app(app(app(sort(),f),g),t)),h) -> app#
                                                                   (app
                                                                    (
                                                                    app(app(insert(),f),g),
                                                                    app
                                                                    (app(cons(),h),t)),
                                                                    x)

app#(app(app(app(insert(),f),g),app(app(app(sort(),f),g),t)),h) -> app#
                                                                   (app
                                                                    (
                                                                    app(app(insert(),f),g),
                                                                    app
                                                                    (app(cons(),h),t)),
                                                                    x)

app#(app(app(app(insert(),f),g),app(app(app(sort(),f),g),t)),h) -> app#
                                                                   (app
                                                                    (
                                                                    app(app(insert(),f),g),
                                                                    app
                                                                    (app(cons(),h),t)),
                                                                    x)

app#(app(app(app(insert(),f),g),app(app(app(sort(),f),g),t)),h) -> app#
                                                                   (app
                                                                    (
                                                                    app(app(insert(),f),g),
                                                                    app
                                                                    (app(cons(),h),t)),
                                                                    x)

app#(app(app(app(insert(),f),g),app(app(app(sort(),f),g),t)),h) -> app#
                                                                   (app
                                                                    (
                                                                    app(app(insert(),f),g),
                                                                    app
                                                                    (app(cons(),h),t)),
                                                                    x)

app#(app(app(app(insert(),f),g),app(app(app(sort(),f),g),t)),h) -> app#
                                                                   (app
                                                                    (
                                                                    app(app(insert(),f),g),
                                                                    app
                                                                    (app(cons(),h),t)),
                                                                    x)

app#(app(app(app(insert(),f),g),t),app(app(g,x),h)) -> app#(app(app(app(insert(),f),g),nil()),x)

app#(app(app(app(insert(),f),g),t),app(app(g,x),h)) -> app#(app(app(app(insert(),f),g),nil()),x)

app#(app(app(app(insert(),f),g),t),app(app(g,x),h)) -> app#(app(app(app(insert(),f),g),
                                                                app(app(cons(),h),t)),
                                                            x)
app#(app(app(app(insert(),f),g),t),
                                                                    app
                                                                    (app(g,x),h)) -> 
app#(app(app(app(insert(),f),g),app(app(cons(),h),t)),x)
app#(app(app(app(insert(),f),g),t),
                                                              app(app(g,x),h)) -> 
app#(app(app(app(insert(),f),g),app(app(cons(),h),t)),x)
app#(app(app(app(insert(),f),g),t),
                                                              app(app(g,x),h)) -> 
app#(app(app(app(insert(),f),g),app(app(cons(),h),t)),x)
app#(app(app(app(insert(),f),g),t),
                                                              app(app(g,x),h)) -> 
app#(app(app(app(insert(),f),g),app(app(cons(),h),t)),x)
app#(app(app(app(insert(),f),g),t),
                                                              app(app(g,x),h)) -> 
app#(app(app(app(insert(),f),g),app(app(cons(),h),t)),x)
app#(app(app(app(insert(),f),g),t),
                                                              app(app(g,x),h)) -> 
app#(app(app(app(insert(),f),g),app(app(cons(),h),t)),x)
app#(app(app(app(insert(),f),g),t),
                                                              app(app(g,x),h)) -> 
app#(app(app(app(insert(),f),g),app(app(cons(),h),t)),x)
app#(app(g,x),h) -> 
app#(app(max(),app(s(),x)),app(s(),y))
app#(app(g,x),h) -> app#(app(max(),app(s(),x)),app(s(),y))

app#(app(g,x),h) -> app#(app(min(),app(s(),x)),app(s(),y))
app#(app(g,x),h) -> 
app#(app(min(),app(s(),x)),app(s(),y))
app#(app(g,x),h) -> app#(app(app(app(insert(),f),g),nil()),x)

app#(app(g,x),h) -> app#(app(app(app(insert(),f),g),nil()),x)
app#(app(g,x),h) -> 
app#(app(app(app(insert(),f),g),app(app(cons(),h),t)),x)
app#(app(g,x),h) -> 
app#(app(app(app(insert(),f),g),app(app(cons(),h),t)),x)
app#(app(g,x),h) -> 
app#(app(app(app(insert(),f),g),app(app(cons(),h),t)),x)
app#(app(g,x),h) -> 
app#(app(app(app(insert(),f),g),app(app(cons(),h),t)),x)
app#(app(g,x),h) -> 
app#(app(app(app(insert(),f),g),app(app(cons(),h),t)),x)
app#(app(g,x),h) -> 
app#(app(app(app(insert(),f),g),app(app(cons(),h),t)),x)
app#(app(g,x),h) -> 
app#(app(app(app(insert(),f),g),app(app(cons(),h),t)),x)
app#(app(g,x),h) -> 
app#(app(app(app(insert(),f),g),app(app(cons(),h),t)),x)
app#(app(g,x),h) -> 
app#(app(app(sort(),f),g),app(app(cons(),h),t))
app#(app(g,x),h) -> app#
                                                                    (
                                                                    app(app(sort(),f),g),
                                                                    app
                                                                    (app(cons(),h),t))

app#(app(g,x),h) -> app#(app(app(sort(),f),g),app(app(cons(),h),t))
app#(app(g,x),h) -> 
app#(app(app(sort(),f),g),app(app(cons(),h),t))
app#(app(g,x),h) -> app#
                                                                    (
                                                                    app(app(sort(),f),g),
                                                                    app
                                                                    (app(cons(),h),t))

app#(app(g,x),h) -> app#(ascending_sort(),l)
app#(app(g,x),h) -> app#(ascending_sort(),l)

app#(app(g,x),h) -> app#(ascending_sort(),l)
app#(app(g,x),h) -> app#(descending_sort(),l)

app#(app(g,x),h) -> app#(descending_sort(),l)
app#(app(g,x),h) -> app#(descending_sort(),l)

app#(app(f,x),h) -> app#(app(max(),app(s(),x)),app(s(),y))
app#(app(f,x),h) -> 
app#(app(max(),app(s(),x)),app(s(),y))
app#(app(f,x),h) -> app#(app(min(),app(s(),x)),app(s(),y))

app#(app(f,x),h) -> app#(app(min(),app(s(),x)),app(s(),y))
app#(app(f,x),h) -> 
app#(app(app(app(insert(),f),g),nil()),x)
app#(app(f,x),h) -> app#(app
                                                                   (app(app(insert(),f),g),nil()),
                                                                   x)

app#(app(f,x),h) -> app#(app(app(app(insert(),f),g),app(app(cons(),h),t)),x)

app#(app(f,x),h) -> app#(app(app(app(insert(),f),g),app(app(cons(),h),t)),x)

app#(app(f,x),h) -> app#(app(app(app(insert(),f),g),app(app(cons(),h),t)),x)

app#(app(f,x),h) -> app#(app(app(app(insert(),f),g),app(app(cons(),h),t)),x)

app#(app(f,x),h) -> app#(app(app(app(insert(),f),g),app(app(cons(),h),t)),x)

app#(app(f,x),h) -> app#(app(app(app(insert(),f),g),app(app(cons(),h),t)),x)

app#(app(f,x),h) -> app#(app(app(app(insert(),f),g),app(app(cons(),h),t)),x)

app#(app(f,x),h) -> app#(app(app(app(insert(),f),g),app(app(cons(),h),t)),x)

app#(app(f,x),h) -> app#(app(app(sort(),f),g),app(app(cons(),h),t))
app#(app(f,x),h) -> 
app#(app(app(sort(),f),g),app(app(cons(),h),t))
app#(app(f,x),h) -> app#
                                                                    (
                                                                    app(app(sort(),f),g),
                                                                    app
                                                                    (app(cons(),h),t))

app#(app(f,x),h) -> app#(app(app(sort(),f),g),app(app(cons(),h),t))
app#(app(f,x),h) -> 
app#(app(app(sort(),f),g),app(app(cons(),h),t))
app#(app(f,x),h) -> app#(ascending_sort(),l)

app#(app(f,x),h) -> app#(ascending_sort(),l)
app#(app(f,x),h) -> app#(ascending_sort(),l)

app#(app(f,x),h) -> app#(descending_sort(),l)
app#(app(f,x),h) -> app#(descending_sort(),l)

app#(app(f,x),h) -> app#(descending_sort(),l)
app#(g,x) -> app#(app(max(),app(s(),x)),app(s(),y))

app#(g,x) -> app#(app(max(),app(s(),x)),app(s(),y))
app#(g,x) -> app#
                                                                 (app(min(),app(s(),x)),app(s(),y))

app#(g,x) -> app#(app(min(),app(s(),x)),app(s(),y))
app#(g,x) -> app#
                                                                 (app(app(app(insert(),f),g),nil()),
                                                                  x)

app#(g,x) -> app#(app(app(app(insert(),f),g),nil()),x)
app#(g,x) -> app#
                                                                    (
                                                                    app
                                                                    (
                                                                    app(app(insert(),f),g),
                                                                    app
                                                                    (app(cons(),h),t)),
                                                                    x)

app#(g,x) -> app#(app(app(app(insert(),f),g),app(app(cons(),h),t)),x)

app#(g,x) -> app#(app(app(app(insert(),f),g),app(app(cons(),h),t)),x)

app#(g,x) -> app#(app(app(app(insert(),f),g),app(app(cons(),h),t)),x)

app#(g,x) -> app#(app(app(app(insert(),f),g),app(app(cons(),h),t)),x)

app#(g,x) -> app#(app(app(app(insert(),f),g),app(app(cons(),h),t)),x)

app#(g,x) -> app#(app(app(app(insert(),f),g),app(app(cons(),h),t)),x)

app#(g,x) -> app#(app(app(app(insert(),f),g),app(app(cons(),h),t)),x)

app#(g,x) -> app#(app(app(sort(),f),g),app(app(cons(),h),t))
app#(g,x) -> 
app#(app(app(sort(),f),g),app(app(cons(),h),t))
app#(g,x) -> app#(app(app(sort(),f),g),
                                                                  app
                                                                  (app(cons(),h),t))

app#(g,x) -> app#(app(app(sort(),f),g),app(app(cons(),h),t))
app#(g,x) -> 
app#(app(app(sort(),f),g),app(app(cons(),h),t))
app#(g,x) -> app#(ascending_sort(),l)

app#(g,x) -> app#(ascending_sort(),l)
app#(g,x) -> app#(ascending_sort(),l)

app#(g,x) -> app#(descending_sort(),l)
app#(g,x) -> app#(descending_sort(),l)

app#(g,x) -> app#(descending_sort(),l)
app#(f,x) -> app#(app(max(),app(s(),x)),app(s(),y))

app#(f,x) -> app#(app(max(),app(s(),x)),app(s(),y))
app#(f,x) -> app#
                                                                 (app(min(),app(s(),x)),app(s(),y))

app#(f,x) -> app#(app(min(),app(s(),x)),app(s(),y))
app#(f,x) -> app#
                                                                 (app(app(app(insert(),f),g),nil()),
                                                                  x)

app#(f,x) -> app#(app(app(app(insert(),f),g),nil()),x)
app#(f,x) -> app#
                                                                    (
                                                                    app
                                                                    (
                                                                    app(app(insert(),f),g),
                                                                    app
                                                                    (app(cons(),h),t)),
                                                                    x)

app#(f,x) -> app#(app(app(app(insert(),f),g),app(app(cons(),h),t)),x)

app#(f,x) -> app#(app(app(app(insert(),f),g),app(app(cons(),h),t)),x)

app#(f,x) -> app#(app(app(app(insert(),f),g),app(app(cons(),h),t)),x)

app#(f,x) -> app#(app(app(app(insert(),f),g),app(app(cons(),h),t)),x)

app#(f,x) -> app#(app(app(app(insert(),f),g),app(app(cons(),h),t)),x)

app#(f,x) -> app#(app(app(app(insert(),f),g),app(app(cons(),h),t)),x)

app#(f,x) -> app#(app(app(app(insert(),f),g),app(app(cons(),h),t)),x)

app#(f,x) -> app#(app(app(sort(),f),g),app(app(cons(),h),t))
app#(f,x) -> 
app#(app(app(sort(),f),g),app(app(cons(),h),t))
app#(f,x) -> app#(app(app(sort(),f),g),
                                                                  app
                                                                  (app(cons(),h),t))

app#(f,x) -> app#(app(app(sort(),f),g),app(app(cons(),h),t))
app#(f,x) -> 
app#(app(app(sort(),f),g),app(app(cons(),h),t))
app#(f,x) -> app#(ascending_sort(),l)

app#(f,x) -> app#(ascending_sort(),l)
app#(f,x) -> app#(ascending_sort(),l)

app#(f,x) -> app#(descending_sort(),l)
app#(f,x) -> app#(descending_sort(),l)

app#(f,x) -> app#(descending_sort(),l)
app#(app(max(),x),y) -> app#(app(max(),app(s(),x)),
                                                                    app
                                                                    (s(),y))

app#(app(max(),x),y) -> app#(app(max(),app(s(),x)),app(s(),y))
