app#(app(div(),app(app(minus(),x),y)),app(s(),y)) -> app#(app(div(),app(s(),x)),app(s(),y))

app#(app(div(),app(app(minus(),x),y)),app(s(),y)) -> app#(app(div(),app(s(),x)),app(s(),y))

app#(app(div(),app(app(minus(),x),y)),app(s(),y)) -> app#(app(div(),app(s(),x)),app(s(),y))

app#(app(div(),app(app(minus(),x),y)),app(s(),y)) -> app#(app(div(),app(s(),x)),app(s(),y))

app#(app(div(),app(app(minus(),x),y)),app(s(),y)) -> app#(app(div(),app(s(),x)),app(s(),y))

app#(app(minus(),x),y) -> app#(app(minus(),app(s(),x)),app(s(),y))
app#(app(minus(),x),y) -> 
app#(app(minus(),app(s(),x)),app(s(),y))
app#(app(minus(),x),y) -> app#
                                                                   (app(minus(),app(s(),x)),
                                                                    app
                                                                    (s(),y))

app#(app(minus(),x),y) -> app#(app(minus(),app(s(),x)),app(s(),y))
app#(app(map(),f),xs) -> 
app#(app(map(),f),app(app(cons(),x),xs))
app#(app(map(),f),xs) -> app#
                                                                  (app(map(),f),
                                                                   app
                                                                   (app(cons(),x),xs))

app#(app(map(),f),xs) -> app#(app(map(),f),app(app(cons(),x),xs))
app#(app(map(),f),xs) -> 
app#(app(map(),f),app(app(cons(),x),xs))
app#(f,x) -> app#(app(map(),f),app(app(cons(),x),xs))

app#(f,x) -> app#(app(map(),f),app(app(cons(),x),xs))
app#(f,x) -> app#
                                                                   (app(map(),f),
                                                                    app
                                                                    (app(cons(),x),xs))

app#(f,x) -> app#(app(map(),f),app(app(cons(),x),xs))
app#(f,x) -> app#
                                                                   (app(minus(),app(s(),x)),
                                                                    app
                                                                    (s(),y))

app#(f,x) -> app#(app(minus(),app(s(),x)),app(s(),y))
app#(f,x) -> app#
                                                                   (app(div(),app(s(),x)),
                                                                    app
                                                                    (s(),y))

app#(f,x) -> app#(app(div(),app(s(),x)),app(s(),y))
app#(f,x) -> app#
                                                                 (app(div(),app(s(),x)),app(s(),y))

app#(f,x) -> app#(app(div(),app(s(),x)),app(s(),y))
app#(f,x) -> app#
                                                                 (app(div(),app(s(),x)),app(s(),y))
