app#(app(maxlist(),0()),app(app(map(),height()),xs)) -> app#(app(maxlist(),x),app(app(cons(),y),ys))

app#(app(maxlist(),0()),app(app(map(),height()),xs)) -> app#(app(maxlist(),x),app(app(cons(),y),ys))

app#(app(maxlist(),0()),app(app(map(),height()),xs)) -> app#(app(maxlist(),x),app(app(cons(),y),ys))

app#(app(maxlist(),0()),app(app(map(),height()),xs)) -> app#(app(maxlist(),x),app(app(cons(),y),ys))

app#(app(maxlist(),0()),app(app(map(),height()),xs)) -> app#(app(maxlist(),x),app(app(cons(),y),ys))

app#(app(maxlist(),0()),app(app(map(),height()),xs)) -> app#(app(maxlist(),x),app(app(cons(),y),ys))

app#(app(map(),height()),xs) -> app#(app(map(),f),app(app(cons(),x),xs))

app#(app(map(),height()),xs) -> app#(app(map(),f),app(app(cons(),x),xs))

app#(app(map(),height()),xs) -> app#(app(map(),f),app(app(cons(),x),xs))

app#(app(map(),height()),xs) -> app#(app(map(),f),app(app(cons(),x),xs))

app#(app(maxlist(),y),ys) -> app#(app(maxlist(),x),app(app(cons(),y),ys))

app#(app(maxlist(),y),ys) -> app#(app(maxlist(),x),app(app(cons(),y),ys))

app#(app(maxlist(),y),ys) -> app#(app(maxlist(),x),app(app(cons(),y),ys))

app#(app(maxlist(),y),ys) -> app#(app(maxlist(),x),app(app(cons(),y),ys))

app#(app(maxlist(),y),ys) -> app#(app(maxlist(),x),app(app(cons(),y),ys))

app#(app(maxlist(),y),ys) -> app#(app(maxlist(),x),app(app(cons(),y),ys))

app#(app(le(),x),y) -> app#(app(le(),app(s(),x)),app(s(),y))
app#(app(le(),x),y) -> 
app#(app(le(),app(s(),x)),app(s(),y))
app#(app(le(),x),y) -> app#(app(le(),app(s(),x)),app(s(),y))

app#(app(le(),x),y) -> app#(app(le(),app(s(),x)),app(s(),y))
app#(app(map(),f),xs) -> 
app#(app(map(),f),app(app(cons(),x),xs))
app#(app(map(),f),xs) -> app#
                                                                  (app(map(),f),
                                                                   app
                                                                   (app(cons(),x),xs))

app#(app(map(),f),xs) -> app#(app(map(),f),app(app(cons(),x),xs))
app#(app(map(),f),xs) -> 
app#(app(map(),f),app(app(cons(),x),xs))
app#(f,x) -> app#(app(map(),f),app(app(cons(),x),xs))

app#(f,x) -> app#(app(map(),f),app(app(cons(),x),xs))
app#(f,x) -> app#
                                                                   (app(map(),f),
                                                                    app
                                                                    (app(cons(),x),xs))

app#(f,x) -> app#(app(map(),f),app(app(cons(),x),xs))
app#(f,x) -> app#
                                                                   (app(le(),app(s(),x)),app(s(),y))

app#(f,x) -> app#(app(le(),app(s(),x)),app(s(),y))
app#(f,x) -> app#(
                                                                    app(maxlist(),x),
                                                                    app
                                                                    (app(cons(),y),ys))

app#(f,x) -> app#(app(maxlist(),x),app(app(cons(),y),ys))
app#(f,x) -> 
app#(app(maxlist(),x),app(app(cons(),y),ys))
app#(f,x) -> app#(app(maxlist(),x),
                                                               app(app(cons(),y),ys))

app#(f,x) -> app#(app(maxlist(),x),app(app(cons(),y),ys))
app#(f,x) -> 
app#(app(maxlist(),x),app(app(cons(),y),ys))
app#(f,x) -> app#(height(),app(app(node(),x),xs))

app#(f,x) -> app#(height(),app(app(node(),x),xs))
app#(f,x) -> app#(height(),app(app(node(),x),xs))

app#(f,x) -> app#(height(),app(app(node(),x),xs))
app#(f,x) -> app#(height(),app(app(node(),x),xs))
