foldf#(triple(a,b,nil()),c) -> foldf#(x,cons(y,z))
foldf#(triple(a,b,nil()),c) -> 
foldf#(x,cons(y,z))
f#(triple(a,b,c),A()) -> f#(t,x)
f#(triple(a,b,c),A()) -> 
f#(t,x)
f''#(foldf(triple(cons(A(),a),nil(),c),b)) -> f''#(triple(a,b,c))

foldf#(triple(cons(A(),a),nil(),c),b) -> foldf#(x,cons(y,z))
foldf#(triple(cons(A(),a),nil(),c),b) -> 
foldf#(x,cons(y,z))
f'#(t,g(x)) -> f'#(triple(a,b,c),B())
f'#(t,g(x)) -> 
f'#(triple(a,b,c),A())
f'#(t,g(x)) -> f'#(triple(a,b,c),A())
f#(foldf(x,z),y) -> 
f#(t,x)
f#(foldf(x,z),y) -> f#(t,x)
foldf#(x,z) -> foldf#(x,cons(y,z))

foldf#(x,z) -> foldf#(x,cons(y,z))
