prod#(l) -> prod#(cons(x,l))
prod#(l) -> prod#(cons(x,l))
*#(x,prod(l)) -> 
*#(0(x),y)
*#(x,prod(l)) -> *#(0(x),y)
*#(x,prod(l)) -> *#(1(x),y)
*#(x,prod(l)) -> 
*#(1(x),y)
*#(x,prod(l)) -> *#(1(x),y)
sum#(l) -> sum#(nil())
sum#(l) -> 
sum#(cons(x,l))
sum#(l) -> sum#(cons(x,l))
+#(x,sum(l)) -> +#(0(x),0(y))

+#(x,sum(l)) -> +#(0(x),0(y))
+#(x,sum(l)) -> +#(0(x),1(y))
+#(x,sum(l)) -> 
+#(1(x),0(y))
+#(x,sum(l)) -> +#(1(x),1(y))
+#(x,sum(l)) -> +#(1(x),1(y))

+#(x,sum(l)) -> +#(1(x),1(y))
*#(x,y) -> *#(0(x),y)
*#(x,y) -> *#(0(x),y)

*#(x,y) -> *#(1(x),y)
*#(x,y) -> *#(1(x),y)
*#(x,y) -> *#(1(x),y)
+#(0(*(x,y)),y) -> 
+#(0(x),0(y))
+#(0(*(x,y)),y) -> +#(0(x),0(y))
+#(0(*(x,y)),y) -> +#(0(x),1(y))

+#(0(*(x,y)),y) -> +#(1(x),0(y))
+#(0(*(x,y)),y) -> +#(1(x),1(y))
+#(0(*(x,y)),y) -> 
+#(1(x),1(y))
+#(0(*(x,y)),y) -> +#(1(x),1(y))
*#(x,y) -> *#(0(x),y)

*#(x,y) -> *#(0(x),y)
*#(x,y) -> *#(1(x),y)
*#(x,y) -> *#(1(x),y)
*#(x,y) -> 
*#(1(x),y)
+#(+(x,y),1(#())) -> +#(0(x),1(y))
+#(+(x,y),1(#())) -> +#(1(x),1(y))

+#(+(x,y),1(#())) -> +#(1(x),1(y))
+#(+(x,y),1(#())) -> +#(1(x),1(y))

+#(x,y) -> +#(0(x),0(y))
+#(x,y) -> +#(0(x),0(y))
+#(x,y) -> +#(0(x),1(y))

+#(x,y) -> +#(1(x),0(y))
+#(x,y) -> +#(1(x),1(y))
+#(x,y) -> +#(1(x),1(y))

+#(x,y) -> +#(1(x),1(y))
+#(x,y) -> +#(0(x),0(y))
+#(x,y) -> +#(0(x),0(y))

+#(x,y) -> +#(0(x),1(y))
+#(x,y) -> +#(1(x),0(y))
+#(x,y) -> +#(1(x),1(y))

+#(x,y) -> +#(1(x),1(y))
+#(x,y) -> +#(1(x),1(y))
+#(x,y) -> +#(0(x),0(y))

+#(x,y) -> +#(0(x),0(y))
+#(x,y) -> +#(0(x),1(y))
+#(x,y) -> +#(1(x),0(y))

+#(x,y) -> +#(1(x),1(y))
+#(x,y) -> +#(1(x),1(y))
+#(x,y) -> +#(1(x),1(y))

+#(x,y) -> +#(0(x),0(y))
+#(x,y) -> +#(0(x),0(y))
+#(x,y) -> +#(0(x),1(y))

+#(x,y) -> +#(1(x),0(y))
+#(x,y) -> +#(1(x),1(y))
+#(x,y) -> +#(1(x),1(y))

+#(x,y) -> +#(1(x),1(y))
