prod#(l) -> prod#(cons(x,l))
prod#(l) -> prod#(cons(x,l))
prod#(l) -> 
prod#(app(l1,l2))
prod#(l) -> prod#(app(l1,l2))
prod#(l) -> prod#(app(l1,l2))

*#(x,prod(l)) -> *#(0(x),y)
*#(x,prod(l)) -> *#(0(x),y)
*#(x,prod(l)) -> 
*#(1(x),y)
*#(x,prod(l)) -> *#(1(x),y)
*#(x,prod(l)) -> *#(1(x),y)
*#(x,prod(l)) -> 
*#(*(x,y),z)
*#(x,prod(l)) -> *#(*(x,y),z)
*#(x,prod(l)) -> *#(x,+(y,z))

*#(x,prod(l)) -> *#(x,+(y,z))
*#(x,prod(l)) -> *#(x,+(y,z))
prod#(l2) -> 
prod#(cons(x,l))
prod#(l2) -> prod#(cons(x,l))
prod#(l2) -> prod#(app(l1,l2))

prod#(l2) -> prod#(app(l1,l2))
prod#(l2) -> prod#(app(l1,l2))
prod#(l1) -> 
prod#(cons(x,l))
prod#(l1) -> prod#(cons(x,l))
prod#(l1) -> prod#(app(l1,l2))

prod#(l1) -> prod#(app(l1,l2))
prod#(l1) -> prod#(app(l1,l2))
*#(prod(l1),prod(l2)) -> 
*#(0(x),y)
*#(prod(l1),prod(l2)) -> *#(0(x),y)
*#(prod(l1),prod(l2)) -> 
*#(1(x),y)
*#(prod(l1),prod(l2)) -> *#(1(x),y)
*#(prod(l1),prod(l2)) -> 
*#(1(x),y)
*#(prod(l1),prod(l2)) -> *#(*(x,y),z)
*#(prod(l1),prod(l2)) -> 
*#(*(x,y),z)
*#(prod(l1),prod(l2)) -> *#(x,+(y,z))
*#(prod(l1),prod(l2)) -> 
*#(x,+(y,z))
*#(prod(l1),prod(l2)) -> *#(x,+(y,z))
sum#(l) -> sum#(nil())

sum#(l) -> sum#(cons(x,l))
sum#(l) -> sum#(cons(x,l))
sum#(l) -> sum#(app(l1,l2))

sum#(l) -> sum#(app(l1,l2))
sum#(l) -> sum#(app(l1,l2))
+#(x,sum(l)) -> 
+#(0(x),0(y))
+#(x,sum(l)) -> +#(0(x),0(y))
+#(x,sum(l)) -> +#(0(x),1(y))

+#(x,sum(l)) -> +#(1(x),0(y))
+#(x,sum(l)) -> +#(1(x),1(y))
+#(x,sum(l)) -> 
+#(1(x),1(y))
+#(x,sum(l)) -> +#(1(x),1(y))
+#(x,sum(l)) -> +#(+(x,y),z)

+#(x,sum(l)) -> +#(+(x,y),z)
sum#(l2) -> sum#(nil())
sum#(l2) -> sum#(cons(x,l))

sum#(l2) -> sum#(cons(x,l))
sum#(l2) -> sum#(app(l1,l2))
sum#(l2) -> 
sum#(app(l1,l2))
sum#(l2) -> sum#(app(l1,l2))
sum#(l1) -> sum#(nil())

sum#(l1) -> sum#(cons(x,l))
sum#(l1) -> sum#(cons(x,l))
sum#(l1) -> sum#(app(l1,l2))

sum#(l1) -> sum#(app(l1,l2))
sum#(l1) -> sum#(app(l1,l2))
+#(sum(l1),sum(l2)) -> 
+#(0(x),0(y))
+#(sum(l1),sum(l2)) -> +#(0(x),0(y))
+#(sum(l1),sum(l2)) -> 
+#(0(x),1(y))
+#(sum(l1),sum(l2)) -> +#(1(x),0(y))
+#(sum(l1),sum(l2)) -> 
+#(1(x),1(y))
+#(sum(l1),sum(l2)) -> +#(1(x),1(y))
+#(sum(l1),sum(l2)) -> 
+#(1(x),1(y))
+#(sum(l1),sum(l2)) -> +#(+(x,y),z)
+#(sum(l1),sum(l2)) -> 
+#(+(x,y),z)
app#(l1,l2) -> app#(cons(x,l1),l2)
*#(y,z) -> *#(0(x),y)

*#(y,z) -> *#(0(x),y)
*#(y,z) -> *#(1(x),y)
*#(y,z) -> *#(1(x),y)
*#(y,z) -> 
*#(1(x),y)
*#(y,z) -> *#(*(x,y),z)
*#(y,z) -> *#(*(x,y),z)
*#(y,z) -> 
*#(x,+(y,z))
*#(y,z) -> *#(x,+(y,z))
*#(y,z) -> *#(x,+(y,z))
*#(x,*(y,z)) -> 
*#(0(x),y)
*#(x,*(y,z)) -> *#(0(x),y)
*#(x,*(y,z)) -> *#(1(x),y)
*#(x,*(y,z)) -> 
*#(1(x),y)
*#(x,*(y,z)) -> *#(1(x),y)
*#(x,*(y,z)) -> *#(*(x,y),z)
*#(x,*(y,z)) -> 
*#(*(x,y),z)
*#(x,*(y,z)) -> *#(x,+(y,z))
*#(x,*(y,z)) -> *#(x,+(y,z))

*#(x,*(y,z)) -> *#(x,+(y,z))
*#(x,y) -> *#(0(x),y)
*#(x,y) -> *#(0(x),y)

*#(x,y) -> *#(1(x),y)
*#(x,y) -> *#(1(x),y)
*#(x,y) -> *#(1(x),y)
*#(x,y) -> 
*#(*(x,y),z)
*#(x,y) -> *#(*(x,y),z)
*#(x,y) -> *#(x,+(y,z))
*#(x,y) -> 
*#(x,+(y,z))
*#(x,y) -> *#(x,+(y,z))
+#(0(*(x,y)),y) -> +#(0(x),0(y))

+#(0(*(x,y)),y) -> +#(0(x),0(y))
+#(0(*(x,y)),y) -> +#(0(x),1(y))
+#(0(*(x,y)),y) -> 
+#(1(x),0(y))
+#(0(*(x,y)),y) -> +#(1(x),1(y))
+#(0(*(x,y)),y) -> +#(1(x),1(y))

+#(0(*(x,y)),y) -> +#(1(x),1(y))
+#(0(*(x,y)),y) -> +#(+(x,y),z)
+#(0(*(x,y)),y) -> 
+#(+(x,y),z)
*#(x,y) -> *#(0(x),y)
*#(x,y) -> *#(0(x),y)
*#(x,y) -> *#(1(x),y)

*#(x,y) -> *#(1(x),y)
*#(x,y) -> *#(1(x),y)
*#(x,y) -> *#(*(x,y),z)
*#(x,y) -> 
*#(*(x,y),z)
*#(x,y) -> *#(x,+(y,z))
*#(x,y) -> *#(x,+(y,z))
*#(x,y) -> 
*#(x,+(y,z))
*#(x,z) -> *#(0(x),y)
*#(x,z) -> *#(0(x),y)
*#(x,z) -> *#(1(x),y)

*#(x,z) -> *#(1(x),y)
*#(x,z) -> *#(1(x),y)
*#(x,z) -> *#(*(x,y),z)
*#(x,z) -> 
*#(*(x,y),z)
*#(x,z) -> *#(x,+(y,z))
*#(x,z) -> *#(x,+(y,z))
*#(x,z) -> 
*#(x,+(y,z))
*#(x,y) -> *#(0(x),y)
*#(x,y) -> *#(0(x),y)
*#(x,y) -> *#(1(x),y)

*#(x,y) -> *#(1(x),y)
*#(x,y) -> *#(1(x),y)
*#(x,y) -> *#(*(x,y),z)
*#(x,y) -> 
*#(*(x,y),z)
*#(x,y) -> *#(x,+(y,z))
*#(x,y) -> *#(x,+(y,z))
*#(x,y) -> 
*#(x,+(y,z))
+#(*(x,y),*(x,z)) -> +#(0(x),0(y))
+#(*(x,y),*(x,z)) -> 
+#(0(x),0(y))
+#(*(x,y),*(x,z)) -> +#(0(x),1(y))
+#(*(x,y),*(x,z)) -> 
+#(1(x),0(y))
+#(*(x,y),*(x,z)) -> +#(1(x),1(y))
+#(*(x,y),*(x,z)) -> 
+#(1(x),1(y))
+#(*(x,y),*(x,z)) -> +#(1(x),1(y))
+#(*(x,y),*(x,z)) -> 
+#(+(x,y),z)
+#(*(x,y),*(x,z)) -> +#(+(x,y),z)
+#(+(x,y),1(#())) -> +#(0(x),1(y))

+#(+(x,y),1(#())) -> +#(1(x),1(y))
+#(+(x,y),1(#())) -> +#(1(x),1(y))

+#(+(x,y),1(#())) -> +#(1(x),1(y))
+#(+(x,y),1(#())) -> +#(+(x,y),z)

+#(+(x,y),1(#())) -> +#(+(x,y),z)
+#(x,y) -> +#(0(x),0(y))
+#(x,y) -> 
+#(0(x),0(y))
+#(x,y) -> +#(0(x),1(y))
+#(x,y) -> +#(1(x),0(y))
+#(x,y) -> 
+#(1(x),1(y))
+#(x,y) -> +#(1(x),1(y))
+#(x,y) -> +#(1(x),1(y))
+#(x,y) -> 
+#(+(x,y),z)
+#(x,y) -> +#(+(x,y),z)
+#(x,y) -> +#(0(x),0(y))
+#(x,y) -> 
+#(0(x),0(y))
+#(x,y) -> +#(0(x),1(y))
+#(x,y) -> +#(1(x),0(y))
+#(x,y) -> 
+#(1(x),1(y))
+#(x,y) -> +#(1(x),1(y))
+#(x,y) -> +#(1(x),1(y))
+#(x,y) -> 
+#(+(x,y),z)
+#(x,y) -> +#(+(x,y),z)
+#(y,z) -> +#(0(x),0(y))
+#(y,z) -> 
+#(0(x),0(y))
+#(y,z) -> +#(0(x),1(y))
+#(y,z) -> +#(1(x),0(y))
+#(y,z) -> 
+#(1(x),1(y))
+#(y,z) -> +#(1(x),1(y))
+#(y,z) -> +#(1(x),1(y))
+#(y,z) -> 
+#(+(x,y),z)
+#(y,z) -> +#(+(x,y),z)
+#(x,+(y,z)) -> +#(0(x),0(y))
+#(x,+(y,z)) -> 
+#(0(x),0(y))
+#(x,+(y,z)) -> +#(0(x),1(y))
+#(x,+(y,z)) -> +#(1(x),0(y))

+#(x,+(y,z)) -> +#(1(x),1(y))
+#(x,+(y,z)) -> +#(1(x),1(y))
+#(x,+(y,z)) -> 
+#(1(x),1(y))
+#(x,+(y,z)) -> +#(+(x,y),z)
+#(x,+(y,z)) -> +#(+(x,y),z)

+#(x,y) -> +#(0(x),0(y))
+#(x,y) -> +#(0(x),0(y))
+#(x,y) -> +#(0(x),1(y))

+#(x,y) -> +#(1(x),0(y))
+#(x,y) -> +#(1(x),1(y))
+#(x,y) -> +#(1(x),1(y))

+#(x,y) -> +#(1(x),1(y))
+#(x,y) -> +#(+(x,y),z)
+#(x,y) -> +#(+(x,y),z)

+#(x,y) -> +#(0(x),0(y))
+#(x,y) -> +#(0(x),0(y))
+#(x,y) -> +#(0(x),1(y))

+#(x,y) -> +#(1(x),0(y))
+#(x,y) -> +#(1(x),1(y))
+#(x,y) -> +#(1(x),1(y))

+#(x,y) -> +#(1(x),1(y))
+#(x,y) -> +#(+(x,y),z)
+#(x,y) -> +#(+(x,y),z)
