app#(app(app(app(filter2(),app(f,x)),f),x),xs) -> app#(app(app(app(filter2(),true()),f),x),xs)

app#(app(app(app(filter2(),app(f,x)),f),x),xs) -> app#(app(app(app(filter2(),true()),f),x),xs)

app#(app(app(app(filter2(),app(f,x)),f),x),xs) -> app#(app(app(app(filter2(),true()),f),x),xs)

app#(app(app(app(filter2(),app(f,x)),f),x),xs) -> app#(app(app(app(filter2(),true()),f),x),xs)

app#(app(app(app(filter2(),app(f,x)),f),x),xs) -> app#(app(app(app(filter2(),false()),f),x),xs)

app#(app(app(app(filter2(),app(f,x)),f),x),xs) -> app#(app(app(app(filter2(),false()),f),x),xs)

app#(f,x) -> app#(app(eq(),app(s(),x)),app(s(),y))
app#(f,x) -> app#(
                                                                    app(eq(),app(s(),x)),
                                                                    app(s(),y))

app#(f,x) -> app#(app(union(),app(app(app(edge(),x),y),i)),h)
app#(f,x) -> 
app#(app(union(),app(app(app(edge(),x),y),i)),h)
app#(f,x) -> app#(app
                                                                   (union(),
                                                                    app
                                                                    (app(app(edge(),x),y),i)),
                                                                   h)

app#(f,x) -> app#(app(app(app(reach(),x),y),app(app(app(edge(),u),v),i)),h)

app#(f,x) -> app#(app(app(app(reach(),x),y),app(app(app(edge(),u),v),i)),h)

app#(f,x) -> app#(app(app(app(reach(),x),y),app(app(app(edge(),u),v),i)),h)

app#(f,x) -> app#(app(app(app(reach(),x),y),app(app(app(edge(),u),v),i)),h)

app#(f,x) -> app#(app(app(app(reach(),x),y),app(app(app(edge(),u),v),i)),h)

app#(f,x) -> app#(app(app(app(reach(),x),y),app(app(app(edge(),u),v),i)),h)

app#(f,x) -> app#(app(app(app(reach(),x),y),app(app(app(edge(),u),v),i)),h)

app#(f,x) -> app#(app(app(app(app(if_reach_1(),true()),x),y),app(app(app(edge(),u),v),i)),h)

app#(f,x) -> app#(app(app(app(app(if_reach_1(),true()),x),y),app(app(app(edge(),u),v),i)),h)

app#(f,x) -> app#(app(app(app(app(if_reach_1(),true()),x),y),app(app(app(edge(),u),v),i)),h)

app#(f,x) -> app#(app(app(app(app(if_reach_1(),true()),x),y),app(app(app(edge(),u),v),i)),h)

app#(f,x) -> app#(app(app(app(app(if_reach_1(),true()),x),y),app(app(app(edge(),u),v),i)),h)

app#(f,x) -> app#(app(app(app(app(if_reach_1(),true()),x),y),app(app(app(edge(),u),v),i)),h)

app#(f,x) -> app#(app(app(app(app(if_reach_1(),true()),x),y),app(app(app(edge(),u),v),i)),h)

app#(f,x) -> app#(app(app(app(app(if_reach_1(),false()),x),y),app(app(app(edge(),u),v),i)),h)

app#(f,x) -> app#(app(app(app(app(if_reach_1(),false()),x),y),app(app(app(edge(),u),v),i)),h)

app#(f,x) -> app#(app(app(app(app(if_reach_1(),false()),x),y),app(app(app(edge(),u),v),i)),h)

app#(f,x) -> app#(app(app(app(app(if_reach_1(),false()),x),y),app(app(app(edge(),u),v),i)),h)

app#(f,x) -> app#(app(app(app(app(if_reach_1(),false()),x),y),app(app(app(edge(),u),v),i)),h)

app#(f,x) -> app#(app(app(app(app(if_reach_2(),false()),x),y),app(app(app(edge(),u),v),i)),h)

app#(f,x) -> app#(app(app(app(app(if_reach_2(),false()),x),y),app(app(app(edge(),u),v),i)),h)

app#(f,x) -> app#(app(app(app(app(if_reach_2(),false()),x),y),app(app(app(edge(),u),v),i)),h)

app#(f,x) -> app#(app(app(app(app(if_reach_2(),false()),x),y),app(app(app(edge(),u),v),i)),h)

app#(f,x) -> app#(app(app(app(app(if_reach_2(),false()),x),y),app(app(app(edge(),u),v),i)),h)

app#(f,x) -> app#(app(app(app(app(if_reach_2(),false()),x),y),app(app(app(edge(),u),v),i)),h)

app#(f,x) -> app#(app(app(app(app(if_reach_2(),false()),x),y),app(app(app(edge(),u),v),i)),h)

app#(f,x) -> app#(app(app(app(app(if_reach_2(),false()),x),y),app(app(app(edge(),u),v),i)),h)

app#(f,x) -> app#(app(app(app(app(if_reach_2(),false()),x),y),app(app(app(edge(),u),v),i)),h)

app#(f,x) -> app#(app(app(app(app(if_reach_2(),false()),x),y),app(app(app(edge(),u),v),i)),h)

app#(f,x) -> app#(app(app(app(app(if_reach_2(),false()),x),y),app(app(app(edge(),u),v),i)),h)

app#(f,x) -> app#(app(app(app(app(if_reach_2(),false()),x),y),app(app(app(edge(),u),v),i)),h)

app#(f,x) -> app#(app(map(),f),app(app(cons(),x),xs))
app#(f,x) -> app#
                                                                   (app(map(),f),
                                                                    app
                                                                    (app(cons(),x),xs))

app#(f,x) -> app#(app(map(),f),app(app(cons(),x),xs))
app#(f,x) -> app#
                                                                   (app(map(),f),
                                                                    app
                                                                    (app(cons(),x),xs))

app#(f,x) -> app#(app(filter(),f),app(app(cons(),x),xs))
app#(f,x) -> 
app#(app(filter(),f),app(app(cons(),x),xs))
app#(f,x) -> app#(app(filter(),f),app(app(cons(),x),xs))

app#(f,x) -> app#(app(filter(),f),app(app(cons(),x),xs))
app#(f,x) -> 
app#(app(filter(),f),app(app(cons(),x),xs))
app#(f,x) -> app#(app(app(app(filter2(),true()),f),x),
                                                              xs)
app#(f,x) -> 
app#(app(app(app(filter2(),true()),f),x),xs)
app#(f,x) -> app#(app(app(app(filter2(),true()),f),x),
                                                               xs)
app#(f,x) -> 
app#(app(app(app(filter2(),true()),f),x),xs)
app#(f,x) -> app#(app(app(app(filter2(),false()),f),x),
                                                               xs)
app#(f,x) -> 
app#(app(app(app(filter2(),false()),f),x),xs)
app#(app(map(),f),xs) -> 
app#(app(map(),f),app(app(cons(),x),xs))
app#(app(map(),f),xs) -> app#
                                                                  (app(map(),f),
                                                                   app
                                                                   (app(cons(),x),xs))

app#(app(map(),f),xs) -> app#(app(map(),f),app(app(cons(),x),xs))
app#(app(map(),f),xs) -> 
app#(app(map(),f),app(app(cons(),x),xs))
app#(f,x) -> app#(app(eq(),app(s(),x)),app(s(),y))

app#(f,x) -> app#(app(eq(),app(s(),x)),app(s(),y))
app#(f,x) -> app#(
                                                                    app
                                                                    (
                                                                    union(),
                                                                    app
                                                                    (app(app(edge(),x),y),i)),
                                                                    h)

app#(f,x) -> app#(app(union(),app(app(app(edge(),x),y),i)),h)
app#(f,x) -> 
app#(app(union(),app(app(app(edge(),x),y),i)),h)
app#(f,x) -> app#(app
                                                                   (app(app(reach(),x),y),
                                                                    app
                                                                    (app(app(edge(),u),v),i)),
                                                                   h)

app#(f,x) -> app#(app(app(app(reach(),x),y),app(app(app(edge(),u),v),i)),h)

app#(f,x) -> app#(app(app(app(reach(),x),y),app(app(app(edge(),u),v),i)),h)

app#(f,x) -> app#(app(app(app(reach(),x),y),app(app(app(edge(),u),v),i)),h)

app#(f,x) -> app#(app(app(app(reach(),x),y),app(app(app(edge(),u),v),i)),h)

app#(f,x) -> app#(app(app(app(reach(),x),y),app(app(app(edge(),u),v),i)),h)

app#(f,x) -> app#(app(app(app(reach(),x),y),app(app(app(edge(),u),v),i)),h)

app#(f,x) -> app#(app(app(app(app(if_reach_1(),true()),x),y),app(app(app(edge(),u),v),i)),h)

app#(f,x) -> app#(app(app(app(app(if_reach_1(),true()),x),y),app(app(app(edge(),u),v),i)),h)

app#(f,x) -> app#(app(app(app(app(if_reach_1(),true()),x),y),app(app(app(edge(),u),v),i)),h)

app#(f,x) -> app#(app(app(app(app(if_reach_1(),true()),x),y),app(app(app(edge(),u),v),i)),h)

app#(f,x) -> app#(app(app(app(app(if_reach_1(),true()),x),y),app(app(app(edge(),u),v),i)),h)

app#(f,x) -> app#(app(app(app(app(if_reach_1(),true()),x),y),app(app(app(edge(),u),v),i)),h)

app#(f,x) -> app#(app(app(app(app(if_reach_1(),true()),x),y),app(app(app(edge(),u),v),i)),h)

app#(f,x) -> app#(app(app(app(app(if_reach_1(),false()),x),y),app(app(app(edge(),u),v),i)),h)

app#(f,x) -> app#(app(app(app(app(if_reach_1(),false()),x),y),app(app(app(edge(),u),v),i)),h)

app#(f,x) -> app#(app(app(app(app(if_reach_1(),false()),x),y),app(app(app(edge(),u),v),i)),h)

app#(f,x) -> app#(app(app(app(app(if_reach_1(),false()),x),y),app(app(app(edge(),u),v),i)),h)

app#(f,x) -> app#(app(app(app(app(if_reach_1(),false()),x),y),app(app(app(edge(),u),v),i)),h)

app#(f,x) -> app#(app(app(app(app(if_reach_2(),false()),x),y),app(app(app(edge(),u),v),i)),h)

app#(f,x) -> app#(app(app(app(app(if_reach_2(),false()),x),y),app(app(app(edge(),u),v),i)),h)

app#(f,x) -> app#(app(app(app(app(if_reach_2(),false()),x),y),app(app(app(edge(),u),v),i)),h)

app#(f,x) -> app#(app(app(app(app(if_reach_2(),false()),x),y),app(app(app(edge(),u),v),i)),h)

app#(f,x) -> app#(app(app(app(app(if_reach_2(),false()),x),y),app(app(app(edge(),u),v),i)),h)

app#(f,x) -> app#(app(app(app(app(if_reach_2(),false()),x),y),app(app(app(edge(),u),v),i)),h)

app#(f,x) -> app#(app(app(app(app(if_reach_2(),false()),x),y),app(app(app(edge(),u),v),i)),h)

app#(f,x) -> app#(app(app(app(app(if_reach_2(),false()),x),y),app(app(app(edge(),u),v),i)),h)

app#(f,x) -> app#(app(app(app(app(if_reach_2(),false()),x),y),app(app(app(edge(),u),v),i)),h)

app#(f,x) -> app#(app(app(app(app(if_reach_2(),false()),x),y),app(app(app(edge(),u),v),i)),h)

app#(f,x) -> app#(app(app(app(app(if_reach_2(),false()),x),y),app(app(app(edge(),u),v),i)),h)

app#(f,x) -> app#(app(app(app(app(if_reach_2(),false()),x),y),app(app(app(edge(),u),v),i)),h)

app#(f,x) -> app#(app(map(),f),app(app(cons(),x),xs))
app#(f,x) -> app#
                                                                   (app(map(),f),
                                                                    app
                                                                    (app(cons(),x),xs))

app#(f,x) -> app#(app(map(),f),app(app(cons(),x),xs))
app#(f,x) -> app#
                                                                   (app(map(),f),
                                                                    app
                                                                    (app(cons(),x),xs))

app#(f,x) -> app#(app(filter(),f),app(app(cons(),x),xs))
app#(f,x) -> 
app#(app(filter(),f),app(app(cons(),x),xs))
app#(f,x) -> app#(app(filter(),f),app(app(cons(),x),xs))

app#(f,x) -> app#(app(filter(),f),app(app(cons(),x),xs))
app#(f,x) -> 
app#(app(filter(),f),app(app(cons(),x),xs))
app#(f,x) -> app#(app(app(app(filter2(),true()),f),x),
                                                              xs)
app#(f,x) -> 
app#(app(app(app(filter2(),true()),f),x),xs)
app#(f,x) -> app#(app(app(app(filter2(),true()),f),x),
                                                               xs)
app#(f,x) -> 
app#(app(app(app(filter2(),true()),f),x),xs)
app#(f,x) -> app#(app(app(app(filter2(),false()),f),x),
                                                               xs)
app#(f,x) -> 
app#(app(app(app(filter2(),false()),f),x),xs)
app#(app(union(),i),h) -> 
app#(app(union(),app(app(app(edge(),x),y),i)),h)
app#(app(union(),i),h) -> 
app#(app(union(),app(app(app(edge(),x),y),i)),h)
app#(app(union(),i),h) -> 
app#(app(union(),app(app(app(edge(),x),y),i)),h)
app#(app(filter(),f),xs) -> 
app#(app(filter(),f),app(app(cons(),x),xs))
app#(app(filter(),f),xs) -> 
app#(app(filter(),f),app(app(cons(),x),xs))
app#(app(filter(),f),xs) -> 
app#(app(filter(),f),app(app(cons(),x),xs))
app#(app(filter(),f),xs) -> 
app#(app(filter(),f),app(app(cons(),x),xs))
app#(app(filter(),f),xs) -> 
app#(app(filter(),f),app(app(cons(),x),xs))
app#(app(filter(),f),xs) -> 
app#(app(filter(),f),app(app(cons(),x),xs))
app#(app(filter(),f),xs) -> 
app#(app(filter(),f),app(app(cons(),x),xs))
app#(app(filter(),f),xs) -> 
app#(app(filter(),f),app(app(cons(),x),xs))
app#(app(filter(),f),xs) -> 
app#(app(filter(),f),app(app(cons(),x),xs))
app#(app(filter(),f),xs) -> 
app#(app(filter(),f),app(app(cons(),x),xs))
app#(app(app(app(app(if_reach_1(),app(app(eq(),x),u)),x),
                                                         y),app(app(app(edge(),u),v),i)),
                                                 h) -> app#(app(app(app(app(if_reach_1(),true()),x),
                                                                    y),
                                                                app(app(app(edge(),u),v),i)),
                                                            h)
app#(app
                                                                    (
                                                                    app
                                                                    (
                                                                    app
                                                                    (
                                                                    app
                                                                    (
                                                                    if_reach_1(),
                                                                    app(app(eq(),x),u)),
                                                                    x),
                                                                    y),
                                                                    app(app(app(edge(),u),v),i)),
                                                                    h) -> 
app#(app(app(app(app(if_reach_1(),true()),x),y),app(app(app(edge(),u),v),i)),h)

app#(app(app(app(app(if_reach_1(),app(app(eq(),x),u)),x),y),app(app(app(edge(),u),v),i)),h) -> 
app#(app(app(app(app(if_reach_1(),true()),x),y),app(app(app(edge(),u),v),i)),h)

app#(app(app(app(app(if_reach_1(),app(app(eq(),x),u)),x),y),app(app(app(edge(),u),v),i)),h) -> 
app#(app(app(app(app(if_reach_1(),true()),x),y),app(app(app(edge(),u),v),i)),h)

app#(app(app(app(app(if_reach_1(),app(app(eq(),x),u)),x),y),app(app(app(edge(),u),v),i)),h) -> 
app#(app(app(app(app(if_reach_1(),true()),x),y),app(app(app(edge(),u),v),i)),h)

app#(app(app(app(app(if_reach_1(),app(app(eq(),x),u)),x),y),app(app(app(edge(),u),v),i)),h) -> 
app#(app(app(app(app(if_reach_1(),true()),x),y),app(app(app(edge(),u),v),i)),h)

app#(app(app(app(app(if_reach_1(),app(app(eq(),x),u)),x),y),app(app(app(edge(),u),v),i)),h) -> 
app#(app(app(app(app(if_reach_1(),true()),x),y),app(app(app(edge(),u),v),i)),h)

app#(app(app(app(app(if_reach_1(),app(app(eq(),x),u)),x),y),app(app(app(edge(),u),v),i)),h) -> 
app#(app(app(app(app(if_reach_1(),false()),x),y),app(app(app(edge(),u),v),i)),h)

app#(app(app(app(app(if_reach_1(),app(app(eq(),x),u)),x),y),app(app(app(edge(),u),v),i)),h) -> 
app#(app(app(app(app(if_reach_1(),false()),x),y),app(app(app(edge(),u),v),i)),h)

app#(app(app(app(app(if_reach_1(),app(app(eq(),x),u)),x),y),app(app(app(edge(),u),v),i)),h) -> 
app#(app(app(app(app(if_reach_1(),false()),x),y),app(app(app(edge(),u),v),i)),h)

app#(app(app(app(app(if_reach_1(),app(app(eq(),x),u)),x),y),app(app(app(edge(),u),v),i)),h) -> 
app#(app(app(app(app(if_reach_1(),false()),x),y),app(app(app(edge(),u),v),i)),h)

app#(app(app(app(app(if_reach_1(),app(app(eq(),x),u)),x),y),app(app(app(edge(),u),v),i)),h) -> 
app#(app(app(app(app(if_reach_1(),false()),x),y),app(app(app(edge(),u),v),i)),h)

app#(app(eq(),x),u) -> app#(app(eq(),app(s(),x)),app(s(),y))
app#(app(eq(),x),u) -> 
app#(app(eq(),app(s(),x)),app(s(),y))
app#(app(union(),i),h) -> app#(
                                                                    app
                                                                    (
                                                                    union(),
                                                                    app
                                                                    (app(app(edge(),x),y),i)),
                                                                    h)

app#(app(union(),i),h) -> app#(app(union(),app(app(app(edge(),x),y),i)),h)

app#(app(union(),i),h) -> app#(app(union(),app(app(app(edge(),x),y),i)),h)

app#(app(app(app(reach(),v),y),app(app(union(),i),h)),empty()) -> app#
                                                                  (app
                                                                   (app(app(reach(),x),y),
                                                                    app
                                                                    (app(app(edge(),u),v),i)),
                                                                   h)

app#(app(app(app(reach(),v),y),app(app(union(),i),h)),empty()) -> app#
                                                                  (app
                                                                   (app(app(reach(),x),y),
                                                                    app
                                                                    (app(app(edge(),u),v),i)),
                                                                   h)

app#(app(app(app(reach(),v),y),app(app(union(),i),h)),empty()) -> app#
                                                                  (app
                                                                   (app(app(reach(),x),y),
                                                                    app
                                                                    (app(app(edge(),u),v),i)),
                                                                   h)

app#(app(app(app(reach(),v),y),app(app(union(),i),h)),empty()) -> app#
                                                                  (app
                                                                   (app(app(reach(),x),y),
                                                                    app
                                                                    (app(app(edge(),u),v),i)),
                                                                   h)

app#(app(app(app(reach(),v),y),app(app(union(),i),h)),empty()) -> app#
                                                                  (app
                                                                   (app(app(reach(),x),y),
                                                                    app
                                                                    (app(app(edge(),u),v),i)),
                                                                   h)

app#(app(app(app(reach(),v),y),app(app(union(),i),h)),empty()) -> app#
                                                                  (app
                                                                   (app(app(reach(),x),y),
                                                                    app
                                                                    (app(app(edge(),u),v),i)),
                                                                   h)

app#(app(app(app(reach(),v),y),app(app(union(),i),h)),empty()) -> app#
                                                                  (app
                                                                   (app(app(reach(),x),y),
                                                                    app
                                                                    (app(app(edge(),u),v),i)),
                                                                   h)

app#(app(app(app(reach(),x),y),i),h) -> app#(app(app(app(reach(),x),y),app(app(app(edge(),u),v),i)),
                                             h)
app#(app(app(app(reach(),x),y),i),h) -> 
app#(app(app(app(reach(),x),y),app(app(app(edge(),u),v),i)),h)
app#(app(app(app(reach(),x),y),i),h) -> 
app#(app(app(app(reach(),x),y),app(app(app(edge(),u),v),i)),h)
app#(app(app(app(reach(),x),y),i),h) -> 
app#(app(app(app(reach(),x),y),app(app(app(edge(),u),v),i)),h)
app#(app(app(app(reach(),x),y),i),h) -> 
app#(app(app(app(reach(),x),y),app(app(app(edge(),u),v),i)),h)
app#(app(app(app(reach(),x),y),i),h) -> 
app#(app(app(app(reach(),x),y),app(app(app(edge(),u),v),i)),h)
app#(app(app(app(reach(),x),y),i),h) -> 
app#(app(app(app(reach(),x),y),app(app(app(edge(),u),v),i)),h)
app#(app(app(app(reach(),x),y),i),
                                                                    app
                                                                    (app(app(edge(),u),v),h)) -> 
app#(app(app(app(reach(),x),y),app(app(app(edge(),u),v),i)),h)
app#(app(app(app(reach(),x),y),i),
                                                                    app
                                                                    (app(app(edge(),u),v),h)) -> 
app#(app(app(app(reach(),x),y),app(app(app(edge(),u),v),i)),h)
app#(app(app(app(reach(),x),y),i),
                                                                    app
                                                                    (app(app(edge(),u),v),h)) -> 
app#(app(app(app(reach(),x),y),app(app(app(edge(),u),v),i)),h)
app#(app(app(app(reach(),x),y),i),
                                                                    app
                                                                    (app(app(edge(),u),v),h)) -> 
app#(app(app(app(reach(),x),y),app(app(app(edge(),u),v),i)),h)
app#(app(app(app(reach(),x),y),i),
                                                                    app
                                                                    (app(app(edge(),u),v),h)) -> 
app#(app(app(app(reach(),x),y),app(app(app(edge(),u),v),i)),h)
app#(app(app(app(reach(),x),y),i),
                                                                    app
                                                                    (app(app(edge(),u),v),h)) -> 
app#(app(app(app(reach(),x),y),app(app(app(edge(),u),v),i)),h)
app#(app(app(app(reach(),x),y),i),
                                                                    app
                                                                    (app(app(edge(),u),v),h)) -> 
app#(app(app(app(reach(),x),y),app(app(app(edge(),u),v),i)),h)
app#(app
                                                                    (
                                                                    app
                                                                    (
                                                                    app
                                                                    (
                                                                    app
                                                                    (
                                                                    if_reach_2(),
                                                                    app(app(eq(),y),v)),
                                                                    x),
                                                                    y),
                                                                    app(app(app(edge(),u),v),i)),
                                                                    h) -> 
app#(app(app(app(app(if_reach_2(),false()),x),y),app(app(app(edge(),u),v),i)),h)

app#(app(app(app(app(if_reach_2(),app(app(eq(),y),v)),x),y),app(app(app(edge(),u),v),i)),h) -> 
app#(app(app(app(app(if_reach_2(),false()),x),y),app(app(app(edge(),u),v),i)),h)

app#(app(app(app(app(if_reach_2(),app(app(eq(),y),v)),x),y),app(app(app(edge(),u),v),i)),h) -> 
app#(app(app(app(app(if_reach_2(),false()),x),y),app(app(app(edge(),u),v),i)),h)

app#(app(app(app(app(if_reach_2(),app(app(eq(),y),v)),x),y),app(app(app(edge(),u),v),i)),h) -> 
app#(app(app(app(app(if_reach_2(),false()),x),y),app(app(app(edge(),u),v),i)),h)

app#(app(app(app(app(if_reach_2(),app(app(eq(),y),v)),x),y),app(app(app(edge(),u),v),i)),h) -> 
app#(app(app(app(app(if_reach_2(),false()),x),y),app(app(app(edge(),u),v),i)),h)

app#(app(app(app(app(if_reach_2(),app(app(eq(),y),v)),x),y),app(app(app(edge(),u),v),i)),h) -> 
app#(app(app(app(app(if_reach_2(),false()),x),y),app(app(app(edge(),u),v),i)),h)

app#(app(app(app(app(if_reach_2(),app(app(eq(),y),v)),x),y),app(app(app(edge(),u),v),i)),h) -> 
app#(app(app(app(app(if_reach_2(),false()),x),y),app(app(app(edge(),u),v),i)),h)

app#(app(app(app(app(if_reach_2(),app(app(eq(),y),v)),x),y),app(app(app(edge(),u),v),i)),h) -> 
app#(app(app(app(app(if_reach_2(),false()),x),y),app(app(app(edge(),u),v),i)),h)

app#(app(app(app(app(if_reach_2(),app(app(eq(),y),v)),x),y),app(app(app(edge(),u),v),i)),h) -> 
app#(app(app(app(app(if_reach_2(),false()),x),y),app(app(app(edge(),u),v),i)),h)

app#(app(app(app(app(if_reach_2(),app(app(eq(),y),v)),x),y),app(app(app(edge(),u),v),i)),h) -> 
app#(app(app(app(app(if_reach_2(),false()),x),y),app(app(app(edge(),u),v),i)),h)

app#(app(app(app(app(if_reach_2(),app(app(eq(),y),v)),x),y),app(app(app(edge(),u),v),i)),h) -> 
app#(app(app(app(app(if_reach_2(),false()),x),y),app(app(app(edge(),u),v),i)),h)

app#(app(app(app(app(if_reach_2(),app(app(eq(),y),v)),x),y),app(app(app(edge(),u),v),i)),h) -> 
app#(app(app(app(app(if_reach_2(),false()),x),y),app(app(app(edge(),u),v),i)),h)

app#(app(eq(),y),v) -> app#(app(eq(),app(s(),x)),app(s(),y))
app#(app(eq(),y),v) -> 
app#(app(eq(),app(s(),x)),app(s(),y))
app#(app(eq(),x),y) -> app#(app(eq(),app(s(),x)),app(s(),y))

app#(app(eq(),x),y) -> app#(app(eq(),app(s(),x)),app(s(),y))
