app#(fun,x) -> app#(f(),a())
app#(fun,x) -> app#(g(),b())
app#(fun,x) -> 
app#(app(map(),fun),app(app(cons(),x),xs))
app#(fun,x) -> app#(app(map(),fun),app(app(cons(),x),xs))

app#(fun,x) -> app#(app(map(),fun),app(app(cons(),x),xs))
app#(fun,x) -> 
app#(app(map(),fun),app(app(cons(),x),xs))
app#(fun,x) -> app#(app(filter(),fun),
                                                               app(app(cons(),x),xs))

app#(fun,x) -> app#(app(filter(),fun),app(app(cons(),x),xs))
app#(fun,x) -> 
app#(app(filter(),fun),app(app(cons(),x),xs))
app#(fun,x) -> app#(app(filter(),fun),
                                                                  app
                                                                  (app(cons(),x),xs))

app#(fun,x) -> app#(app(filter(),fun),app(app(cons(),x),xs))
app#(fun,x) -> 
app#(app(app(app(filter2(),true()),fun),x),xs)
app#(fun,x) -> app#(app
                                                                   (app(app(filter2(),true()),fun),
                                                                    x),
                                                                   xs)

app#(fun,x) -> app#(app(app(app(filter2(),true()),fun),x),xs)
app#(fun,x) -> 
app#(app(app(app(filter2(),true()),fun),x),xs)
app#(fun,x) -> app#(app
                                                                   (app(app(filter2(),false()),fun),
                                                                    x),
                                                                   xs)

app#(fun,x) -> app#(app(app(app(filter2(),false()),fun),x),xs)
app#(app(map(),fun),xs) -> 
app#(app(map(),fun),app(app(cons(),x),xs))
app#(app(map(),fun),xs) -> 
app#(app(map(),fun),app(app(cons(),x),xs))
app#(app(map(),fun),xs) -> 
app#(app(map(),fun),app(app(cons(),x),xs))
app#(app(map(),fun),xs) -> 
app#(app(map(),fun),app(app(cons(),x),xs))
app#(fun,x) -> app#(f(),a())

app#(fun,x) -> app#(g(),b())
app#(fun,x) -> app#(app(map(),fun),app(app(cons(),x),xs))

app#(fun,x) -> app#(app(map(),fun),app(app(cons(),x),xs))
app#(fun,x) -> 
app#(app(map(),fun),app(app(cons(),x),xs))
app#(fun,x) -> app#(app(map(),fun),app(app(cons(),x),xs))

app#(fun,x) -> app#(app(filter(),fun),app(app(cons(),x),xs))
app#(fun,x) -> 
app#(app(filter(),fun),app(app(cons(),x),xs))
app#(fun,x) -> app#(app(filter(),fun),
                                                                  app
                                                                  (app(cons(),x),xs))

app#(fun,x) -> app#(app(filter(),fun),app(app(cons(),x),xs))
app#(fun,x) -> 
app#(app(filter(),fun),app(app(cons(),x),xs))
app#(fun,x) -> app#(app
                                                                  (app(app(filter2(),true()),fun),x),
                                                                  xs)

app#(fun,x) -> app#(app(app(app(filter2(),true()),fun),x),xs)
app#(fun,x) -> 
app#(app(app(app(filter2(),true()),fun),x),xs)
app#(fun,x) -> app#(app
                                                                   (app(app(filter2(),true()),fun),
                                                                    x),
                                                                   xs)

app#(fun,x) -> app#(app(app(app(filter2(),false()),fun),x),xs)
app#(fun,x) -> 
app#(app(app(app(filter2(),false()),fun),x),xs)
app#(app(filter(),fun),xs) -> 
app#(app(filter(),fun),app(app(cons(),x),xs))
app#(app(filter(),fun),xs) -> 
app#(app(filter(),fun),app(app(cons(),x),xs))
app#(app(filter(),fun),xs) -> 
app#(app(filter(),fun),app(app(cons(),x),xs))
app#(app(filter(),fun),xs) -> 
app#(app(filter(),fun),app(app(cons(),x),xs))
app#(app(filter(),fun),xs) -> 
app#(app(filter(),fun),app(app(cons(),x),xs))
app#(app(filter(),fun),xs) -> 
app#(app(filter(),fun),app(app(cons(),x),xs))
app#(app(filter(),fun),xs) -> 
app#(app(filter(),fun),app(app(cons(),x),xs))
app#(app(filter(),fun),xs) -> 
app#(app(filter(),fun),app(app(cons(),x),xs))
app#(app(filter(),fun),xs) -> 
app#(app(filter(),fun),app(app(cons(),x),xs))
app#(app(filter(),fun),xs) -> 
app#(app(filter(),fun),app(app(cons(),x),xs))
