app#(log(),app(s(),app(app(quot(),x),app(s(),app(s(),0()))))) -> app#(log(),app(s(),app(s(),x)))

app#(log(),app(s(),app(app(quot(),x),app(s(),app(s(),0()))))) -> app#(log(),app(s(),app(s(),x)))

app#(log(),app(s(),app(app(quot(),x),app(s(),app(s(),0()))))) -> app#(log(),app(s(),app(s(),x)))

app#(log(),app(s(),app(app(quot(),x),app(s(),app(s(),0()))))) -> app#(log(),app(s(),app(s(),x)))

app#(log(),app(s(),app(app(quot(),x),app(s(),app(s(),0()))))) -> app#(log(),app(s(),app(s(),x)))

app#(log(),app(s(),app(app(quot(),x),app(s(),app(s(),0()))))) -> app#(log(),app(s(),app(s(),x)))

app#(log(),app(s(),app(app(quot(),x),app(s(),app(s(),0()))))) -> app#(log(),app(s(),app(s(),x)))

app#(app(quot(),x),app(s(),app(s(),0()))) -> app#(app(quot(),app(s(),x)),app(s(),y))

app#(app(quot(),x),app(s(),app(s(),0()))) -> app#(app(quot(),app(s(),x)),app(s(),y))

app#(app(quot(),x),app(s(),app(s(),0()))) -> app#(app(quot(),app(s(),x)),app(s(),y))

app#(app(quot(),x),app(s(),app(s(),0()))) -> app#(app(quot(),app(s(),x)),app(s(),y))

app#(app(quot(),x),app(s(),app(s(),0()))) -> app#(app(quot(),app(s(),x)),app(s(),y))

app#(app(app(app(filter2(),app(f,x)),f),x),xs) -> app#(app(app(app(filter2(),true()),f),x),xs)

app#(app(app(app(filter2(),app(f,x)),f),x),xs) -> app#(app(app(app(filter2(),true()),f),x),xs)

app#(app(app(app(filter2(),app(f,x)),f),x),xs) -> app#(app(app(app(filter2(),true()),f),x),xs)

app#(app(app(app(filter2(),app(f,x)),f),x),xs) -> app#(app(app(app(filter2(),true()),f),x),xs)

app#(app(app(app(filter2(),app(f,x)),f),x),xs) -> app#(app(app(app(filter2(),false()),f),x),xs)

app#(app(app(app(filter2(),app(f,x)),f),x),xs) -> app#(app(app(app(filter2(),false()),f),x),xs)

app#(f,x) -> app#(app(minus(),app(s(),x)),app(s(),y))
app#(f,x) -> app#
                                                                   (app(minus(),app(s(),x)),
                                                                    app
                                                                    (s(),y))

app#(f,x) -> app#(app(quot(),app(s(),x)),app(s(),y))
app#(f,x) -> app#
                                                                  (app(quot(),app(s(),x)),
                                                                   app
                                                                   (s(),y))

app#(f,x) -> app#(app(quot(),app(s(),x)),app(s(),y))
app#(f,x) -> app#
                                                                  (app(quot(),app(s(),x)),
                                                                   app
                                                                   (s(),y))

app#(f,x) -> app#(app(quot(),app(s(),x)),app(s(),y))
app#(f,x) -> app#(log(),app(s(),app(s(),x)))

app#(f,x) -> app#(log(),app(s(),app(s(),x)))
app#(f,x) -> app#(log(),app(s(),app(s(),x)))

app#(f,x) -> app#(log(),app(s(),app(s(),x)))
app#(f,x) -> app#(log(),app(s(),app(s(),x)))

app#(f,x) -> app#(log(),app(s(),app(s(),x)))
app#(f,x) -> app#(log(),app(s(),app(s(),x)))

app#(f,x) -> app#(app(map(),f),app(app(cons(),x),xs))
app#(f,x) -> app#
                                                                   (app(map(),f),
                                                                    app
                                                                    (app(cons(),x),xs))

app#(f,x) -> app#(app(map(),f),app(app(cons(),x),xs))
app#(f,x) -> app#
                                                                   (app(map(),f),
                                                                    app
                                                                    (app(cons(),x),xs))

app#(f,x) -> app#(app(filter(),f),app(app(cons(),x),xs))
app#(f,x) -> 
app#(app(filter(),f),app(app(cons(),x),xs))
app#(f,x) -> app#(app(filter(),f),app(app(cons(),x),xs))

app#(f,x) -> app#(app(filter(),f),app(app(cons(),x),xs))
app#(f,x) -> 
app#(app(filter(),f),app(app(cons(),x),xs))
app#(f,x) -> app#(app(app(app(filter2(),true()),f),x),
                                                              xs)
app#(f,x) -> 
app#(app(app(app(filter2(),true()),f),x),xs)
app#(f,x) -> app#(app(app(app(filter2(),true()),f),x),
                                                               xs)
app#(f,x) -> 
app#(app(app(app(filter2(),true()),f),x),xs)
app#(f,x) -> app#(app(app(app(filter2(),false()),f),x),
                                                               xs)
app#(f,x) -> 
app#(app(app(app(filter2(),false()),f),x),xs)
app#(app(map(),f),xs) -> 
app#(app(map(),f),app(app(cons(),x),xs))
app#(app(map(),f),xs) -> app#
                                                                  (app(map(),f),
                                                                   app
                                                                   (app(cons(),x),xs))

app#(app(map(),f),xs) -> app#(app(map(),f),app(app(cons(),x),xs))
app#(app(map(),f),xs) -> 
app#(app(map(),f),app(app(cons(),x),xs))
app#(f,x) -> app#(app(minus(),app(s(),x)),app(s(),y))

app#(f,x) -> app#(app(minus(),app(s(),x)),app(s(),y))
app#(f,x) -> app#
                                                                   (app(quot(),app(s(),x)),
                                                                    app
                                                                    (s(),y))

app#(f,x) -> app#(app(quot(),app(s(),x)),app(s(),y))
app#(f,x) -> app#
                                                                  (app(quot(),app(s(),x)),
                                                                   app
                                                                   (s(),y))

app#(f,x) -> app#(app(quot(),app(s(),x)),app(s(),y))
app#(f,x) -> app#
                                                                  (app(quot(),app(s(),x)),
                                                                   app
                                                                   (s(),y))

app#(f,x) -> app#(log(),app(s(),app(s(),x)))
app#(f,x) -> app#(log(),app(s(),app(s(),x)))

app#(f,x) -> app#(log(),app(s(),app(s(),x)))
app#(f,x) -> app#(log(),app(s(),app(s(),x)))

app#(f,x) -> app#(log(),app(s(),app(s(),x)))
app#(f,x) -> app#(log(),app(s(),app(s(),x)))

app#(f,x) -> app#(log(),app(s(),app(s(),x)))
app#(f,x) -> app#(app(map(),f),app(app(cons(),x),xs))

app#(f,x) -> app#(app(map(),f),app(app(cons(),x),xs))
app#(f,x) -> app#
                                                                   (app(map(),f),
                                                                    app
                                                                    (app(cons(),x),xs))

app#(f,x) -> app#(app(map(),f),app(app(cons(),x),xs))
app#(f,x) -> app#
                                                                   (app(filter(),f),
                                                                    app
                                                                    (app(cons(),x),xs))

app#(f,x) -> app#(app(filter(),f),app(app(cons(),x),xs))
app#(f,x) -> 
app#(app(filter(),f),app(app(cons(),x),xs))
app#(f,x) -> app#(app(filter(),f),app(app(cons(),x),xs))

app#(f,x) -> app#(app(filter(),f),app(app(cons(),x),xs))
app#(f,x) -> 
app#(app(app(app(filter2(),true()),f),x),xs)
app#(f,x) -> app#(app(app(app(filter2(),true()),f),x),
                                                               xs)
app#(f,x) -> 
app#(app(app(app(filter2(),true()),f),x),xs)
app#(f,x) -> app#(app(app(app(filter2(),true()),f),x),
                                                               xs)
app#(f,x) -> 
app#(app(app(app(filter2(),false()),f),x),xs)
app#(f,x) -> app#(app(app(app(filter2(),false()),f),x),
                                                                xs)
app#
                                                                    (
                                                                    app
                                                                    (
                                                                    quot(),app(app(minus(),x),y)),
                                                                    app
                                                                    (s(),y)) -> 
app#(app(quot(),app(s(),x)),app(s(),y))
app#(app(quot(),app(app(minus(),x),y)),app(s(),y)) -> 
app#(app(quot(),app(s(),x)),app(s(),y))
app#(app(quot(),app(app(minus(),x),y)),app(s(),y)) -> 
app#(app(quot(),app(s(),x)),app(s(),y))
app#(app(quot(),app(app(minus(),x),y)),app(s(),y)) -> 
app#(app(quot(),app(s(),x)),app(s(),y))
app#(app(quot(),app(app(minus(),x),y)),app(s(),y)) -> 
app#(app(quot(),app(s(),x)),app(s(),y))
app#(app(minus(),x),y) -> app#
                                                                  (app(minus(),app(s(),x)),
                                                                   app
                                                                   (s(),y))

app#(app(minus(),x),y) -> app#(app(minus(),app(s(),x)),app(s(),y))
app#(app(filter(),f),xs) -> 
app#(app(filter(),f),app(app(cons(),x),xs))
app#(app(filter(),f),xs) -> 
app#(app(filter(),f),app(app(cons(),x),xs))
app#(app(filter(),f),xs) -> 
app#(app(filter(),f),app(app(cons(),x),xs))
app#(app(filter(),f),xs) -> 
app#(app(filter(),f),app(app(cons(),x),xs))
app#(app(filter(),f),xs) -> 
app#(app(filter(),f),app(app(cons(),x),xs))
app#(app(filter(),f),xs) -> 
app#(app(filter(),f),app(app(cons(),x),xs))
app#(app(filter(),f),xs) -> 
app#(app(filter(),f),app(app(cons(),x),xs))
app#(app(filter(),f),xs) -> 
app#(app(filter(),f),app(app(cons(),x),xs))
app#(app(filter(),f),xs) -> 
app#(app(filter(),f),app(app(cons(),x),xs))
app#(app(filter(),f),xs) -> 
app#(app(filter(),f),app(app(cons(),x),xs))
app#(app(minus(),x),y) -> 
app#(app(minus(),app(s(),x)),app(s(),y))
app#(app(minus(),x),y) -> app#
                                                                   (app(minus(),app(s(),x)),
                                                                    app
                                                                    (s(),y))
