app#(f,x) -> app#(D(),app(app(+(),x),y))
app#(f,x) -> app#(D(),app(app(+(),x),y))

app#(f,x) -> app#(D(),app(app(+(),x),y))
app#(f,x) -> app#(D(),app(app(+(),x),y))

app#(f,x) -> app#(D(),app(app(*(),x),y))
app#(f,x) -> app#(D(),app(app(*(),x),y))

app#(f,x) -> app#(D(),app(app(*(),x),y))
app#(f,x) -> app#(D(),app(app(*(),x),y))

app#(f,x) -> app#(D(),app(app(*(),x),y))
app#(f,x) -> app#(D(),app(app(*(),x),y))

app#(f,x) -> app#(D(),app(app(*(),x),y))
app#(f,x) -> app#(D(),app(app(-(),x),y))

app#(f,x) -> app#(D(),app(app(-(),x),y))
app#(f,x) -> app#(D(),app(app(-(),x),y))

app#(f,x) -> app#(D(),app(app(-(),x),y))
app#(f,x) -> app#(D(),app(minus(),x))

app#(f,x) -> app#(D(),app(minus(),x))
app#(f,x) -> app#(D(),app(app(div(),x),y))

app#(f,x) -> app#(D(),app(app(div(),x),y))
app#(f,x) -> app#(D(),app(app(div(),x),y))

app#(f,x) -> app#(D(),app(app(div(),x),y))
app#(f,x) -> app#(D(),app(app(div(),x),y))

app#(f,x) -> app#(D(),app(app(div(),x),y))
app#(f,x) -> app#(D(),app(app(div(),x),y))

app#(f,x) -> app#(D(),app(app(div(),x),y))
app#(f,x) -> app#(D(),app(app(div(),x),y))

app#(f,x) -> app#(D(),app(app(div(),x),y))
app#(f,x) -> app#(D(),app(app(div(),x),y))

app#(f,x) -> app#(D(),app(app(div(),x),y))
app#(f,x) -> app#(D(),app(ln(),x))

app#(f,x) -> app#(D(),app(ln(),x))
app#(f,x) -> app#(D(),app(ln(),x))

app#(f,x) -> app#(D(),app(app(pow(),x),y))
app#(f,x) -> app#(D(),app(app(pow(),x),y))

app#(f,x) -> app#(D(),app(app(pow(),x),y))
app#(f,x) -> app#(D(),app(app(pow(),x),y))

app#(f,x) -> app#(D(),app(app(pow(),x),y))
app#(f,x) -> app#(D(),app(app(pow(),x),y))

app#(f,x) -> app#(D(),app(app(pow(),x),y))
app#(f,x) -> app#(D(),app(app(pow(),x),y))

app#(f,x) -> app#(D(),app(app(pow(),x),y))
app#(f,x) -> app#(D(),app(app(pow(),x),y))

app#(f,x) -> app#(D(),app(app(pow(),x),y))
app#(f,x) -> app#(D(),app(app(pow(),x),y))

app#(f,x) -> app#(D(),app(app(pow(),x),y))
app#(f,x) -> app#(D(),app(app(pow(),x),y))

app#(f,x) -> app#(D(),app(app(pow(),x),y))
app#(f,x) -> app#(D(),app(app(pow(),x),y))

app#(f,x) -> app#(app(map(),f),app(app(cons(),x),xs))
app#(f,x) -> app#
                                                                   (app(map(),f),
                                                                    app
                                                                    (app(cons(),x),xs))

app#(f,x) -> app#(app(map(),f),app(app(cons(),x),xs))
app#(f,x) -> app#
                                                                   (app(map(),f),
                                                                    app
                                                                    (app(cons(),x),xs))

app#(f,x) -> app#(app(filter(),f),app(app(cons(),x),xs))
app#(f,x) -> 
app#(app(filter(),f),app(app(cons(),x),xs))
app#(f,x) -> app#(app(filter(),f),app(app(cons(),x),xs))

app#(f,x) -> app#(app(filter(),f),app(app(cons(),x),xs))
app#(f,x) -> 
app#(app(filter(),f),app(app(cons(),x),xs))
app#(f,x) -> app#(app(app(app(filter2(),true()),f),x),
                                                              xs)
app#(f,x) -> 
app#(app(app(app(filter2(),true()),f),x),xs)
app#(f,x) -> app#(app(app(app(filter2(),true()),f),x),
                                                               xs)
app#(f,x) -> 
app#(app(app(app(filter2(),true()),f),x),xs)
app#(f,x) -> app#(app(app(app(filter2(),false()),f),x),
                                                               xs)
app#(f,x) -> 
app#(app(app(app(filter2(),false()),f),x),xs)
app#(app(map(),f),xs) -> 
app#(app(map(),f),app(app(cons(),x),xs))
app#(app(map(),f),xs) -> app#
                                                                  (app(map(),f),
                                                                   app
                                                                   (app(cons(),x),xs))

app#(app(map(),f),xs) -> app#(app(map(),f),app(app(cons(),x),xs))
app#(app(map(),f),xs) -> 
app#(app(map(),f),app(app(cons(),x),xs))
app#(f,x) -> app#(D(),app(app(+(),x),y))

app#(f,x) -> app#(D(),app(app(+(),x),y))
app#(f,x) -> app#(D(),app(app(+(),x),y))

app#(f,x) -> app#(D(),app(app(+(),x),y))
app#(f,x) -> app#(D(),app(app(*(),x),y))

app#(f,x) -> app#(D(),app(app(*(),x),y))
app#(f,x) -> app#(D(),app(app(*(),x),y))

app#(f,x) -> app#(D(),app(app(*(),x),y))
app#(f,x) -> app#(D(),app(app(*(),x),y))

app#(f,x) -> app#(D(),app(app(*(),x),y))
app#(f,x) -> app#(D(),app(app(*(),x),y))

app#(f,x) -> app#(D(),app(app(-(),x),y))
app#(f,x) -> app#(D(),app(app(-(),x),y))

app#(f,x) -> app#(D(),app(app(-(),x),y))
app#(f,x) -> app#(D(),app(app(-(),x),y))

app#(f,x) -> app#(D(),app(minus(),x))
app#(f,x) -> app#(D(),app(minus(),x))

app#(f,x) -> app#(D(),app(app(div(),x),y))
app#(f,x) -> app#(D(),app(app(div(),x),y))

app#(f,x) -> app#(D(),app(app(div(),x),y))
app#(f,x) -> app#(D(),app(app(div(),x),y))

app#(f,x) -> app#(D(),app(app(div(),x),y))
app#(f,x) -> app#(D(),app(app(div(),x),y))

app#(f,x) -> app#(D(),app(app(div(),x),y))
app#(f,x) -> app#(D(),app(app(div(),x),y))

app#(f,x) -> app#(D(),app(app(div(),x),y))
app#(f,x) -> app#(D(),app(app(div(),x),y))

app#(f,x) -> app#(D(),app(app(div(),x),y))
app#(f,x) -> app#(D(),app(app(div(),x),y))

app#(f,x) -> app#(D(),app(ln(),x))
app#(f,x) -> app#(D(),app(ln(),x))

app#(f,x) -> app#(D(),app(ln(),x))
app#(f,x) -> app#(D(),app(app(pow(),x),y))

app#(f,x) -> app#(D(),app(app(pow(),x),y))
app#(f,x) -> app#(D(),app(app(pow(),x),y))

app#(f,x) -> app#(D(),app(app(pow(),x),y))
app#(f,x) -> app#(D(),app(app(pow(),x),y))

app#(f,x) -> app#(D(),app(app(pow(),x),y))
app#(f,x) -> app#(D(),app(app(pow(),x),y))

app#(f,x) -> app#(D(),app(app(pow(),x),y))
app#(f,x) -> app#(D(),app(app(pow(),x),y))

app#(f,x) -> app#(D(),app(app(pow(),x),y))
app#(f,x) -> app#(D(),app(app(pow(),x),y))

app#(f,x) -> app#(D(),app(app(pow(),x),y))
app#(f,x) -> app#(D(),app(app(pow(),x),y))

app#(f,x) -> app#(D(),app(app(pow(),x),y))
app#(f,x) -> app#(D(),app(app(pow(),x),y))

app#(f,x) -> app#(D(),app(app(pow(),x),y))
app#(f,x) -> app#(app(map(),f),app(app(cons(),x),xs))

app#(f,x) -> app#(app(map(),f),app(app(cons(),x),xs))
app#(f,x) -> app#
                                                                   (app(map(),f),
                                                                    app
                                                                    (app(cons(),x),xs))

app#(f,x) -> app#(app(map(),f),app(app(cons(),x),xs))
app#(f,x) -> app#
                                                                   (app(filter(),f),
                                                                    app
                                                                    (app(cons(),x),xs))

app#(f,x) -> app#(app(filter(),f),app(app(cons(),x),xs))
app#(f,x) -> 
app#(app(filter(),f),app(app(cons(),x),xs))
app#(f,x) -> app#(app(filter(),f),app(app(cons(),x),xs))

app#(f,x) -> app#(app(filter(),f),app(app(cons(),x),xs))
app#(f,x) -> 
app#(app(app(app(filter2(),true()),f),x),xs)
app#(f,x) -> app#(app(app(app(filter2(),true()),f),x),
                                                               xs)
app#(f,x) -> 
app#(app(app(app(filter2(),true()),f),x),xs)
app#(f,x) -> app#(app(app(app(filter2(),true()),f),x),
                                                               xs)
app#(f,x) -> 
app#(app(app(app(filter2(),false()),f),x),xs)
app#(f,x) -> app#(app(app(app(filter2(),false()),f),x),
                                                                xs)
app#(app(filter(),f),xs) -> 
app#(app(filter(),f),app(app(cons(),x),xs))
app#(app(filter(),f),xs) -> 
app#(app(filter(),f),app(app(cons(),x),xs))
app#(app(filter(),f),xs) -> 
app#(app(filter(),f),app(app(cons(),x),xs))
app#(app(filter(),f),xs) -> 
app#(app(filter(),f),app(app(cons(),x),xs))
app#(app(filter(),f),xs) -> 
app#(app(filter(),f),app(app(cons(),x),xs))
app#(app(filter(),f),xs) -> 
app#(app(filter(),f),app(app(cons(),x),xs))
app#(app(filter(),f),xs) -> 
app#(app(filter(),f),app(app(cons(),x),xs))
app#(app(filter(),f),xs) -> 
app#(app(filter(),f),app(app(cons(),x),xs))
app#(app(filter(),f),xs) -> 
app#(app(filter(),f),app(app(cons(),x),xs))
app#(app(filter(),f),xs) -> 
app#(app(filter(),f),app(app(cons(),x),xs))
app#(D(),x) -> app#(D(),app(app(+(),x),y))

app#(D(),x) -> app#(D(),app(app(+(),x),y))
app#(D(),x) -> app#(D(),app(app(+(),x),y))

app#(D(),x) -> app#(D(),app(app(+(),x),y))
app#(D(),x) -> app#(D(),app(app(*(),x),y))

app#(D(),x) -> app#(D(),app(app(*(),x),y))
app#(D(),x) -> app#(D(),app(app(*(),x),y))

app#(D(),x) -> app#(D(),app(app(*(),x),y))
app#(D(),x) -> app#(D(),app(app(*(),x),y))

app#(D(),x) -> app#(D(),app(app(*(),x),y))
app#(D(),x) -> app#(D(),app(app(*(),x),y))

app#(D(),x) -> app#(D(),app(app(-(),x),y))
app#(D(),x) -> app#(D(),app(app(-(),x),y))

app#(D(),x) -> app#(D(),app(app(-(),x),y))
app#(D(),x) -> app#(D(),app(app(-(),x),y))

app#(D(),x) -> app#(D(),app(minus(),x))
app#(D(),x) -> app#(D(),app(minus(),x))

app#(D(),x) -> app#(D(),app(app(div(),x),y))
app#(D(),x) -> app#(D(),app(app(div(),x),y))

app#(D(),x) -> app#(D(),app(app(div(),x),y))
app#(D(),x) -> app#(D(),app(app(div(),x),y))

app#(D(),x) -> app#(D(),app(app(div(),x),y))
app#(D(),x) -> app#(D(),app(app(div(),x),y))

app#(D(),x) -> app#(D(),app(app(div(),x),y))
app#(D(),x) -> app#(D(),app(app(div(),x),y))

app#(D(),x) -> app#(D(),app(app(div(),x),y))
app#(D(),x) -> app#(D(),app(app(div(),x),y))

app#(D(),x) -> app#(D(),app(app(div(),x),y))
app#(D(),x) -> app#(D(),app(app(div(),x),y))

app#(D(),x) -> app#(D(),app(ln(),x))
app#(D(),x) -> app#(D(),app(ln(),x))

app#(D(),x) -> app#(D(),app(ln(),x))
app#(D(),x) -> app#(D(),app(app(pow(),x),y))

app#(D(),x) -> app#(D(),app(app(pow(),x),y))
app#(D(),x) -> app#(D(),app(app(pow(),x),y))

app#(D(),x) -> app#(D(),app(app(pow(),x),y))
app#(D(),x) -> app#(D(),app(app(pow(),x),y))

app#(D(),x) -> app#(D(),app(app(pow(),x),y))
app#(D(),x) -> app#(D(),app(app(pow(),x),y))

app#(D(),x) -> app#(D(),app(app(pow(),x),y))
app#(D(),x) -> app#(D(),app(app(pow(),x),y))

app#(D(),x) -> app#(D(),app(app(pow(),x),y))
app#(D(),x) -> app#(D(),app(app(pow(),x),y))

app#(D(),x) -> app#(D(),app(app(pow(),x),y))
app#(D(),x) -> app#(D(),app(app(pow(),x),y))

app#(D(),x) -> app#(D(),app(app(pow(),x),y))
app#(D(),x) -> app#(D(),app(app(pow(),x),y))

app#(D(),x) -> app#(D(),app(app(pow(),x),y))
app#(D(),x) -> app#(D(),app(app(+(),x),y))

app#(D(),x) -> app#(D(),app(app(+(),x),y))
app#(D(),x) -> app#(D(),app(app(+(),x),y))

app#(D(),x) -> app#(D(),app(app(+(),x),y))
app#(D(),x) -> app#(D(),app(app(*(),x),y))

app#(D(),x) -> app#(D(),app(app(*(),x),y))
app#(D(),x) -> app#(D(),app(app(*(),x),y))

app#(D(),x) -> app#(D(),app(app(*(),x),y))
app#(D(),x) -> app#(D(),app(app(*(),x),y))

app#(D(),x) -> app#(D(),app(app(*(),x),y))
app#(D(),x) -> app#(D(),app(app(*(),x),y))

app#(D(),x) -> app#(D(),app(app(-(),x),y))
app#(D(),x) -> app#(D(),app(app(-(),x),y))

app#(D(),x) -> app#(D(),app(app(-(),x),y))
app#(D(),x) -> app#(D(),app(app(-(),x),y))

app#(D(),x) -> app#(D(),app(minus(),x))
app#(D(),x) -> app#(D(),app(minus(),x))

app#(D(),x) -> app#(D(),app(app(div(),x),y))
app#(D(),x) -> app#(D(),app(app(div(),x),y))

app#(D(),x) -> app#(D(),app(app(div(),x),y))
app#(D(),x) -> app#(D(),app(app(div(),x),y))

app#(D(),x) -> app#(D(),app(app(div(),x),y))
app#(D(),x) -> app#(D(),app(app(div(),x),y))

app#(D(),x) -> app#(D(),app(app(div(),x),y))
app#(D(),x) -> app#(D(),app(app(div(),x),y))

app#(D(),x) -> app#(D(),app(app(div(),x),y))
app#(D(),x) -> app#(D(),app(app(div(),x),y))

app#(D(),x) -> app#(D(),app(app(div(),x),y))
app#(D(),x) -> app#(D(),app(app(div(),x),y))

app#(D(),x) -> app#(D(),app(ln(),x))
app#(D(),x) -> app#(D(),app(ln(),x))

app#(D(),x) -> app#(D(),app(ln(),x))
app#(D(),x) -> app#(D(),app(app(pow(),x),y))

app#(D(),x) -> app#(D(),app(app(pow(),x),y))
app#(D(),x) -> app#(D(),app(app(pow(),x),y))

app#(D(),x) -> app#(D(),app(app(pow(),x),y))
app#(D(),x) -> app#(D(),app(app(pow(),x),y))

app#(D(),x) -> app#(D(),app(app(pow(),x),y))
app#(D(),x) -> app#(D(),app(app(pow(),x),y))

app#(D(),x) -> app#(D(),app(app(pow(),x),y))
app#(D(),x) -> app#(D(),app(app(pow(),x),y))

app#(D(),x) -> app#(D(),app(app(pow(),x),y))
app#(D(),x) -> app#(D(),app(app(pow(),x),y))

app#(D(),x) -> app#(D(),app(app(pow(),x),y))
app#(D(),x) -> app#(D(),app(app(pow(),x),y))

app#(D(),x) -> app#(D(),app(app(pow(),x),y))
app#(D(),x) -> app#(D(),app(app(pow(),x),y))

app#(D(),x) -> app#(D(),app(app(pow(),x),y))
app#(D(),y) -> app#(D(),app(app(+(),x),y))

app#(D(),y) -> app#(D(),app(app(+(),x),y))
app#(D(),y) -> app#(D(),app(app(+(),x),y))

app#(D(),y) -> app#(D(),app(app(+(),x),y))
app#(D(),y) -> app#(D(),app(app(*(),x),y))

app#(D(),y) -> app#(D(),app(app(*(),x),y))
app#(D(),y) -> app#(D(),app(app(*(),x),y))

app#(D(),y) -> app#(D(),app(app(*(),x),y))
app#(D(),y) -> app#(D(),app(app(*(),x),y))

app#(D(),y) -> app#(D(),app(app(*(),x),y))
app#(D(),y) -> app#(D(),app(app(*(),x),y))

app#(D(),y) -> app#(D(),app(app(-(),x),y))
app#(D(),y) -> app#(D(),app(app(-(),x),y))

app#(D(),y) -> app#(D(),app(app(-(),x),y))
app#(D(),y) -> app#(D(),app(app(-(),x),y))

app#(D(),y) -> app#(D(),app(minus(),x))
app#(D(),y) -> app#(D(),app(minus(),x))

app#(D(),y) -> app#(D(),app(app(div(),x),y))
app#(D(),y) -> app#(D(),app(app(div(),x),y))

app#(D(),y) -> app#(D(),app(app(div(),x),y))
app#(D(),y) -> app#(D(),app(app(div(),x),y))

app#(D(),y) -> app#(D(),app(app(div(),x),y))
app#(D(),y) -> app#(D(),app(app(div(),x),y))

app#(D(),y) -> app#(D(),app(app(div(),x),y))
app#(D(),y) -> app#(D(),app(app(div(),x),y))

app#(D(),y) -> app#(D(),app(app(div(),x),y))
app#(D(),y) -> app#(D(),app(app(div(),x),y))

app#(D(),y) -> app#(D(),app(app(div(),x),y))
app#(D(),y) -> app#(D(),app(app(div(),x),y))

app#(D(),y) -> app#(D(),app(ln(),x))
app#(D(),y) -> app#(D(),app(ln(),x))

app#(D(),y) -> app#(D(),app(ln(),x))
app#(D(),y) -> app#(D(),app(app(pow(),x),y))

app#(D(),y) -> app#(D(),app(app(pow(),x),y))
app#(D(),y) -> app#(D(),app(app(pow(),x),y))

app#(D(),y) -> app#(D(),app(app(pow(),x),y))
app#(D(),y) -> app#(D(),app(app(pow(),x),y))

app#(D(),y) -> app#(D(),app(app(pow(),x),y))
app#(D(),y) -> app#(D(),app(app(pow(),x),y))

app#(D(),y) -> app#(D(),app(app(pow(),x),y))
app#(D(),y) -> app#(D(),app(app(pow(),x),y))

app#(D(),y) -> app#(D(),app(app(pow(),x),y))
app#(D(),y) -> app#(D(),app(app(pow(),x),y))

app#(D(),y) -> app#(D(),app(app(pow(),x),y))
app#(D(),y) -> app#(D(),app(app(pow(),x),y))

app#(D(),y) -> app#(D(),app(app(pow(),x),y))
app#(D(),y) -> app#(D(),app(app(pow(),x),y))

app#(D(),y) -> app#(D(),app(app(pow(),x),y))
app#(D(),x) -> app#(D(),app(app(+(),x),y))

app#(D(),x) -> app#(D(),app(app(+(),x),y))
app#(D(),x) -> app#(D(),app(app(+(),x),y))

app#(D(),x) -> app#(D(),app(app(+(),x),y))
app#(D(),x) -> app#(D(),app(app(*(),x),y))

app#(D(),x) -> app#(D(),app(app(*(),x),y))
app#(D(),x) -> app#(D(),app(app(*(),x),y))

app#(D(),x) -> app#(D(),app(app(*(),x),y))
app#(D(),x) -> app#(D(),app(app(*(),x),y))

app#(D(),x) -> app#(D(),app(app(*(),x),y))
app#(D(),x) -> app#(D(),app(app(*(),x),y))

app#(D(),x) -> app#(D(),app(app(-(),x),y))
app#(D(),x) -> app#(D(),app(app(-(),x),y))

app#(D(),x) -> app#(D(),app(app(-(),x),y))
app#(D(),x) -> app#(D(),app(app(-(),x),y))

app#(D(),x) -> app#(D(),app(minus(),x))
app#(D(),x) -> app#(D(),app(minus(),x))

app#(D(),x) -> app#(D(),app(app(div(),x),y))
app#(D(),x) -> app#(D(),app(app(div(),x),y))

app#(D(),x) -> app#(D(),app(app(div(),x),y))
app#(D(),x) -> app#(D(),app(app(div(),x),y))

app#(D(),x) -> app#(D(),app(app(div(),x),y))
app#(D(),x) -> app#(D(),app(app(div(),x),y))

app#(D(),x) -> app#(D(),app(app(div(),x),y))
app#(D(),x) -> app#(D(),app(app(div(),x),y))

app#(D(),x) -> app#(D(),app(app(div(),x),y))
app#(D(),x) -> app#(D(),app(app(div(),x),y))

app#(D(),x) -> app#(D(),app(app(div(),x),y))
app#(D(),x) -> app#(D(),app(app(div(),x),y))

app#(D(),x) -> app#(D(),app(ln(),x))
app#(D(),x) -> app#(D(),app(ln(),x))

app#(D(),x) -> app#(D(),app(ln(),x))
app#(D(),x) -> app#(D(),app(app(pow(),x),y))

app#(D(),x) -> app#(D(),app(app(pow(),x),y))
app#(D(),x) -> app#(D(),app(app(pow(),x),y))

app#(D(),x) -> app#(D(),app(app(pow(),x),y))
app#(D(),x) -> app#(D(),app(app(pow(),x),y))

app#(D(),x) -> app#(D(),app(app(pow(),x),y))
app#(D(),x) -> app#(D(),app(app(pow(),x),y))

app#(D(),x) -> app#(D(),app(app(pow(),x),y))
app#(D(),x) -> app#(D(),app(app(pow(),x),y))

app#(D(),x) -> app#(D(),app(app(pow(),x),y))
app#(D(),x) -> app#(D(),app(app(pow(),x),y))

app#(D(),x) -> app#(D(),app(app(pow(),x),y))
app#(D(),x) -> app#(D(),app(app(pow(),x),y))

app#(D(),x) -> app#(D(),app(app(pow(),x),y))
app#(D(),x) -> app#(D(),app(app(pow(),x),y))

app#(D(),x) -> app#(D(),app(app(pow(),x),y))
app#(D(),y) -> app#(D(),app(app(+(),x),y))

app#(D(),y) -> app#(D(),app(app(+(),x),y))
app#(D(),y) -> app#(D(),app(app(+(),x),y))

app#(D(),y) -> app#(D(),app(app(+(),x),y))
app#(D(),y) -> app#(D(),app(app(*(),x),y))

app#(D(),y) -> app#(D(),app(app(*(),x),y))
app#(D(),y) -> app#(D(),app(app(*(),x),y))

app#(D(),y) -> app#(D(),app(app(*(),x),y))
app#(D(),y) -> app#(D(),app(app(*(),x),y))

app#(D(),y) -> app#(D(),app(app(*(),x),y))
app#(D(),y) -> app#(D(),app(app(*(),x),y))

app#(D(),y) -> app#(D(),app(app(-(),x),y))
app#(D(),y) -> app#(D(),app(app(-(),x),y))

app#(D(),y) -> app#(D(),app(app(-(),x),y))
app#(D(),y) -> app#(D(),app(app(-(),x),y))

app#(D(),y) -> app#(D(),app(minus(),x))
app#(D(),y) -> app#(D(),app(minus(),x))

app#(D(),y) -> app#(D(),app(app(div(),x),y))
app#(D(),y) -> app#(D(),app(app(div(),x),y))

app#(D(),y) -> app#(D(),app(app(div(),x),y))
app#(D(),y) -> app#(D(),app(app(div(),x),y))

app#(D(),y) -> app#(D(),app(app(div(),x),y))
app#(D(),y) -> app#(D(),app(app(div(),x),y))

app#(D(),y) -> app#(D(),app(app(div(),x),y))
app#(D(),y) -> app#(D(),app(app(div(),x),y))

app#(D(),y) -> app#(D(),app(app(div(),x),y))
app#(D(),y) -> app#(D(),app(app(div(),x),y))

app#(D(),y) -> app#(D(),app(app(div(),x),y))
app#(D(),y) -> app#(D(),app(app(div(),x),y))

app#(D(),y) -> app#(D(),app(ln(),x))
app#(D(),y) -> app#(D(),app(ln(),x))

app#(D(),y) -> app#(D(),app(ln(),x))
app#(D(),y) -> app#(D(),app(app(pow(),x),y))

app#(D(),y) -> app#(D(),app(app(pow(),x),y))
app#(D(),y) -> app#(D(),app(app(pow(),x),y))

app#(D(),y) -> app#(D(),app(app(pow(),x),y))
app#(D(),y) -> app#(D(),app(app(pow(),x),y))

app#(D(),y) -> app#(D(),app(app(pow(),x),y))
app#(D(),y) -> app#(D(),app(app(pow(),x),y))

app#(D(),y) -> app#(D(),app(app(pow(),x),y))
app#(D(),y) -> app#(D(),app(app(pow(),x),y))

app#(D(),y) -> app#(D(),app(app(pow(),x),y))
app#(D(),y) -> app#(D(),app(app(pow(),x),y))

app#(D(),y) -> app#(D(),app(app(pow(),x),y))
app#(D(),y) -> app#(D(),app(app(pow(),x),y))

app#(D(),y) -> app#(D(),app(app(pow(),x),y))
app#(D(),y) -> app#(D(),app(app(pow(),x),y))

app#(D(),y) -> app#(D(),app(app(pow(),x),y))
app#(D(),x) -> app#(D(),app(app(+(),x),y))

app#(D(),x) -> app#(D(),app(app(+(),x),y))
app#(D(),x) -> app#(D(),app(app(+(),x),y))

app#(D(),x) -> app#(D(),app(app(+(),x),y))
app#(D(),x) -> app#(D(),app(app(*(),x),y))

app#(D(),x) -> app#(D(),app(app(*(),x),y))
app#(D(),x) -> app#(D(),app(app(*(),x),y))

app#(D(),x) -> app#(D(),app(app(*(),x),y))
app#(D(),x) -> app#(D(),app(app(*(),x),y))

app#(D(),x) -> app#(D(),app(app(*(),x),y))
app#(D(),x) -> app#(D(),app(app(*(),x),y))

app#(D(),x) -> app#(D(),app(app(-(),x),y))
app#(D(),x) -> app#(D(),app(app(-(),x),y))

app#(D(),x) -> app#(D(),app(app(-(),x),y))
app#(D(),x) -> app#(D(),app(app(-(),x),y))

app#(D(),x) -> app#(D(),app(minus(),x))
app#(D(),x) -> app#(D(),app(minus(),x))

app#(D(),x) -> app#(D(),app(app(div(),x),y))
app#(D(),x) -> app#(D(),app(app(div(),x),y))

app#(D(),x) -> app#(D(),app(app(div(),x),y))
app#(D(),x) -> app#(D(),app(app(div(),x),y))

app#(D(),x) -> app#(D(),app(app(div(),x),y))
app#(D(),x) -> app#(D(),app(app(div(),x),y))

app#(D(),x) -> app#(D(),app(app(div(),x),y))
app#(D(),x) -> app#(D(),app(app(div(),x),y))

app#(D(),x) -> app#(D(),app(app(div(),x),y))
app#(D(),x) -> app#(D(),app(app(div(),x),y))

app#(D(),x) -> app#(D(),app(app(div(),x),y))
app#(D(),x) -> app#(D(),app(app(div(),x),y))

app#(D(),x) -> app#(D(),app(ln(),x))
app#(D(),x) -> app#(D(),app(ln(),x))

app#(D(),x) -> app#(D(),app(ln(),x))
app#(D(),x) -> app#(D(),app(app(pow(),x),y))

app#(D(),x) -> app#(D(),app(app(pow(),x),y))
app#(D(),x) -> app#(D(),app(app(pow(),x),y))

app#(D(),x) -> app#(D(),app(app(pow(),x),y))
app#(D(),x) -> app#(D(),app(app(pow(),x),y))

app#(D(),x) -> app#(D(),app(app(pow(),x),y))
app#(D(),x) -> app#(D(),app(app(pow(),x),y))

app#(D(),x) -> app#(D(),app(app(pow(),x),y))
app#(D(),x) -> app#(D(),app(app(pow(),x),y))

app#(D(),x) -> app#(D(),app(app(pow(),x),y))
app#(D(),x) -> app#(D(),app(app(pow(),x),y))

app#(D(),x) -> app#(D(),app(app(pow(),x),y))
app#(D(),x) -> app#(D(),app(app(pow(),x),y))

app#(D(),x) -> app#(D(),app(app(pow(),x),y))
app#(D(),x) -> app#(D(),app(app(pow(),x),y))

app#(D(),x) -> app#(D(),app(app(pow(),x),y))
app#(D(),y) -> app#(D(),app(app(+(),x),y))

app#(D(),y) -> app#(D(),app(app(+(),x),y))
app#(D(),y) -> app#(D(),app(app(+(),x),y))

app#(D(),y) -> app#(D(),app(app(+(),x),y))
app#(D(),y) -> app#(D(),app(app(*(),x),y))

app#(D(),y) -> app#(D(),app(app(*(),x),y))
app#(D(),y) -> app#(D(),app(app(*(),x),y))

app#(D(),y) -> app#(D(),app(app(*(),x),y))
app#(D(),y) -> app#(D(),app(app(*(),x),y))

app#(D(),y) -> app#(D(),app(app(*(),x),y))
app#(D(),y) -> app#(D(),app(app(*(),x),y))

app#(D(),y) -> app#(D(),app(app(-(),x),y))
app#(D(),y) -> app#(D(),app(app(-(),x),y))

app#(D(),y) -> app#(D(),app(app(-(),x),y))
app#(D(),y) -> app#(D(),app(app(-(),x),y))

app#(D(),y) -> app#(D(),app(minus(),x))
app#(D(),y) -> app#(D(),app(minus(),x))

app#(D(),y) -> app#(D(),app(app(div(),x),y))
app#(D(),y) -> app#(D(),app(app(div(),x),y))

app#(D(),y) -> app#(D(),app(app(div(),x),y))
app#(D(),y) -> app#(D(),app(app(div(),x),y))

app#(D(),y) -> app#(D(),app(app(div(),x),y))
app#(D(),y) -> app#(D(),app(app(div(),x),y))

app#(D(),y) -> app#(D(),app(app(div(),x),y))
app#(D(),y) -> app#(D(),app(app(div(),x),y))

app#(D(),y) -> app#(D(),app(app(div(),x),y))
app#(D(),y) -> app#(D(),app(app(div(),x),y))

app#(D(),y) -> app#(D(),app(app(div(),x),y))
app#(D(),y) -> app#(D(),app(app(div(),x),y))

app#(D(),y) -> app#(D(),app(ln(),x))
app#(D(),y) -> app#(D(),app(ln(),x))

app#(D(),y) -> app#(D(),app(ln(),x))
app#(D(),y) -> app#(D(),app(app(pow(),x),y))

app#(D(),y) -> app#(D(),app(app(pow(),x),y))
app#(D(),y) -> app#(D(),app(app(pow(),x),y))

app#(D(),y) -> app#(D(),app(app(pow(),x),y))
app#(D(),y) -> app#(D(),app(app(pow(),x),y))

app#(D(),y) -> app#(D(),app(app(pow(),x),y))
app#(D(),y) -> app#(D(),app(app(pow(),x),y))

app#(D(),y) -> app#(D(),app(app(pow(),x),y))
app#(D(),y) -> app#(D(),app(app(pow(),x),y))

app#(D(),y) -> app#(D(),app(app(pow(),x),y))
app#(D(),y) -> app#(D(),app(app(pow(),x),y))

app#(D(),y) -> app#(D(),app(app(pow(),x),y))
app#(D(),y) -> app#(D(),app(app(pow(),x),y))

app#(D(),y) -> app#(D(),app(app(pow(),x),y))
app#(D(),y) -> app#(D(),app(app(pow(),x),y))

app#(D(),y) -> app#(D(),app(app(pow(),x),y))
app#(D(),x) -> app#(D(),app(app(+(),x),y))

app#(D(),x) -> app#(D(),app(app(+(),x),y))
app#(D(),x) -> app#(D(),app(app(+(),x),y))

app#(D(),x) -> app#(D(),app(app(+(),x),y))
app#(D(),x) -> app#(D(),app(app(*(),x),y))

app#(D(),x) -> app#(D(),app(app(*(),x),y))
app#(D(),x) -> app#(D(),app(app(*(),x),y))

app#(D(),x) -> app#(D(),app(app(*(),x),y))
app#(D(),x) -> app#(D(),app(app(*(),x),y))

app#(D(),x) -> app#(D(),app(app(*(),x),y))
app#(D(),x) -> app#(D(),app(app(*(),x),y))

app#(D(),x) -> app#(D(),app(app(-(),x),y))
app#(D(),x) -> app#(D(),app(app(-(),x),y))

app#(D(),x) -> app#(D(),app(app(-(),x),y))
app#(D(),x) -> app#(D(),app(app(-(),x),y))

app#(D(),x) -> app#(D(),app(minus(),x))
app#(D(),x) -> app#(D(),app(minus(),x))

app#(D(),x) -> app#(D(),app(app(div(),x),y))
app#(D(),x) -> app#(D(),app(app(div(),x),y))

app#(D(),x) -> app#(D(),app(app(div(),x),y))
app#(D(),x) -> app#(D(),app(app(div(),x),y))

app#(D(),x) -> app#(D(),app(app(div(),x),y))
app#(D(),x) -> app#(D(),app(app(div(),x),y))

app#(D(),x) -> app#(D(),app(app(div(),x),y))
app#(D(),x) -> app#(D(),app(app(div(),x),y))

app#(D(),x) -> app#(D(),app(app(div(),x),y))
app#(D(),x) -> app#(D(),app(app(div(),x),y))

app#(D(),x) -> app#(D(),app(app(div(),x),y))
app#(D(),x) -> app#(D(),app(app(div(),x),y))

app#(D(),x) -> app#(D(),app(ln(),x))
app#(D(),x) -> app#(D(),app(ln(),x))

app#(D(),x) -> app#(D(),app(ln(),x))
app#(D(),x) -> app#(D(),app(app(pow(),x),y))

app#(D(),x) -> app#(D(),app(app(pow(),x),y))
app#(D(),x) -> app#(D(),app(app(pow(),x),y))

app#(D(),x) -> app#(D(),app(app(pow(),x),y))
app#(D(),x) -> app#(D(),app(app(pow(),x),y))

app#(D(),x) -> app#(D(),app(app(pow(),x),y))
app#(D(),x) -> app#(D(),app(app(pow(),x),y))

app#(D(),x) -> app#(D(),app(app(pow(),x),y))
app#(D(),x) -> app#(D(),app(app(pow(),x),y))

app#(D(),x) -> app#(D(),app(app(pow(),x),y))
app#(D(),x) -> app#(D(),app(app(pow(),x),y))

app#(D(),x) -> app#(D(),app(app(pow(),x),y))
app#(D(),x) -> app#(D(),app(app(pow(),x),y))

app#(D(),x) -> app#(D(),app(app(pow(),x),y))
app#(D(),x) -> app#(D(),app(app(pow(),x),y))

app#(D(),x) -> app#(D(),app(app(pow(),x),y))
app#(D(),y) -> app#(D(),app(app(+(),x),y))

app#(D(),y) -> app#(D(),app(app(+(),x),y))
app#(D(),y) -> app#(D(),app(app(+(),x),y))

app#(D(),y) -> app#(D(),app(app(+(),x),y))
app#(D(),y) -> app#(D(),app(app(*(),x),y))

app#(D(),y) -> app#(D(),app(app(*(),x),y))
app#(D(),y) -> app#(D(),app(app(*(),x),y))

app#(D(),y) -> app#(D(),app(app(*(),x),y))
app#(D(),y) -> app#(D(),app(app(*(),x),y))

app#(D(),y) -> app#(D(),app(app(*(),x),y))
app#(D(),y) -> app#(D(),app(app(*(),x),y))

app#(D(),y) -> app#(D(),app(app(-(),x),y))
app#(D(),y) -> app#(D(),app(app(-(),x),y))

app#(D(),y) -> app#(D(),app(app(-(),x),y))
app#(D(),y) -> app#(D(),app(app(-(),x),y))

app#(D(),y) -> app#(D(),app(minus(),x))
app#(D(),y) -> app#(D(),app(minus(),x))

app#(D(),y) -> app#(D(),app(app(div(),x),y))
app#(D(),y) -> app#(D(),app(app(div(),x),y))

app#(D(),y) -> app#(D(),app(app(div(),x),y))
app#(D(),y) -> app#(D(),app(app(div(),x),y))

app#(D(),y) -> app#(D(),app(app(div(),x),y))
app#(D(),y) -> app#(D(),app(app(div(),x),y))

app#(D(),y) -> app#(D(),app(app(div(),x),y))
app#(D(),y) -> app#(D(),app(app(div(),x),y))

app#(D(),y) -> app#(D(),app(app(div(),x),y))
app#(D(),y) -> app#(D(),app(app(div(),x),y))

app#(D(),y) -> app#(D(),app(app(div(),x),y))
app#(D(),y) -> app#(D(),app(app(div(),x),y))

app#(D(),y) -> app#(D(),app(ln(),x))
app#(D(),y) -> app#(D(),app(ln(),x))

app#(D(),y) -> app#(D(),app(ln(),x))
app#(D(),y) -> app#(D(),app(app(pow(),x),y))

app#(D(),y) -> app#(D(),app(app(pow(),x),y))
app#(D(),y) -> app#(D(),app(app(pow(),x),y))

app#(D(),y) -> app#(D(),app(app(pow(),x),y))
app#(D(),y) -> app#(D(),app(app(pow(),x),y))

app#(D(),y) -> app#(D(),app(app(pow(),x),y))
app#(D(),y) -> app#(D(),app(app(pow(),x),y))

app#(D(),y) -> app#(D(),app(app(pow(),x),y))
app#(D(),y) -> app#(D(),app(app(pow(),x),y))

app#(D(),y) -> app#(D(),app(app(pow(),x),y))
app#(D(),y) -> app#(D(),app(app(pow(),x),y))

app#(D(),y) -> app#(D(),app(app(pow(),x),y))
app#(D(),y) -> app#(D(),app(app(pow(),x),y))

app#(D(),y) -> app#(D(),app(app(pow(),x),y))
app#(D(),y) -> app#(D(),app(app(pow(),x),y))

app#(D(),y) -> app#(D(),app(app(pow(),x),y))
app#(D(),x) -> app#(D(),app(app(+(),x),y))

app#(D(),x) -> app#(D(),app(app(+(),x),y))
app#(D(),x) -> app#(D(),app(app(+(),x),y))

app#(D(),x) -> app#(D(),app(app(+(),x),y))
app#(D(),x) -> app#(D(),app(app(*(),x),y))

app#(D(),x) -> app#(D(),app(app(*(),x),y))
app#(D(),x) -> app#(D(),app(app(*(),x),y))

app#(D(),x) -> app#(D(),app(app(*(),x),y))
app#(D(),x) -> app#(D(),app(app(*(),x),y))

app#(D(),x) -> app#(D(),app(app(*(),x),y))
app#(D(),x) -> app#(D(),app(app(*(),x),y))

app#(D(),x) -> app#(D(),app(app(-(),x),y))
app#(D(),x) -> app#(D(),app(app(-(),x),y))

app#(D(),x) -> app#(D(),app(app(-(),x),y))
app#(D(),x) -> app#(D(),app(app(-(),x),y))

app#(D(),x) -> app#(D(),app(minus(),x))
app#(D(),x) -> app#(D(),app(minus(),x))

app#(D(),x) -> app#(D(),app(app(div(),x),y))
app#(D(),x) -> app#(D(),app(app(div(),x),y))

app#(D(),x) -> app#(D(),app(app(div(),x),y))
app#(D(),x) -> app#(D(),app(app(div(),x),y))

app#(D(),x) -> app#(D(),app(app(div(),x),y))
app#(D(),x) -> app#(D(),app(app(div(),x),y))

app#(D(),x) -> app#(D(),app(app(div(),x),y))
app#(D(),x) -> app#(D(),app(app(div(),x),y))

app#(D(),x) -> app#(D(),app(app(div(),x),y))
app#(D(),x) -> app#(D(),app(app(div(),x),y))

app#(D(),x) -> app#(D(),app(app(div(),x),y))
app#(D(),x) -> app#(D(),app(app(div(),x),y))

app#(D(),x) -> app#(D(),app(ln(),x))
app#(D(),x) -> app#(D(),app(ln(),x))

app#(D(),x) -> app#(D(),app(ln(),x))
app#(D(),x) -> app#(D(),app(app(pow(),x),y))

app#(D(),x) -> app#(D(),app(app(pow(),x),y))
app#(D(),x) -> app#(D(),app(app(pow(),x),y))

app#(D(),x) -> app#(D(),app(app(pow(),x),y))
app#(D(),x) -> app#(D(),app(app(pow(),x),y))

app#(D(),x) -> app#(D(),app(app(pow(),x),y))
app#(D(),x) -> app#(D(),app(app(pow(),x),y))

app#(D(),x) -> app#(D(),app(app(pow(),x),y))
app#(D(),x) -> app#(D(),app(app(pow(),x),y))

app#(D(),x) -> app#(D(),app(app(pow(),x),y))
app#(D(),x) -> app#(D(),app(app(pow(),x),y))

app#(D(),x) -> app#(D(),app(app(pow(),x),y))
app#(D(),x) -> app#(D(),app(app(pow(),x),y))

app#(D(),x) -> app#(D(),app(app(pow(),x),y))
app#(D(),x) -> app#(D(),app(app(pow(),x),y))

app#(D(),x) -> app#(D(),app(app(pow(),x),y))
app#(D(),y) -> app#(D(),app(app(+(),x),y))

app#(D(),y) -> app#(D(),app(app(+(),x),y))
app#(D(),y) -> app#(D(),app(app(+(),x),y))

app#(D(),y) -> app#(D(),app(app(+(),x),y))
app#(D(),y) -> app#(D(),app(app(*(),x),y))

app#(D(),y) -> app#(D(),app(app(*(),x),y))
app#(D(),y) -> app#(D(),app(app(*(),x),y))

app#(D(),y) -> app#(D(),app(app(*(),x),y))
app#(D(),y) -> app#(D(),app(app(*(),x),y))

app#(D(),y) -> app#(D(),app(app(*(),x),y))
app#(D(),y) -> app#(D(),app(app(*(),x),y))

app#(D(),y) -> app#(D(),app(app(-(),x),y))
app#(D(),y) -> app#(D(),app(app(-(),x),y))

app#(D(),y) -> app#(D(),app(app(-(),x),y))
app#(D(),y) -> app#(D(),app(app(-(),x),y))

app#(D(),y) -> app#(D(),app(minus(),x))
app#(D(),y) -> app#(D(),app(minus(),x))

app#(D(),y) -> app#(D(),app(app(div(),x),y))
app#(D(),y) -> app#(D(),app(app(div(),x),y))

app#(D(),y) -> app#(D(),app(app(div(),x),y))
app#(D(),y) -> app#(D(),app(app(div(),x),y))

app#(D(),y) -> app#(D(),app(app(div(),x),y))
app#(D(),y) -> app#(D(),app(app(div(),x),y))

app#(D(),y) -> app#(D(),app(app(div(),x),y))
app#(D(),y) -> app#(D(),app(app(div(),x),y))

app#(D(),y) -> app#(D(),app(app(div(),x),y))
app#(D(),y) -> app#(D(),app(app(div(),x),y))

app#(D(),y) -> app#(D(),app(app(div(),x),y))
app#(D(),y) -> app#(D(),app(app(div(),x),y))

app#(D(),y) -> app#(D(),app(ln(),x))
app#(D(),y) -> app#(D(),app(ln(),x))

app#(D(),y) -> app#(D(),app(ln(),x))
app#(D(),y) -> app#(D(),app(app(pow(),x),y))

app#(D(),y) -> app#(D(),app(app(pow(),x),y))
app#(D(),y) -> app#(D(),app(app(pow(),x),y))

app#(D(),y) -> app#(D(),app(app(pow(),x),y))
app#(D(),y) -> app#(D(),app(app(pow(),x),y))

app#(D(),y) -> app#(D(),app(app(pow(),x),y))
app#(D(),y) -> app#(D(),app(app(pow(),x),y))

app#(D(),y) -> app#(D(),app(app(pow(),x),y))
app#(D(),y) -> app#(D(),app(app(pow(),x),y))

app#(D(),y) -> app#(D(),app(app(pow(),x),y))
app#(D(),y) -> app#(D(),app(app(pow(),x),y))

app#(D(),y) -> app#(D(),app(app(pow(),x),y))
app#(D(),y) -> app#(D(),app(app(pow(),x),y))

app#(D(),y) -> app#(D(),app(app(pow(),x),y))
app#(D(),y) -> app#(D(),app(app(pow(),x),y))

app#(D(),y) -> app#(D(),app(app(pow(),x),y))
app#(D(),x) -> app#(D(),app(app(+(),x),y))

app#(D(),x) -> app#(D(),app(app(+(),x),y))
app#(D(),x) -> app#(D(),app(app(+(),x),y))

app#(D(),x) -> app#(D(),app(app(+(),x),y))
app#(D(),x) -> app#(D(),app(app(*(),x),y))

app#(D(),x) -> app#(D(),app(app(*(),x),y))
app#(D(),x) -> app#(D(),app(app(*(),x),y))

app#(D(),x) -> app#(D(),app(app(*(),x),y))
app#(D(),x) -> app#(D(),app(app(*(),x),y))

app#(D(),x) -> app#(D(),app(app(*(),x),y))
app#(D(),x) -> app#(D(),app(app(*(),x),y))

app#(D(),x) -> app#(D(),app(app(-(),x),y))
app#(D(),x) -> app#(D(),app(app(-(),x),y))

app#(D(),x) -> app#(D(),app(app(-(),x),y))
app#(D(),x) -> app#(D(),app(app(-(),x),y))

app#(D(),x) -> app#(D(),app(minus(),x))
app#(D(),x) -> app#(D(),app(minus(),x))

app#(D(),x) -> app#(D(),app(app(div(),x),y))
app#(D(),x) -> app#(D(),app(app(div(),x),y))

app#(D(),x) -> app#(D(),app(app(div(),x),y))
app#(D(),x) -> app#(D(),app(app(div(),x),y))

app#(D(),x) -> app#(D(),app(app(div(),x),y))
app#(D(),x) -> app#(D(),app(app(div(),x),y))

app#(D(),x) -> app#(D(),app(app(div(),x),y))
app#(D(),x) -> app#(D(),app(app(div(),x),y))

app#(D(),x) -> app#(D(),app(app(div(),x),y))
app#(D(),x) -> app#(D(),app(app(div(),x),y))

app#(D(),x) -> app#(D(),app(app(div(),x),y))
app#(D(),x) -> app#(D(),app(app(div(),x),y))

app#(D(),x) -> app#(D(),app(ln(),x))
app#(D(),x) -> app#(D(),app(ln(),x))

app#(D(),x) -> app#(D(),app(ln(),x))
app#(D(),x) -> app#(D(),app(app(pow(),x),y))

app#(D(),x) -> app#(D(),app(app(pow(),x),y))
app#(D(),x) -> app#(D(),app(app(pow(),x),y))

app#(D(),x) -> app#(D(),app(app(pow(),x),y))
app#(D(),x) -> app#(D(),app(app(pow(),x),y))

app#(D(),x) -> app#(D(),app(app(pow(),x),y))
app#(D(),x) -> app#(D(),app(app(pow(),x),y))

app#(D(),x) -> app#(D(),app(app(pow(),x),y))
app#(D(),x) -> app#(D(),app(app(pow(),x),y))

app#(D(),x) -> app#(D(),app(app(pow(),x),y))
app#(D(),x) -> app#(D(),app(app(pow(),x),y))

app#(D(),x) -> app#(D(),app(app(pow(),x),y))
app#(D(),x) -> app#(D(),app(app(pow(),x),y))

app#(D(),x) -> app#(D(),app(app(pow(),x),y))
app#(D(),x) -> app#(D(),app(app(pow(),x),y))

app#(D(),x) -> app#(D(),app(app(pow(),x),y))
