app#(app(app(app(filter2(),app(fun,x)),fun),x),xs) -> app#(app(app(app(filter2(),true()),fun),x),xs)

app#(app(app(app(filter2(),app(fun,x)),fun),x),xs) -> app#(app(app(app(filter2(),true()),fun),x),xs)

app#(app(app(app(filter2(),app(fun,x)),fun),x),xs) -> app#(app(app(app(filter2(),true()),fun),x),xs)

app#(app(app(app(filter2(),app(fun,x)),fun),x),xs) -> app#(app(app(app(filter2(),true()),fun),x),xs)

app#(app(app(app(filter2(),app(fun,x)),fun),x),xs) -> app#(app(app(app(filter2(),false()),fun),x),
                                                           xs)
app#(app
                                                                    (
                                                                    app
                                                                    (
                                                                    app(filter2(),app(fun,x)),fun),
                                                                    x),
                                                                    xs) -> 
app#(app(app(app(filter2(),false()),fun),x),xs)
app#(fun,x) -> app#(perfectp(),app(s(),x))

app#(fun,x) -> app#(perfectp(),app(s(),x))
app#(fun,x) -> app#(perfectp(),app(s(),x))

app#(fun,x) -> app#(perfectp(),app(s(),x))
app#(fun,x) -> app#(perfectp(),app(s(),x))

app#(fun,x) -> app#(app(app(app(f(),app(s(),x)),0()),z),u)
app#(fun,x) -> 
app#(app(app(app(f(),app(s(),x)),0()),z),u)
app#(fun,x) -> app#(app(app(app(f(),app(s(),x)),0()),z),
                                                                u)
app#(fun,x) -> 
app#(app(app(app(f(),app(s(),x)),0()),z),u)
app#(fun,x) -> app#(app(app(app(f(),app(s(),x)),0()),z),
                                                                u)
app#(fun,x) -> 
app#(app(app(app(f(),app(s(),x)),0()),z),u)
app#(fun,x) -> app#(app(app
                                                                    (
                                                                    app(f(),app(s(),x)),app(s(),y)),
                                                                    z),
                                                                u)
app#(fun,x) -> 
app#(app(app(app(f(),app(s(),x)),app(s(),y)),z),u)
app#(fun,x) -> app#
                                                                  (app
                                                                   (app
                                                                    (
                                                                    app(f(),app(s(),x)),app(s(),y)),
                                                                    z),
                                                                   u)

app#(fun,x) -> app#(app(app(app(f(),app(s(),x)),app(s(),y)),z),u)
app#(fun,x) -> 
app#(app(app(app(f(),app(s(),x)),app(s(),y)),z),u)
app#(fun,x) -> app#
                                                                  (app
                                                                   (app
                                                                    (
                                                                    app(f(),app(s(),x)),app(s(),y)),
                                                                    z),
                                                                   u)

app#(fun,x) -> app#(app(app(app(f(),app(s(),x)),app(s(),y)),z),u)
app#(fun,x) -> 
app#(app(app(app(f(),app(s(),x)),app(s(),y)),z),u)
app#(fun,x) -> app#
                                                                  (app
                                                                   (app
                                                                    (
                                                                    app(f(),app(s(),x)),app(s(),y)),
                                                                    z),
                                                                   u)

app#(fun,x) -> app#(app(app(app(f(),app(s(),x)),app(s(),y)),z),u)
app#(fun,x) -> 
app#(app(app(app(f(),app(s(),x)),app(s(),y)),z),u)
app#(fun,x) -> app#
                                                                  (app
                                                                   (app
                                                                    (
                                                                    app(f(),app(s(),x)),app(s(),y)),
                                                                    z),
                                                                   u)

app#(fun,x) -> app#(app(app(app(f(),app(s(),x)),app(s(),y)),z),u)
app#(fun,x) -> 
app#(app(app(app(f(),app(s(),x)),app(s(),y)),z),u)
app#(fun,x) -> app#
                                                                  (app(map(),fun),
                                                                   app
                                                                   (app(cons(),x),xs))

app#(fun,x) -> app#(app(map(),fun),app(app(cons(),x),xs))
app#(fun,x) -> 
app#(app(map(),fun),app(app(cons(),x),xs))
app#(fun,x) -> app#(app(map(),fun),app(app(cons(),x),xs))

app#(fun,x) -> app#(app(filter(),fun),app(app(cons(),x),xs))
app#(fun,x) -> 
app#(app(filter(),fun),app(app(cons(),x),xs))
app#(fun,x) -> app#(app(filter(),fun),
                                                                  app
                                                                  (app(cons(),x),xs))

app#(fun,x) -> app#(app(filter(),fun),app(app(cons(),x),xs))
app#(fun,x) -> 
app#(app(filter(),fun),app(app(cons(),x),xs))
app#(fun,x) -> app#(app
                                                                  (app(app(filter2(),true()),fun),x),
                                                                  xs)

app#(fun,x) -> app#(app(app(app(filter2(),true()),fun),x),xs)
app#(fun,x) -> 
app#(app(app(app(filter2(),true()),fun),x),xs)
app#(fun,x) -> app#(app
                                                                   (app(app(filter2(),true()),fun),
                                                                    x),
                                                                   xs)

app#(fun,x) -> app#(app(app(app(filter2(),false()),fun),x),xs)
app#(fun,x) -> 
app#(app(app(app(filter2(),false()),fun),x),xs)
app#(app(map(),fun),xs) -> 
app#(app(map(),fun),app(app(cons(),x),xs))
app#(app(map(),fun),xs) -> 
app#(app(map(),fun),app(app(cons(),x),xs))
app#(app(map(),fun),xs) -> 
app#(app(map(),fun),app(app(cons(),x),xs))
app#(app(map(),fun),xs) -> 
app#(app(map(),fun),app(app(cons(),x),xs))
app#(fun,x) -> app#(perfectp(),app(s(),x))

app#(fun,x) -> app#(perfectp(),app(s(),x))
app#(fun,x) -> app#(perfectp(),app(s(),x))

app#(fun,x) -> app#(perfectp(),app(s(),x))
app#(fun,x) -> app#(perfectp(),app(s(),x))

app#(fun,x) -> app#(app(app(app(f(),app(s(),x)),0()),z),u)
app#(fun,x) -> 
app#(app(app(app(f(),app(s(),x)),0()),z),u)
app#(fun,x) -> app#(app(app(app(f(),app(s(),x)),0()),z),
                                                                u)
app#(fun,x) -> 
app#(app(app(app(f(),app(s(),x)),0()),z),u)
app#(fun,x) -> app#(app(app(app(f(),app(s(),x)),0()),z),
                                                                u)
app#(fun,x) -> 
app#(app(app(app(f(),app(s(),x)),0()),z),u)
app#(fun,x) -> app#(app(app
                                                                    (
                                                                    app(f(),app(s(),x)),app(s(),y)),
                                                                    z),
                                                                u)
app#(fun,x) -> 
app#(app(app(app(f(),app(s(),x)),app(s(),y)),z),u)
app#(fun,x) -> app#
                                                                  (app
                                                                   (app
                                                                    (
                                                                    app(f(),app(s(),x)),app(s(),y)),
                                                                    z),
                                                                   u)

app#(fun,x) -> app#(app(app(app(f(),app(s(),x)),app(s(),y)),z),u)
app#(fun,x) -> 
app#(app(app(app(f(),app(s(),x)),app(s(),y)),z),u)
app#(fun,x) -> app#
                                                                  (app
                                                                   (app
                                                                    (
                                                                    app(f(),app(s(),x)),app(s(),y)),
                                                                    z),
                                                                   u)

app#(fun,x) -> app#(app(app(app(f(),app(s(),x)),app(s(),y)),z),u)
app#(fun,x) -> 
app#(app(app(app(f(),app(s(),x)),app(s(),y)),z),u)
app#(fun,x) -> app#
                                                                  (app
                                                                   (app
                                                                    (
                                                                    app(f(),app(s(),x)),app(s(),y)),
                                                                    z),
                                                                   u)

app#(fun,x) -> app#(app(app(app(f(),app(s(),x)),app(s(),y)),z),u)
app#(fun,x) -> 
app#(app(app(app(f(),app(s(),x)),app(s(),y)),z),u)
app#(fun,x) -> app#
                                                                  (app
                                                                   (app
                                                                    (
                                                                    app(f(),app(s(),x)),app(s(),y)),
                                                                    z),
                                                                   u)

app#(fun,x) -> app#(app(app(app(f(),app(s(),x)),app(s(),y)),z),u)
app#(fun,x) -> 
app#(app(app(app(f(),app(s(),x)),app(s(),y)),z),u)
app#(fun,x) -> app#
                                                                  (app(map(),fun),
                                                                   app
                                                                   (app(cons(),x),xs))

app#(fun,x) -> app#(app(map(),fun),app(app(cons(),x),xs))
app#(fun,x) -> 
app#(app(map(),fun),app(app(cons(),x),xs))
app#(fun,x) -> app#(app(map(),fun),app(app(cons(),x),xs))

app#(fun,x) -> app#(app(filter(),fun),app(app(cons(),x),xs))
app#(fun,x) -> 
app#(app(filter(),fun),app(app(cons(),x),xs))
app#(fun,x) -> app#(app(filter(),fun),
                                                                  app
                                                                  (app(cons(),x),xs))

app#(fun,x) -> app#(app(filter(),fun),app(app(cons(),x),xs))
app#(fun,x) -> 
app#(app(filter(),fun),app(app(cons(),x),xs))
app#(fun,x) -> app#(app
                                                                  (app(app(filter2(),true()),fun),x),
                                                                  xs)

app#(fun,x) -> app#(app(app(app(filter2(),true()),fun),x),xs)
app#(fun,x) -> 
app#(app(app(app(filter2(),true()),fun),x),xs)
app#(fun,x) -> app#(app
                                                                   (app(app(filter2(),true()),fun),
                                                                    x),
                                                                   xs)

app#(fun,x) -> app#(app(app(app(filter2(),false()),fun),x),xs)
app#(fun,x) -> 
app#(app(app(app(filter2(),false()),fun),x),xs)
app#(app(filter(),fun),xs) -> 
app#(app(filter(),fun),app(app(cons(),x),xs))
app#(app(filter(),fun),xs) -> 
app#(app(filter(),fun),app(app(cons(),x),xs))
app#(app(filter(),fun),xs) -> 
app#(app(filter(),fun),app(app(cons(),x),xs))
app#(app(filter(),fun),xs) -> 
app#(app(filter(),fun),app(app(cons(),x),xs))
app#(app(filter(),fun),xs) -> 
app#(app(filter(),fun),app(app(cons(),x),xs))
app#(app(filter(),fun),xs) -> 
app#(app(filter(),fun),app(app(cons(),x),xs))
app#(app(filter(),fun),xs) -> 
app#(app(filter(),fun),app(app(cons(),x),xs))
app#(app(filter(),fun),xs) -> 
app#(app(filter(),fun),app(app(cons(),x),xs))
app#(app(filter(),fun),xs) -> 
app#(app(filter(),fun),app(app(cons(),x),xs))
app#(app(filter(),fun),xs) -> 
app#(app(filter(),fun),app(app(cons(),x),xs))
app#(app(app(app(f(),x),u),z),u) -> 
app#(app(app(app(f(),app(s(),x)),0()),z),u)
app#(app(app(app(f(),x),u),z),u) -> 
app#(app(app(app(f(),app(s(),x)),0()),z),u)
app#(app(app(app(f(),x),u),z),u) -> 
app#(app(app(app(f(),app(s(),x)),0()),z),u)
app#(app(app(app(f(),x),u),z),u) -> 
app#(app(app(app(f(),app(s(),x)),0()),z),u)
app#(app(app(app(f(),x),u),z),u) -> 
app#(app(app(app(f(),app(s(),x)),0()),z),u)
app#(app(app(app(f(),x),u),z),u) -> 
app#(app(app(app(f(),app(s(),x)),0()),z),u)
app#(app(app(app(f(),x),u),z),u) -> 
app#(app(app(app(f(),app(s(),x)),app(s(),y)),z),u)
app#(app(app(app(f(),x),u),z),u) -> 
app#(app(app(app(f(),app(s(),x)),app(s(),y)),z),u)
app#(app(app(app(f(),x),u),z),u) -> 
app#(app(app(app(f(),app(s(),x)),app(s(),y)),z),u)
app#(app(app(app(f(),x),u),z),u) -> 
app#(app(app(app(f(),app(s(),x)),app(s(),y)),z),u)
app#(app(app(app(f(),x),u),z),u) -> 
app#(app(app(app(f(),app(s(),x)),app(s(),y)),z),u)
app#(app(app(app(f(),x),u),z),u) -> 
app#(app(app(app(f(),app(s(),x)),app(s(),y)),z),u)
app#(app(app(app(f(),x),u),z),u) -> 
app#(app(app(app(f(),app(s(),x)),app(s(),y)),z),u)
app#(app(app(app(f(),x),u),z),u) -> 
app#(app(app(app(f(),app(s(),x)),app(s(),y)),z),u)
app#(app(app(app(f(),x),u),z),u) -> 
app#(app(app(app(f(),app(s(),x)),app(s(),y)),z),u)
app#(app(app(app(f(),x),u),z),u) -> 
app#(app(app(app(f(),app(s(),x)),app(s(),y)),z),u)
app#(app(app(app(f(),x),u),z),u) -> 
app#(app(app(app(f(),app(s(),x)),app(s(),y)),z),u)
app#(app(app(app(f(),x),u),z),u) -> 
app#(app(app(app(f(),app(s(),x)),app(s(),y)),z),u)
app#(app(app(app(f(),x),u),z),u) -> 
app#(app(app(app(f(),app(s(),x)),app(s(),y)),z),u)
app#(app(app(app(f(),x),u),z),u) -> 
app#(app(app(app(f(),app(s(),x)),app(s(),y)),z),u)
app#(app(app(app(f(),x),u),
                                                            app(app(minus(),z),app(s(),x))),
                                                        u) -> app#(app
                                                                   (app(app(f(),app(s(),x)),0()),z),
                                                                   u)

app#(app(app(app(f(),x),u),app(app(minus(),z),app(s(),x))),u) -> app#
                                                                 (app
                                                                  (app(app(f(),app(s(),x)),0()),z),
                                                                  u)

app#(app(app(app(f(),x),u),app(app(minus(),z),app(s(),x))),u) -> app#
                                                                 (app
                                                                  (app(app(f(),app(s(),x)),0()),z),
                                                                  u)

app#(app(app(app(f(),x),u),app(app(minus(),z),app(s(),x))),u) -> app#
                                                                 (app
                                                                  (app(app(f(),app(s(),x)),0()),z),
                                                                  u)

app#(app(app(app(f(),x),u),app(app(minus(),z),app(s(),x))),u) -> app#
                                                                 (app
                                                                  (app(app(f(),app(s(),x)),0()),z),
                                                                  u)

app#(app(app(app(f(),x),u),app(app(minus(),z),app(s(),x))),u) -> app#
                                                                 (app
                                                                  (app(app(f(),app(s(),x)),0()),z),
                                                                  u)

app#(app(app(app(f(),x),u),app(app(minus(),z),app(s(),x))),u) -> app#
                                                                 (app
                                                                  (app
                                                                   (app(f(),app(s(),x)),app(s(),y)),
                                                                   z),
                                                                  u)

app#(app(app(app(f(),x),u),app(app(minus(),z),app(s(),x))),u) -> app#
                                                                 (app
                                                                  (app
                                                                   (app(f(),app(s(),x)),app(s(),y)),
                                                                   z),
                                                                  u)

app#(app(app(app(f(),x),u),app(app(minus(),z),app(s(),x))),u) -> app#
                                                                 (app
                                                                  (app
                                                                   (app(f(),app(s(),x)),app(s(),y)),
                                                                   z),
                                                                  u)

app#(app(app(app(f(),x),u),app(app(minus(),z),app(s(),x))),u) -> app#
                                                                 (app
                                                                  (app
                                                                   (app(f(),app(s(),x)),app(s(),y)),
                                                                   z),
                                                                  u)

app#(app(app(app(f(),x),u),app(app(minus(),z),app(s(),x))),u) -> app#
                                                                 (app
                                                                  (app
                                                                   (app(f(),app(s(),x)),app(s(),y)),
                                                                   z),
                                                                  u)

app#(app(app(app(f(),x),u),app(app(minus(),z),app(s(),x))),u) -> app#
                                                                 (app
                                                                  (app
                                                                   (app(f(),app(s(),x)),app(s(),y)),
                                                                   z),
                                                                  u)

app#(app(app(app(f(),x),u),app(app(minus(),z),app(s(),x))),u) -> app#
                                                                 (app
                                                                  (app
                                                                   (app(f(),app(s(),x)),app(s(),y)),
                                                                   z),
                                                                  u)

app#(app(app(app(f(),x),u),app(app(minus(),z),app(s(),x))),u) -> app#
                                                                 (app
                                                                  (app
                                                                   (app(f(),app(s(),x)),app(s(),y)),
                                                                   z),
                                                                  u)

app#(app(app(app(f(),x),u),app(app(minus(),z),app(s(),x))),u) -> app#
                                                                 (app
                                                                  (app
                                                                   (app(f(),app(s(),x)),app(s(),y)),
                                                                   z),
                                                                  u)

app#(app(app(app(f(),x),u),app(app(minus(),z),app(s(),x))),u) -> app#
                                                                 (app
                                                                  (app
                                                                   (app(f(),app(s(),x)),app(s(),y)),
                                                                   z),
                                                                  u)

app#(app(app(app(f(),x),u),app(app(minus(),z),app(s(),x))),u) -> app#
                                                                 (app
                                                                  (app
                                                                   (app(f(),app(s(),x)),app(s(),y)),
                                                                   z),
                                                                  u)

app#(app(app(app(f(),x),u),app(app(minus(),z),app(s(),x))),u) -> app#
                                                                 (app
                                                                  (app
                                                                   (app(f(),app(s(),x)),app(s(),y)),
                                                                   z),
                                                                  u)

app#(app(app(app(f(),x),u),app(app(minus(),z),app(s(),x))),u) -> app#
                                                                 (app
                                                                  (app
                                                                   (app(f(),app(s(),x)),app(s(),y)),
                                                                   z),
                                                                  u)

app#(app(app(app(f(),x),u),app(app(minus(),z),app(s(),x))),u) -> app#
                                                                 (app
                                                                  (app
                                                                   (app(f(),app(s(),x)),app(s(),y)),
                                                                   z),
                                                                  u)

app#(app(app(app(f(),x),app(s(),0())),app(s(),x)),app(s(),x)) -> app#
                                                                 (app
                                                                  (app
                                                                   (app(f(),app(s(),x)),app(s(),y)),
                                                                   z),
                                                                  u)

app#(app(app(app(f(),x),app(s(),0())),app(s(),x)),app(s(),x)) -> app#
                                                                 (app
                                                                  (app
                                                                   (app(f(),app(s(),x)),app(s(),y)),
                                                                   z),
                                                                  u)

app#(app(app(app(f(),x),app(s(),0())),app(s(),x)),app(s(),x)) -> app#
                                                                 (app
                                                                  (app
                                                                   (app(f(),app(s(),x)),app(s(),y)),
                                                                   z),
                                                                  u)

app#(app(app(app(f(),x),app(s(),0())),app(s(),x)),app(s(),x)) -> app#
                                                                 (app
                                                                  (app
                                                                   (app(f(),app(s(),x)),app(s(),y)),
                                                                   z),
                                                                  u)

app#(app(app(app(f(),x),app(s(),0())),app(s(),x)),app(s(),x)) -> app#
                                                                 (app
                                                                  (app
                                                                   (app(f(),app(s(),x)),app(s(),y)),
                                                                   z),
                                                                  u)

app#(app(app(app(f(),x),app(s(),0())),app(s(),x)),app(s(),x)) -> app#
                                                                 (app
                                                                  (app
                                                                   (app(f(),app(s(),x)),app(s(),y)),
                                                                   z),
                                                                  u)

app#(app(app(app(f(),x),app(s(),0())),app(s(),x)),app(s(),x)) -> app#
                                                                 (app
                                                                  (app
                                                                   (app(f(),app(s(),x)),app(s(),y)),
                                                                   z),
                                                                  u)

app#(app(app(app(f(),x),app(s(),0())),app(s(),x)),app(s(),x)) -> app#
                                                                 (app
                                                                  (app
                                                                   (app(f(),app(s(),x)),app(s(),y)),
                                                                   z),
                                                                  u)

app#(app(app(app(f(),x),app(s(),0())),app(s(),x)),app(s(),x)) -> app#
                                                                 (app
                                                                  (app
                                                                   (app(f(),app(s(),x)),app(s(),y)),
                                                                   z),
                                                                  u)

app#(app(app(app(f(),x),app(s(),0())),app(s(),x)),app(s(),x)) -> app#
                                                                 (app
                                                                  (app
                                                                   (app(f(),app(s(),x)),app(s(),y)),
                                                                   z),
                                                                  u)

app#(app(app(app(f(),x),app(s(),0())),app(s(),x)),app(s(),x)) -> app#
                                                                 (app
                                                                  (app
                                                                   (app(f(),app(s(),x)),app(s(),y)),
                                                                   z),
                                                                  u)

app#(app(app(app(f(),x),app(s(),0())),app(s(),x)),app(s(),x)) -> app#
                                                                 (app
                                                                  (app
                                                                   (app(f(),app(s(),x)),app(s(),y)),
                                                                   z),
                                                                  u)

app#(app(app(app(f(),x),app(s(),0())),app(s(),x)),app(s(),x)) -> app#
                                                                 (app
                                                                  (app
                                                                   (app(f(),app(s(),x)),app(s(),y)),
                                                                   z),
                                                                  u)

app#(app(app(app(f(),x),app(s(),0())),app(s(),x)),app(s(),x)) -> app#
                                                                 (app
                                                                  (app
                                                                   (app(f(),app(s(),x)),app(s(),y)),
                                                                   z),
                                                                  u)
