a#(a(x,z),a(y,z)) -> a#(a(a(S(),x),y),z)
a#(a(x,z),a(y,z)) -> a#(a(a(S(),x),y),z)

a#(a(x,z),a(y,z)) -> a#(a(a(S(),x),y),z)
a#(y,z) -> a#(a(a(S(),x),y),z)

a#(y,z) -> a#(a(a(S(),x),y),z)
a#(y,z) -> a#(a(a(S(),x),y),z)
a#(x,z) -> 
a#(a(a(S(),x),y),z)
a#(x,z) -> a#(a(a(S(),x),y),z)
a#(x,z) -> a#(a(a(S(),x),y),z)
