not#(not(not(y))) -> not#(or(x,y))
not#(not(not(y))) -> not#(or(x,y))

not#(not(not(y))) -> not#(or(x,y))
not#(not(not(y))) -> not#(or(x,y))

not#(not(not(y))) -> not#(or(x,y))
not#(not(not(y))) -> not#(or(x,y))

not#(not(not(y))) -> not#(and(x,y))
not#(not(not(y))) -> not#(and(x,y))

not#(not(not(y))) -> not#(and(x,y))
not#(not(not(y))) -> not#(and(x,y))

not#(not(not(y))) -> not#(and(x,y))
not#(not(not(y))) -> not#(and(x,y))

not#(not(not(x))) -> not#(or(x,y))
not#(not(not(x))) -> not#(or(x,y))

not#(not(not(x))) -> not#(or(x,y))
not#(not(not(x))) -> not#(or(x,y))

not#(not(not(x))) -> not#(or(x,y))
not#(not(not(x))) -> not#(or(x,y))

not#(not(not(x))) -> not#(and(x,y))
not#(not(not(x))) -> not#(and(x,y))

not#(not(not(x))) -> not#(and(x,y))
not#(not(not(x))) -> not#(and(x,y))

not#(not(not(x))) -> not#(and(x,y))
not#(not(not(x))) -> not#(and(x,y))

not#(not(y)) -> not#(or(x,y))
not#(not(y)) -> not#(or(x,y))
not#(not(y)) -> 
not#(or(x,y))
not#(not(y)) -> not#(or(x,y))
not#(not(y)) -> not#(or(x,y))

not#(not(y)) -> not#(or(x,y))
not#(not(y)) -> not#(and(x,y))
not#(not(y)) -> 
not#(and(x,y))
not#(not(y)) -> not#(and(x,y))
not#(not(y)) -> not#(and(x,y))

not#(not(y)) -> not#(and(x,y))
not#(not(y)) -> not#(and(x,y))
not#(not(x)) -> 
not#(or(x,y))
not#(not(x)) -> not#(or(x,y))
not#(not(x)) -> not#(or(x,y))

not#(not(x)) -> not#(or(x,y))
not#(not(x)) -> not#(or(x,y))
not#(not(x)) -> 
not#(or(x,y))
not#(not(x)) -> not#(and(x,y))
not#(not(x)) -> not#(and(x,y))

not#(not(x)) -> not#(and(x,y))
not#(not(x)) -> not#(and(x,y))
not#(not(x)) -> 
not#(and(x,y))
not#(not(x)) -> not#(and(x,y))
not#(y) -> not#(or(x,y))

not#(y) -> not#(or(x,y))
not#(y) -> not#(or(x,y))
not#(y) -> not#(or(x,y))

not#(y) -> not#(or(x,y))
not#(y) -> not#(or(x,y))
not#(y) -> not#(and(x,y))

not#(y) -> not#(and(x,y))
not#(y) -> not#(and(x,y))
not#(y) -> not#(and(x,y))

not#(y) -> not#(and(x,y))
not#(y) -> not#(and(x,y))
not#(x) -> not#(or(x,y))

not#(x) -> not#(or(x,y))
not#(x) -> not#(or(x,y))
not#(x) -> not#(or(x,y))

not#(x) -> not#(or(x,y))
not#(x) -> not#(or(x,y))
not#(x) -> not#(and(x,y))

not#(x) -> not#(and(x,y))
not#(x) -> not#(and(x,y))
not#(x) -> not#(and(x,y))

not#(x) -> not#(and(x,y))
not#(x) -> not#(and(x,y))
not#(not(not(y))) -> 
not#(or(x,y))
not#(not(not(y))) -> not#(or(x,y))
not#(not(not(y))) -> 
not#(or(x,y))
not#(not(not(y))) -> not#(or(x,y))
not#(not(not(y))) -> 
not#(or(x,y))
not#(not(not(y))) -> not#(or(x,y))
not#(not(not(y))) -> 
not#(and(x,y))
not#(not(not(y))) -> not#(and(x,y))
not#(not(not(y))) -> 
not#(and(x,y))
not#(not(not(y))) -> not#(and(x,y))
not#(not(not(y))) -> 
not#(and(x,y))
not#(not(not(y))) -> not#(and(x,y))
not#(not(not(x))) -> 
not#(or(x,y))
not#(not(not(x))) -> not#(or(x,y))
not#(not(not(x))) -> 
not#(or(x,y))
not#(not(not(x))) -> not#(or(x,y))
not#(not(not(x))) -> 
not#(or(x,y))
not#(not(not(x))) -> not#(or(x,y))
not#(not(not(x))) -> 
not#(and(x,y))
not#(not(not(x))) -> not#(and(x,y))
not#(not(not(x))) -> 
not#(and(x,y))
not#(not(not(x))) -> not#(and(x,y))
not#(not(not(x))) -> 
not#(and(x,y))
not#(not(not(x))) -> not#(and(x,y))
not#(not(y)) -> not#(or(x,y))

not#(not(y)) -> not#(or(x,y))
not#(not(y)) -> not#(or(x,y))
not#(not(y)) -> 
not#(or(x,y))
not#(not(y)) -> not#(or(x,y))
not#(not(y)) -> not#(or(x,y))

not#(not(y)) -> not#(and(x,y))
not#(not(y)) -> not#(and(x,y))
not#(not(y)) -> 
not#(and(x,y))
not#(not(y)) -> not#(and(x,y))
not#(not(y)) -> not#(and(x,y))

not#(not(y)) -> not#(and(x,y))
not#(not(x)) -> not#(or(x,y))
not#(not(x)) -> 
not#(or(x,y))
not#(not(x)) -> not#(or(x,y))
not#(not(x)) -> not#(or(x,y))

not#(not(x)) -> not#(or(x,y))
not#(not(x)) -> not#(or(x,y))
not#(not(x)) -> 
not#(and(x,y))
not#(not(x)) -> not#(and(x,y))
not#(not(x)) -> not#(and(x,y))

not#(not(x)) -> not#(and(x,y))
not#(not(x)) -> not#(and(x,y))
not#(not(x)) -> 
not#(and(x,y))
not#(y) -> not#(or(x,y))
not#(y) -> not#(or(x,y))
not#(y) -> 
not#(or(x,y))
not#(y) -> not#(or(x,y))
not#(y) -> not#(or(x,y))
not#(y) -> 
not#(or(x,y))
not#(y) -> not#(and(x,y))
not#(y) -> not#(and(x,y))
not#(y) -> 
not#(and(x,y))
not#(y) -> not#(and(x,y))
not#(y) -> not#(and(x,y))
not#(y) -> 
not#(and(x,y))
not#(x) -> not#(or(x,y))
not#(x) -> not#(or(x,y))
not#(x) -> 
not#(or(x,y))
not#(x) -> not#(or(x,y))
not#(x) -> not#(or(x,y))
not#(x) -> 
not#(or(x,y))
not#(x) -> not#(and(x,y))
not#(x) -> not#(and(x,y))
not#(x) -> 
not#(and(x,y))
not#(x) -> not#(and(x,y))
not#(x) -> not#(and(x,y))
not#(x) -> 
not#(and(x,y))
