gr#(x,z) -> gr#(s(x),s(y))
cond1#(gr(x,z),p(x),y,z) -> cond1#(true(),x,y,z)

cond1#(gr(x,z),p(x),y,z) -> cond1#(true(),x,y,z)
cond2#(gr(y,z),x,p(y),z) -> 
cond2#(true(),x,y,z)
cond2#(gr(y,z),x,p(y),z) -> cond2#(true(),x,y,z)

cond2#(gr(y,z),x,p(y),z) -> cond2#(true(),x,y,z)
cond2#(gr(y,z),x,p(y),z) -> 
cond2#(false(),x,y,z)
cond2#(gr(y,z),x,p(y),z) -> cond2#(false(),x,y,z)

cond2#(gr(y,z),x,p(y),z) -> cond2#(false(),x,y,z)
gr#(y,z) -> gr#(s(x),s(y))

gr#(x,y) -> gr#(s(x),s(y))
cond2#(gr(y,z),x,y,z) -> cond2#(true(),x,y,z)

cond2#(gr(y,z),x,y,z) -> cond2#(true(),x,y,z)
cond2#(gr(y,z),x,y,z) -> 
cond2#(true(),x,y,z)
cond2#(gr(y,z),x,y,z) -> cond2#(false(),x,y,z)
cond2#(gr(y,z),x,y,z) -> 
cond2#(false(),x,y,z)
cond2#(gr(y,z),x,y,z) -> cond2#(false(),x,y,z)

gr#(y,z) -> gr#(s(x),s(y))
