g2#(y,y,x) -> g2#(x,y,y)
g2#(y,y,x) -> g2#(y,y,x)
g2#(x,y,y) -> g2#(x,y,y)

g2#(x,y,y) -> g2#(y,y,x)
g1#(y,x,x) -> g1#(x,x,y)
g1#(y,x,x) -> g1#(y,x,x)

g1#(x,x,y) -> g1#(x,x,y)
g1#(x,x,y) -> g1#(y,x,x)
