length#(xs) -> length#(:(x,xs))
quot#(hd(sum(xs)),length(xs)) -> quot#(s(x),s(y))

quot#(hd(sum(xs)),length(xs)) -> quot#(s(x),s(y))
sum#(xs) -> sum#(:(x,:(y,xs)))

sum#(xs) -> sum#(:(x,:(y,xs)))
sum#(xs) -> sum#(++(xs,:(x,:(y,ys))))

sum#(xs) -> sum#(++(xs,:(x,:(y,ys))))
sum#(xs) -> sum#(++(xs,:(x,:(y,ys))))

length#(xs) -> length#(:(x,xs))
quot#(-(x,y),s(y)) -> quot#(s(x),s(y))

quot#(-(x,y),s(y)) -> quot#(s(x),s(y))
-#(x,y) -> -#(s(x),s(y))
-#(x,y) -> 
-#(s(x),s(y))
sum#(:(+(x,y),xs)) -> sum#(:(x,:(y,xs)))
sum#(:(+(x,y),xs)) -> 
sum#(:(x,:(y,xs)))
+#(x,y) -> +#(s(x),y)
sum#(:(x,:(y,ys))) -> sum#(:(x,:(y,xs)))

sum#(:(x,:(y,ys))) -> sum#(:(x,:(y,xs)))
sum#(++(xs,sum(:(x,:(y,ys))))) -> 
sum#(:(x,:(y,xs)))
sum#(++(xs,sum(:(x,:(y,ys))))) -> sum#(:(x,:(y,xs)))

sum#(++(xs,sum(:(x,:(y,ys))))) -> sum#(++(xs,:(x,:(y,ys))))
sum#(++(xs,sum(:(x,:(y,ys))))) -> 
sum#(++(xs,:(x,:(y,ys))))
sum#(++(xs,sum(:(x,:(y,ys))))) -> sum#(++(xs,:(x,:(y,ys))))

++#(xs,sum(:(x,:(y,ys)))) -> ++#(:(x,xs),ys)
++#(xs,ys) -> ++#(:(x,xs),ys)

+#(x,y) -> +#(s(x),y)
