-#(x,y) -> -#(O(x),O(y))
-#(x,y) -> -#(O(x),O(y))
-#(x,y) -> -#(O(x),I(y))

-#(x,y) -> -#(O(x),I(y))
-#(x,y) -> -#(I(x),O(y))
-#(x,y) -> -#(I(x),I(y))

-#(x,y) -> -#(I(x),I(y))
-#(x,y) -> -#(O(x),O(y))
-#(x,y) -> -#(O(x),O(y))

-#(x,y) -> -#(O(x),I(y))
-#(x,y) -> -#(O(x),I(y))
-#(x,y) -> -#(I(x),O(y))

-#(x,y) -> -#(I(x),I(y))
-#(x,y) -> -#(I(x),I(y))
-#(-(x,y),I(1())) -> 
-#(O(x),I(y))
-#(-(x,y),I(1())) -> -#(O(x),I(y))
-#(-(x,y),I(1())) -> 
-#(I(x),I(y))
-#(-(x,y),I(1())) -> -#(I(x),I(y))
-#(x,y) -> -#(O(x),O(y))

-#(x,y) -> -#(O(x),O(y))
-#(x,y) -> -#(O(x),I(y))
-#(x,y) -> -#(O(x),I(y))

-#(x,y) -> -#(I(x),O(y))
-#(x,y) -> -#(I(x),I(y))
-#(x,y) -> -#(I(x),I(y))

-#(x,y) -> -#(O(x),O(y))
-#(x,y) -> -#(O(x),O(y))
-#(x,y) -> -#(O(x),I(y))

-#(x,y) -> -#(O(x),I(y))
-#(x,y) -> -#(I(x),O(y))
-#(x,y) -> -#(I(x),I(y))

-#(x,y) -> -#(I(x),I(y))
*#(x,y) -> *#(O(x),y)
*#(x,y) -> *#(O(x),y)

*#(x,y) -> *#(I(x),y)
*#(x,y) -> *#(I(x),y)
*#(x,y) -> *#(I(x),y)
+#(O(*(x,y)),y) -> 
+#(O(x),O(y))
+#(O(*(x,y)),y) -> +#(O(x),O(y))
+#(O(*(x,y)),y) -> +#(O(x),I(y))

+#(O(*(x,y)),y) -> +#(I(x),O(y))
+#(O(*(x,y)),y) -> +#(I(x),I(y))
+#(O(*(x,y)),y) -> 
+#(I(x),I(y))
+#(O(*(x,y)),y) -> +#(I(x),I(y))
*#(x,y) -> *#(O(x),y)

*#(x,y) -> *#(O(x),y)
*#(x,y) -> *#(I(x),y)
*#(x,y) -> *#(I(x),y)
*#(x,y) -> 
*#(I(x),y)
+#(+(x,y),I(0())) -> +#(O(x),I(y))
+#(+(x,y),I(0())) -> +#(I(x),I(y))

+#(+(x,y),I(0())) -> +#(I(x),I(y))
+#(+(x,y),I(0())) -> +#(I(x),I(y))

+#(x,y) -> +#(O(x),O(y))
+#(x,y) -> +#(O(x),O(y))
+#(x,y) -> +#(O(x),I(y))

+#(x,y) -> +#(I(x),O(y))
+#(x,y) -> +#(I(x),I(y))
+#(x,y) -> +#(I(x),I(y))

+#(x,y) -> +#(I(x),I(y))
+#(x,y) -> +#(O(x),O(y))
+#(x,y) -> +#(O(x),O(y))

+#(x,y) -> +#(O(x),I(y))
+#(x,y) -> +#(I(x),O(y))
+#(x,y) -> +#(I(x),I(y))

+#(x,y) -> +#(I(x),I(y))
+#(x,y) -> +#(I(x),I(y))
+#(x,y) -> +#(O(x),O(y))

+#(x,y) -> +#(O(x),O(y))
+#(x,y) -> +#(O(x),I(y))
+#(x,y) -> +#(I(x),O(y))

+#(x,y) -> +#(I(x),I(y))
+#(x,y) -> +#(I(x),I(y))
+#(x,y) -> +#(I(x),I(y))

+#(x,y) -> +#(O(x),O(y))
+#(x,y) -> +#(O(x),O(y))
+#(x,y) -> +#(O(x),I(y))

+#(x,y) -> +#(I(x),O(y))
+#(x,y) -> +#(I(x),I(y))
+#(x,y) -> +#(I(x),I(y))

+#(x,y) -> +#(I(x),I(y))
