f#(b(),f(b(),f(b(),x))) -> f#(b(),f(a(),x))
f#(b(),f(b(),f(b(),x))) -> 
f#(b(),f(a(),x))
f#(b(),f(b(),f(b(),x))) -> f#(b(),f(a(),x))
f#(b(),f(b(),x)) -> 
f#(b(),f(a(),x))
f#(b(),f(b(),x)) -> f#(b(),f(a(),x))
f#(b(),f(b(),x)) -> 
f#(b(),f(a(),x))
f#(b(),x) -> f#(b(),f(a(),x))
f#(b(),x) -> f#(b(),f(a(),x))

f#(b(),x) -> f#(b(),f(a(),x))
f#(a(),f(a(),f(a(),x))) -> f#(a(),f(b(),x))

f#(a(),f(a(),f(a(),x))) -> f#(a(),f(b(),x))
f#(a(),f(a(),f(a(),x))) -> 
f#(a(),f(b(),x))
f#(a(),f(a(),x)) -> f#(a(),f(b(),x))
f#(a(),f(a(),x)) -> 
f#(a(),f(b(),x))
f#(a(),f(a(),x)) -> f#(a(),f(b(),x))
f#(a(),x) -> f#(a(),f(b(),x))

f#(a(),x) -> f#(a(),f(b(),x))
f#(a(),x) -> f#(a(),f(b(),x))
