a#(y,z) -> a#(lambda(x),y)
a#(y,z) -> a#(lambda(x),y)
a#(y,z) -> a#(lambda(x),y)

a#(y,z) -> a#(lambda(x),y)
a#(y,z) -> a#(p(x,y),z)
a#(y,z) -> a#(p(x,y),z)

a#(y,z) -> a#(p(x,y),z)
a#(y,z) -> a#(a(x,y),z)
a#(y,z) -> a#(a(x,y),z)

a#(x,z) -> a#(lambda(x),y)
a#(x,z) -> a#(lambda(x),y)
a#(x,z) -> a#(lambda(x),y)

a#(x,z) -> a#(lambda(x),y)
a#(x,z) -> a#(p(x,y),z)
a#(x,z) -> a#(p(x,y),z)

a#(x,z) -> a#(p(x,y),z)
a#(x,z) -> a#(a(x,y),z)
a#(x,z) -> a#(a(x,y),z)

a#(y,z) -> a#(lambda(x),y)
a#(y,z) -> a#(lambda(x),y)
a#(y,z) -> a#(lambda(x),y)

a#(y,z) -> a#(lambda(x),y)
a#(y,z) -> a#(p(x,y),z)
a#(y,z) -> a#(p(x,y),z)

a#(y,z) -> a#(p(x,y),z)
a#(y,z) -> a#(a(x,y),z)
a#(y,z) -> a#(a(x,y),z)

a#(x,a(y,z)) -> a#(lambda(x),y)
a#(x,a(y,z)) -> a#(lambda(x),y)
a#(x,a(y,z)) -> 
a#(lambda(x),y)
a#(x,a(y,z)) -> a#(lambda(x),y)
a#(x,a(y,z)) -> a#(p(x,y),z)

a#(x,a(y,z)) -> a#(p(x,y),z)
a#(x,a(y,z)) -> a#(p(x,y),z)
a#(x,a(y,z)) -> 
a#(a(x,y),z)
a#(x,a(y,z)) -> a#(a(x,y),z)
a#(y,t()) -> a#(lambda(x),y)

a#(y,t()) -> a#(lambda(x),y)
a#(y,t()) -> a#(lambda(x),y)
a#(y,t()) -> 
a#(lambda(x),y)
a#(y,t()) -> a#(p(x,y),z)
a#(y,t()) -> a#(p(x,y),z)
a#(y,t()) -> 
a#(p(x,y),z)
a#(y,t()) -> a#(a(x,y),z)
a#(y,t()) -> a#(a(x,y),z)
a#(x,p(1(),a(y,t()))) -> 
a#(lambda(x),y)
a#(x,p(1(),a(y,t()))) -> a#(lambda(x),y)
a#(x,p(1(),a(y,t()))) -> 
a#(lambda(x),y)
a#(x,p(1(),a(y,t()))) -> a#(lambda(x),y)
a#(x,p(1(),a(y,t()))) -> 
a#(p(x,y),z)
a#(x,p(1(),a(y,t()))) -> a#(p(x,y),z)
a#(x,p(1(),a(y,t()))) -> 
a#(p(x,y),z)
a#(x,p(1(),a(y,t()))) -> a#(a(x,y),z)
a#(x,p(1(),a(y,t()))) -> 
a#(a(x,y),z)
