f#(b(),f(a(),x)) -> f#(x,f(y,z))
f#(b(),f(a(),x)) -> f#(x,f(y,z))
f#(a(),f(b(),f(a(),x))) -> 
f#(x,f(y,z))
f#(a(),f(b(),f(a(),x))) -> f#(x,f(y,z))
f#(a(),x) -> f#(x,f(y,z))

f#(a(),x) -> f#(x,f(y,z))
f#(f(x,y),z) -> f#(f(a(),a()),x)
f#(f(x,y),z) -> 
f#(f(a(),a()),x)
f#(f(x,y),z) -> f#(f(a(),a()),x)
f#(f(x,y),z) -> f#(x,f(y,z))

f#(f(x,y),z) -> f#(x,f(y,z))
f#(x,y) -> f#(f(a(),a()),x)
f#(x,y) -> f#(f(a(),a()),x)

f#(x,y) -> f#(f(a(),a()),x)
f#(x,y) -> f#(x,f(y,z))
f#(x,y) -> f#(x,f(y,z))
