plus#(x,y) -> plus#(s(x),y)
plus#(x,y) -> plus#(minus(x,s(0())),minus(y,s(s(z))))

plus#(minus(y,s(s(z))),minus(x,s(0()))) -> plus#(s(x),y)
plus#(minus(y,s(s(z))),minus(x,s(0()))) -> 
plus#(minus(x,s(0())),minus(y,s(s(z))))
quot#(minus(x,y),s(y)) -> quot#(s(x),s(y))

quot#(minus(x,y),s(y)) -> quot#(s(x),s(y))
minus#(x,y) -> minus#(s(x),s(y))

minus#(x,y) -> minus#(s(x),s(y))
