f#(f(y)) -> f#(g(x,y))
f#(f(y)) -> f#(g(x,y))
f#(f(y)) -> f#(g(x,y))

f#(f(y)) -> f#(g(x,y))
f#(f(y)) -> f#(g(x,y))
f#(y) -> f#(g(x,y))
f#(y) -> 
f#(g(x,y))
f#(y) -> f#(g(x,y))
f#(y) -> f#(g(x,y))
f#(y) -> f#(g(x,y))

g#(f(f(y)),h(a(),a())) -> g#(g(x,a()),y)
g#(f(f(y)),h(a(),a())) -> g#(g(x,a()),y)

g#(f(f(y)),h(a(),a())) -> g#(g(x,a()),y)
g#(g(f(f(y)),h(a(),a())),x) -> 
g#(g(x,a()),y)
g#(g(f(f(y)),h(a(),a())),x) -> g#(g(x,a()),y)
g#(g(f(f(y)),h(a(),a())),x) -> 
g#(g(x,a()),y)
h#(a(),a()) -> h#(x,x)
g#(g(a(),y),g(a(),x)) -> g#(g(x,a()),y)

g#(g(a(),y),g(a(),x)) -> g#(g(x,a()),y)
g#(g(a(),y),g(a(),x)) -> g#(g(x,a()),y)

f#(f(f(y))) -> f#(g(x,y))
f#(f(f(y))) -> f#(g(x,y))
f#(f(f(y))) -> f#(g(x,y))

f#(f(f(y))) -> f#(g(x,y))
f#(f(f(y))) -> f#(g(x,y))
f#(f(y)) -> f#(g(x,y))

f#(f(y)) -> f#(g(x,y))
f#(f(y)) -> f#(g(x,y))
f#(f(y)) -> f#(g(x,y))

f#(f(y)) -> f#(g(x,y))
f#(z) -> f#(g(x,y))
f#(z) -> f#(g(x,y))
f#(z) -> 
f#(g(x,y))
f#(z) -> f#(g(x,y))
f#(z) -> f#(g(x,y))
f#(y) -> f#(g(x,y))

f#(y) -> f#(g(x,y))
f#(y) -> f#(g(x,y))
f#(y) -> f#(g(x,y))
f#(y) -> 
f#(g(x,y))
h#(f(z),f(f(f(y)))) -> h#(x,x)
h#(h(f(z),f(f(f(y)))),h(v,x)) -> 
h#(x,x)
h#(h(f(z),f(f(f(y)))),h(v,x)) -> h#(h(f(f(x)),y),h(z,v))
h#(h(f(z),f(f(f(y)))),h(v,x)) -> 
h#(h(f(f(x)),y),h(z,v))
h#(h(f(z),f(f(f(y)))),h(v,x)) -> h#(h(f(f(x)),y),h(z,v))

h#(h(f(z),f(f(f(y)))),h(v,x)) -> h#(h(f(f(x)),y),h(z,v))
h#(h(f(z),f(f(f(y)))),h(v,x)) -> 
h#(h(f(f(x)),y),h(z,v))
h#(h(f(z),f(f(f(y)))),h(v,x)) -> h#(h(f(f(x)),y),h(z,v))

h#(h(f(z),f(f(f(y)))),h(v,x)) -> h#(h(f(f(x)),y),h(z,v))
h#(v,x) -> h#(x,x)

h#(v,x) -> h#(h(f(f(x)),y),h(z,v))
h#(v,x) -> h#(h(f(f(x)),y),h(z,v))

h#(v,x) -> h#(h(f(f(x)),y),h(z,v))
h#(v,x) -> h#(h(f(f(x)),y),h(z,v))

h#(v,x) -> h#(h(f(f(x)),y),h(z,v))
h#(v,x) -> h#(h(f(f(x)),y),h(z,v))

h#(v,x) -> h#(h(f(f(x)),y),h(z,v))
