minus#(y,x) -> minus#(s(x),s(y))
gcd2#(x,minus(y,x),i) -> gcd2#(x,y,i)

gcd2#(x,minus(y,x),i) -> gcd2#(x,y,i)
gcd2#(x,minus(y,x),i) -> gcd2#(x,y,i)

gcd2#(x,minus(y,x),i) -> gcd2#(x,y,i)
gcd2#(x,minus(y,x),i) -> gcd2#(x,y,i)

gcd2#(x,minus(y,x),i) -> gcd2#(x,y,i)
minus#(x,y) -> minus#(s(x),s(y))

minus#(x,y) -> minus#(s(x),s(y))
gcd2#(minus(x,y),y,i) -> gcd2#(x,y,i)

gcd2#(minus(x,y),y,i) -> gcd2#(x,y,i)
gcd2#(minus(x,y),y,i) -> gcd2#(x,y,i)

gcd2#(minus(x,y),y,i) -> gcd2#(x,y,i)
gcd2#(minus(x,y),y,i) -> gcd2#(x,y,i)

gcd2#(minus(x,y),y,i) -> gcd2#(x,y,i)
if4#(b3,x,y,i) -> if4#(false(),x,y,i)

if4#(b3,x,y,i) -> if4#(false(),x,y,i)
if3#(b2,b3,x,y,i) -> if3#(false(),b3,x,y,i)

if3#(b2,b3,x,y,i) -> if3#(false(),b3,x,y,i)
if3#(b2,b3,x,y,i) -> if3#(true(),b3,x,y,i)

if2#(b1,b2,b3,x,y,i) -> if2#(false(),b2,b3,x,y,i)
le#(x,y) -> le#(s(x),s(y))

inc#(i) -> inc#(s(i))
if1#(le(x,0()),le(y,0()),le(x,y),le(y,x),x,y,inc(i)) -> 
if1#(false(),b1,b2,b3,x,y,i)
le#(y,x) -> le#(s(x),s(y))
le#(x,y) -> le#(s(x),s(y))

inc#(i) -> inc#(s(i))
gcd2#(x,y,0()) -> gcd2#(x,y,i)
gcd2#(x,y,0()) -> 
gcd2#(x,y,i)
gcd2#(x,y,0()) -> gcd2#(x,y,i)
gcd2#(x,y,0()) -> gcd2#(x,y,i)

gcd2#(x,y,0()) -> gcd2#(x,y,i)
gcd2#(x,y,0()) -> gcd2#(x,y,i)
