append#(l1,l2) -> append#(cons(n,l1),l2)
lessE#(l,t,s(n)) -> lessE#(l,t,n)

lessE#(l,t,s(n)) -> lessE#(l,t,n)
lessE#(l,t,s(n)) -> lessE#(l,t,n)
lessE#(l,t,s(n)) -> 
lessE#(l,t,n)
lessE#(l,t,s(n)) -> lessE#(l,t,n)
lessE#(l,t,s(n)) -> lessE#(l,t,n)

le#(n,m) -> le#(s(n),s(m))
length#(l) -> length#(cons(n,l))
append#(toList(t1),cons(n,toList(t2))) -> 
append#(cons(n,l1),l2)
toList#(t2) -> toList#(node(t1,n,t2))
toList#(t2) -> 
toList#(node(t1,n,t2))
toList#(t2) -> toList#(node(t1,n,t2))
toList#(t1) -> 
toList#(node(t1,n,t2))
toList#(t1) -> toList#(node(t1,n,t2))
toList#(t1) -> 
toList#(node(t1,n,t2))
if#(le(length(l),n),le(length(toList(t)),n),l,t,n) -> 
if#(false(),false(),l,t,n)
le#(length(toList(t)),n) -> le#(s(n),s(m))

le#(length(l),n) -> le#(s(n),s(m))
length#(toList(t)) -> length#(cons(n,l))

length#(l) -> length#(cons(n,l))
toList#(t) -> toList#(node(t1,n,t2))

toList#(t) -> toList#(node(t1,n,t2))
toList#(t) -> toList#(node(t1,n,t2))

lessE#(l,t,0()) -> lessE#(l,t,n)
lessE#(l,t,0()) -> lessE#(l,t,n)
lessE#(l,t,0()) -> 
lessE#(l,t,n)
lessE#(l,t,0()) -> lessE#(l,t,n)
lessE#(l,t,0()) -> lessE#(l,t,n)

lessE#(l,t,0()) -> lessE#(l,t,n)
