qsort#(Z) -> qsort#(add(N,X))
qsort#(Z) -> qsort#(add(N,X))
qsort#(Y) -> 
qsort#(add(N,X))
qsort#(Y) -> qsort#(add(N,X))
append#(qsort(Y),add(X,qsort(Z))) -> 
append#(add(N,X),Y)
f_3#(split(N,X),N,X) -> f_3#(pair(Y,Z),N,X)
f_3#(split(N,X),N,X) -> 
f_3#(pair(Y,Z),N,X)
f_3#(split(N,X),N,X) -> f_3#(pair(Y,Z),N,X)
split#(N,X) -> 
split#(N,add(M,Y))
split#(N,X) -> split#(N,add(M,Y))
lt#(N,M) -> lt#(s(X),s(Y))

f_1#(split(N,Y),N,M,Y) -> f_1#(pair(X,Z),N,M,Y)
f_1#(split(N,Y),N,M,Y) -> 
f_1#(pair(X,Z),N,M,Y)
split#(N,Y) -> split#(N,add(M,Y))
split#(N,Y) -> 
split#(N,add(M,Y))
append#(X,Y) -> append#(add(N,X),Y)
lt#(X,Y) -> lt#(s(X),s(Y))
