log#(s(quot(X,s(s(0()))))) -> log#(s(s(X)))
log#(s(quot(X,s(s(0()))))) -> 
log#(s(s(X)))
quot#(X,s(s(0()))) -> quot#(s(X),s(Y))
quot#(X,s(s(0()))) -> 
quot#(s(X),s(Y))
quot#(min(X,Y),s(Y)) -> quot#(s(X),s(Y))
quot#(min(X,Y),s(Y)) -> 
quot#(s(X),s(Y))
min#(X,Y) -> min#(s(X),s(Y))
min#(X,Y) -> min#(s(X),s(Y))
