appendAkk#(xs,cons(x,ys)) -> appendAkk#(cons(x,xs),ys)
reverse#(xs) -> 
reverse#(cons(x,xs))
reverse#(xs) -> reverse#(cons(x,xs))
append#(reverse(xs),cons(x,nil())) -> 
append#(xs,ys)
append#(reverse(xs),cons(x,nil())) -> append#(xs,ys)
eq#(x,y) -> 
eq#(s(x),s(y))
length#(xs) -> length#(cons(x,xs))
appendAkk#(reverse(xs),ys) -> 
appendAkk#(cons(x,xs),ys)
reverse#(xs) -> reverse#(cons(x,xs))
reverse#(xs) -> 
reverse#(cons(x,xs))
eq#(s(length(xs)),length(cons(a(),xs))) -> eq#(s(x),s(y))

length#(cons(a(),xs)) -> length#(cons(x,xs))
length#(xs) -> length#(cons(x,xs))

append#(xs,cons(b(),nil())) -> append#(xs,ys)
append#(xs,cons(b(),nil())) -> 
append#(xs,ys)
f#(eq(s(length(xs)),length(cons(a(),xs))),append(xs,cons(b(),nil()))) -> 
f#(true(),xs)
f#(eq(s(length(xs)),length(cons(a(),xs))),append(xs,cons(b(),nil()))) -> 
f#(true(),xs)
f#(eq(s(length(xs)),length(cons(a(),xs))),append(xs,cons(b(),nil()))) -> 
f#(true(),xs)
f#(eq(s(length(xs)),length(cons(a(),xs))),append(xs,cons(b(),nil()))) -> 
f#(true(),xs)
f#(eq(s(length(xs)),length(cons(a(),xs))),append(xs,cons(b(),nil()))) -> 
f#(true(),xs)
