plus#(x,s(y)) -> plus#(s(x),y)
gt#(x,y) -> gt#(s(x),s(y))
plus#(x,s(s(0()))) -> 
plus#(s(x),y)
plus#(x,s(0())) -> plus#(s(x),y)
gt#(x,y) -> gt#(s(x),s(y))

plus2#(x) -> plus2#(x)
plus1#(y) -> plus1#(x)
f#(gt(x,y),plus2(x),plus1(y)) -> 
f#(true(),x,y)
f#(gt(x,y),plus2(x),plus1(y)) -> f#(true(),x,y)
f#(gt(x,y),plus2(x),plus1(y)) -> 
f#(true(),x,y)
f#(gt(x,y),plus2(x),plus1(y)) -> f#(true(),x,y)
