plus#(x,s(y)) -> plus#(s(x),y)
plus#(y,times(x,y)) -> plus#(s(x),y)
times#(x,y) -> 
times#(s(x),y)
times#(x,y) -> times#(s(x),y)
gt#(x,y) -> gt#(s(x),s(y))

times#(s(s(0())),x) -> times#(s(x),y)
times#(s(s(0())),x) -> times#(s(x),y)

double#(x) -> double#(x)
f#(gt(x,0()),double(x)) -> f#(true(),x)
f#(gt(x,0()),double(x)) -> 
f#(true(),x)
f#(gt(x,0()),double(x)) -> f#(true(),x)
