plus#(x,s(y)) -> plus#(s(x),y)
plus#(i,s(0())) -> plus#(s(x),y)
neq#(x,y) -> 
neq#(s(x),s(y))
gt#(x,y) -> gt#(s(x),s(y))
if#(neq(i,s(s(0()))),i) -> 
if#(true(),i)
neq#(i,s(s(0()))) -> neq#(s(x),s(y))
gt#(s(s(s(i))),s(0())) -> 
gt#(s(x),s(y))
f#(s(s(s(i)))) -> f#(i)
f#(s(s(s(i)))) -> f#(i)
while#
                                                               (gt(s(s(s(i))),s(0())),f(s(s(s(i))))) -> 
while#(true(),s(s(s(i))))
while#(gt(s(s(s(i))),s(0())),f(s(s(s(i))))) -> 
while#(true(),s(s(s(i))))
while#(gt(s(s(s(i))),s(0())),f(s(s(s(i))))) -> 
while#(true(),s(s(s(i))))
