c#(b(a(0(),0()),y)) -> c#(b(y,c(x)))
c#(b(a(0(),0()),y)) -> c#(b(y,c(x)))

c#(b(a(0(),0()),y)) -> c#(b(y,c(x)))
c#(b(a(0(),0()),y)) -> c#(b(y,c(x)))

c#(c(b(a(0(),0()),y))) -> c#(b(y,c(x)))
c#(c(b(a(0(),0()),y))) -> c#(b(y,c(x)))

c#(c(b(a(0(),0()),y))) -> c#(b(y,c(x)))
c#(c(b(a(0(),0()),y))) -> c#(b(y,c(x)))

a#(0(),0()) -> a#(x,y)
a#(0(),0()) -> a#(x,y)
a#(0(),0()) -> a#(x,y)

c#(y) -> c#(b(y,c(x)))
c#(y) -> c#(b(y,c(x)))
c#(y) -> c#(b(y,c(x)))

c#(y) -> c#(b(y,c(x)))
