c#(f(b(x,z)),c(z,y,a()),a()) -> c#(f(z),f(c(a(),x,a())),y)
c#(f(b(x,z)),c(z,y,a()),a()) -> 
c#(f(z),f(c(a(),x,a())),y)
c#(f(b(x,z)),c(z,y,a()),a()) -> c#(f(z),f(c(a(),x,a())),y)

c#(z,y,a()) -> c#(f(z),f(c(a(),x,a())),y)
c#(z,y,a()) -> c#(f(z),f(c(a(),x,a())),y)

c#(z,y,a()) -> c#(f(z),f(c(a(),x,a())),y)
b#(x,z) -> b#(y,z)
b#(x,z) -> 
b#(y,z)
c#(y,z,z) -> c#(f(z),f(c(a(),x,a())),y)
c#(y,z,z) -> c#(f(z),f(c(a(),x,a())),y)

c#(y,z,z) -> c#(f(z),f(c(a(),x,a())),y)
