f#(c(y,a(),f(c(z,y,x)))) -> f#(f(c(a(),y,z)))
f#(c(y,a(),f(c(z,y,x)))) -> 
f#(f(c(a(),y,z)))
f#(c(z,y,x)) -> f#(f(c(a(),y,z)))
f#(c(z,y,x)) -> f#(f(c(a(),y,z)))

f#(f(c(y,a(),f(c(z,y,x))))) -> f#(f(c(a(),y,z)))
f#(f(c(y,a(),f(c(z,y,x))))) -> 
f#(f(c(a(),y,z)))
c#(y,a(),f(c(z,y,x))) -> c#(c(z,x,a()),a(),y)
c#(y,a(),f(c(z,y,x))) -> 
c#(c(z,x,a()),a(),y)
c#(y,a(),f(c(z,y,x))) -> c#(c(z,x,a()),a(),y)
c#(y,a(),f(c(z,y,x))) -> 
c#(c(z,x,a()),a(),y)
c#(y,a(),f(c(z,y,x))) -> c#(c(z,x,a()),a(),y)
c#(z,y,x) -> 
c#(c(z,x,a()),a(),y)
c#(z,y,x) -> c#(c(z,x,a()),a(),y)
c#(z,y,x) -> c#(c(z,x,a()),a(),y)

c#(z,y,x) -> c#(c(z,x,a()),a(),y)
c#(z,y,x) -> c#(c(z,x,a()),a(),y)
