plus#(n,m) -> plus#(n,s(m))
double#(x) -> double#(s(x))
plus#(square(x),double(x)) -> 
plus#(n,s(m))
double#(x) -> double#(s(x))
square#(x) -> square#(s(x))

square#(x) -> square#(s(x))
square#(x) -> square#(s(x))
double#(log(x,square(s(s(y))))) -> 
double#(s(x))
square#(s(s(y))) -> square#(s(x))
square#(s(s(y))) -> square#(s(x))

square#(s(s(y))) -> square#(s(x))
log#(x,square(s(s(y)))) -> log#(x,s(s(y)))

log#(x,square(s(s(y)))) -> log#(x,s(s(y)))
le#(u,v) -> le#(s(u),s(v))

cond#(le(x,s(s(y))),x,y) -> cond#(false(),x,y)
cond#(le(x,s(s(y))),x,y) -> 
cond#(false(),x,y)
cond#(le(x,s(s(y))),x,y) -> cond#(false(),x,y)
le#(x,s(s(y))) -> 
le#(s(u),s(v))
