gt#(u,v) -> gt#(s(u),s(v))
plus#(n,m) -> plus#(n,s(m))
double#(x) -> 
double#(s(x))
gt#(y,s(s(0()))) -> gt#(s(u),s(v))
gt#(x,y) -> gt#(s(u),s(v))

plus#(s(0()),x) -> plus#(n,s(m))
double#(y) -> double#(s(x))
f#(and(gt(x,y),gt(y,s(s(0())))),
                                                                plus(s(0()),x),
                                                                double(y)) -> 
f#(true(),x,y)
f#(and(gt(x,y),gt(y,s(s(0())))),plus(s(0()),x),double(y)) -> 
f#(true(),x,y)
f#(and(gt(x,y),gt(y,s(s(0())))),plus(s(0()),x),double(y)) -> 
f#(true(),x,y)
f#(and(gt(x,y),gt(y,s(s(0())))),plus(s(0()),x),double(y)) -> 
f#(true(),x,y)
f#(and(gt(x,y),gt(y,s(s(0())))),plus(s(0()),x),double(y)) -> 
f#(true(),x,y)
f#(and(gt(x,y),gt(y,s(s(0())))),plus(s(0()),x),double(y)) -> 
f#(true(),x,y)
