f#(f(f(f(a(),a()),y),h(a())),x) -> f#(x,f(y,a()))
f#(f(f(f(a(),a()),y),h(a())),x) -> 
f#(x,f(y,a()))
f#(f(f(f(a(),a()),y),h(a())),x) -> f#(x,f(y,a()))
f#(f(f(f(a(),a()),y),h(a())),x) -> 
f#(x,f(y,a()))
f#(f(a(),a()),y) -> f#(x,f(y,a()))
f#(f(a(),a()),y) -> 
f#(x,f(y,a()))
f#(f(a(),a()),y) -> f#(x,f(y,a()))
f#(f(a(),a()),y) -> 
f#(x,f(y,a()))
