f#(f(x,f(a(),y)),a()) -> f#(f(a(),x),y)
f#(f(x,f(a(),y)),a()) -> f#(f(a(),x),y)

f#(f(x,f(a(),y)),a()) -> f#(f(a(),x),y)
f#(x,f(a(),y)) -> f#(f(a(),x),y)

f#(x,f(a(),y)) -> f#(f(a(),x),y)
f#(x,f(a(),y)) -> f#(f(a(),x),y)
