s#(s(s(s(s(s(s(s(s(s(s(0()))))))))))) -> s#(s(0()))
s#(s(s(s(s(s(s(s(s(s(s(0()))))))))))) -> 
s#(x)
s#(s(s(s(s(s(s(s(s(s(s(0()))))))))))) -> s#(x)
s#(s(s(s(s(s(s(s(s(s(s(0()))))))))))) -> 
s#(s(s(0())))
s#(s(s(s(s(s(s(s(s(s(s(0()))))))))))) -> s#(s(s(s(s(0())))))

s#(s(s(s(s(s(s(s(s(s(s(0()))))))))))) -> s#(s(s(s(s(s(s(s(s(s(s(s(s(0())))))))))))))

s#(s(s(s(s(s(s(s(s(s(0())))))))))) -> s#(s(0()))
s#(s(s(s(s(s(s(s(s(s(0())))))))))) -> 
s#(x)
s#(s(s(s(s(s(s(s(s(s(0())))))))))) -> s#(x)
s#(s(s(s(s(s(s(s(s(s(0())))))))))) -> 
s#(s(s(0())))
s#(s(s(s(s(s(s(s(s(s(0())))))))))) -> s#(s(s(s(s(0())))))

s#(s(s(s(s(s(s(s(s(s(0())))))))))) -> s#(s(s(s(s(s(s(s(s(s(s(s(s(0())))))))))))))

s#(s(s(s(s(s(s(s(s(0()))))))))) -> s#(s(0()))
s#(s(s(s(s(s(s(s(s(0()))))))))) -> 
s#(x)
s#(s(s(s(s(s(s(s(s(0()))))))))) -> s#(x)
s#(s(s(s(s(s(s(s(s(0()))))))))) -> 
s#(s(s(0())))
s#(s(s(s(s(s(s(s(s(0()))))))))) -> s#(s(s(s(s(0())))))

s#(s(s(s(s(s(s(s(s(0()))))))))) -> s#(s(s(s(s(s(s(s(s(s(s(s(s(0())))))))))))))

s#(s(s(s(s(s(s(s(0())))))))) -> s#(s(0()))
s#(s(s(s(s(s(s(s(0())))))))) -> 
s#(x)
s#(s(s(s(s(s(s(s(0())))))))) -> s#(x)
s#(s(s(s(s(s(s(s(0())))))))) -> 
s#(s(s(0())))
s#(s(s(s(s(s(s(s(0())))))))) -> s#(s(s(s(s(0())))))
s#(s(s(s(s(s(s(s(0())))))))) -> 
s#(s(s(s(s(s(s(s(s(s(s(s(s(0())))))))))))))
s#(s(s(s(s(s(s(0()))))))) -> 
s#(s(0()))
s#(s(s(s(s(s(s(0()))))))) -> s#(x)
s#(s(s(s(s(s(s(0()))))))) -> 
s#(x)
s#(s(s(s(s(s(s(0()))))))) -> s#(s(s(0())))
s#(s(s(s(s(s(s(0()))))))) -> 
s#(s(s(s(s(0())))))
s#(s(s(s(s(s(s(0()))))))) -> s#(s(s(s(s(s(s(s(s(s(s(s(s(0())))))))))))))

s#(s(s(s(s(s(0())))))) -> s#(s(0()))
s#(s(s(s(s(s(0())))))) -> s#(x)

s#(s(s(s(s(s(0())))))) -> s#(x)
s#(s(s(s(s(s(0())))))) -> s#(s(s(0())))

s#(s(s(s(s(s(0())))))) -> s#(s(s(s(s(0())))))
s#(s(s(s(s(s(0())))))) -> 
s#(s(s(s(s(s(s(s(s(s(s(s(s(0())))))))))))))
s#(s(s(s(s(0()))))) -> s#(s(0()))

s#(s(s(s(s(0()))))) -> s#(x)
s#(s(s(s(s(0()))))) -> s#(x)
s#(s(s(s(s(0()))))) -> 
s#(s(s(0())))
s#(s(s(s(s(0()))))) -> s#(s(s(s(s(0())))))
s#(s(s(s(s(0()))))) -> 
s#(s(s(s(s(s(s(s(s(s(s(s(s(0())))))))))))))
s#(s(s(s(0())))) -> s#(s(0()))

s#(s(s(s(0())))) -> s#(x)
s#(s(s(s(0())))) -> s#(x)
s#(s(s(s(0())))) -> 
s#(s(s(0())))
s#(s(s(s(0())))) -> s#(s(s(s(s(0())))))
s#(s(s(s(0())))) -> 
s#(s(s(s(s(s(s(s(s(s(s(s(s(0())))))))))))))
s#(s(s(0()))) -> s#(s(0()))

s#(s(s(0()))) -> s#(x)
s#(s(s(0()))) -> s#(x)
s#(s(s(0()))) -> s#(s(s(0())))

s#(s(s(0()))) -> s#(s(s(s(s(0())))))
s#(s(s(0()))) -> s#(s(s(s(s(s(s(s(s(s(s(s(s(0())))))))))))))

s#(s(s(0()))) -> s#(s(0()))
s#(s(s(0()))) -> s#(x)
s#(s(s(0()))) -> s#(x)

s#(s(s(0()))) -> s#(s(s(0())))
s#(s(s(0()))) -> s#(s(s(s(s(0())))))
s#(s(s(0()))) -> 
s#(s(s(s(s(s(s(s(s(s(s(s(s(0())))))))))))))
s#(s(0())) -> s#(s(0()))

s#(s(0())) -> s#(x)
s#(s(0())) -> s#(x)
s#(s(0())) -> s#(s(s(0())))
s#(s(0())) -> 
s#(s(s(s(s(0())))))
s#(s(0())) -> s#(s(s(s(s(s(s(s(s(s(s(s(s(0())))))))))))))

s#(0()) -> s#(x)
s#(0()) -> s#(x)
k#(s(x)) -> k#(s(0()))
k#(s(x)) -> 
k#(s(0()))
k#(s(x)) -> k#(s(s(0())))
k#(s(x)) -> k#(s(s(0())))
k#(s(x)) -> 
k#(s(s(0())))
k#(s(x)) -> k#(s(s(0())))
k#(s(x)) -> k#(s(s(0())))
k#(s(x)) -> 
k#(s(s(0())))
k#(s(x)) -> k#(s(s(0())))
k#(s(x)) -> k#(s(s(0())))
k#(s(x)) -> 
k#(s(s(0())))
s#(x) -> s#(s(0()))
s#(x) -> s#(x)
s#(x) -> s#(x)
s#(x) -> 
s#(s(s(0())))
s#(x) -> s#(s(s(s(s(0())))))
s#(x) -> s#(s(s(s(s(s(s(s(s(s(s(s(s(0())))))))))))))

f#(s(x)) -> f#(g(x))
f#(s(x)) -> f#(g(x))
f#(s(x)) -> f#(g(x))
s#(x) -> 
s#(s(0()))
s#(x) -> s#(x)
s#(x) -> s#(x)
s#(x) -> s#(s(s(0())))
s#(x) -> 
s#(s(s(s(s(0())))))
s#(x) -> s#(s(s(s(s(s(s(s(s(s(s(s(s(0())))))))))))))

g#(x) -> g#(x)
g#(x) -> g#(s(x))
g#(x) -> g#(s(x))
g#(x) -> g#(s(x))

s#(g(x)) -> s#(s(0()))
s#(g(x)) -> s#(x)
s#(g(x)) -> s#(x)
s#(g(x)) -> 
s#(s(s(0())))
s#(g(x)) -> s#(s(s(s(s(0())))))
s#(g(x)) -> s#(s(s(s(s(s(s(s(s(s(s(s(s(0())))))))))))))

s#(s(g(x))) -> s#(s(0()))
s#(s(g(x))) -> s#(x)
s#(s(g(x))) -> s#(x)
s#(s(g(x))) -> 
s#(s(s(0())))
s#(s(g(x))) -> s#(s(s(s(s(0())))))
s#(s(g(x))) -> s#(s(
                                                                    s
                                                                    (
                                                                    s
                                                                    (
                                                                    s(s(s(s(s(s(s(s(s(0())))))))))))))

h#(x,x) -> h#(f(x),g(x))
h#(x,x) -> h#(f(x),g(x))
h#(x,x) -> h#(k(x),g(x))

h#(x,x) -> h#(k(x),g(x))
g#(g(f(x))) -> g#(x)
g#(g(f(x))) -> g#(s(x))

g#(g(f(x))) -> g#(s(x))
g#(g(f(x))) -> g#(s(x))
g#(f(x)) -> g#(x)
g#(f(x)) -> 
g#(s(x))
g#(f(x)) -> g#(s(x))
g#(f(x)) -> g#(s(x))
f#(x) -> f#(g(x))

f#(x) -> f#(g(x))
f#(x) -> f#(g(x))
k#(s(s(0()))) -> k#(s(0()))
k#(s(s(0()))) -> 
k#(s(0()))
k#(s(s(0()))) -> k#(s(s(0())))
k#(s(s(0()))) -> k#(s(s(0())))

k#(s(s(0()))) -> k#(s(s(0())))
k#(s(s(0()))) -> k#(s(s(0())))
k#(s(s(0()))) -> 
k#(s(s(0())))
k#(s(s(0()))) -> k#(s(s(0())))
k#(s(s(0()))) -> k#(s(s(0())))

k#(s(s(0()))) -> k#(s(s(0())))
k#(s(s(0()))) -> k#(s(s(0())))
k#(s(0())) -> 
k#(s(0()))
k#(s(0())) -> k#(s(0()))
k#(s(0())) -> k#(s(s(0())))
k#(s(0())) -> 
k#(s(s(0())))
k#(s(0())) -> k#(s(s(0())))
k#(s(0())) -> k#(s(s(0())))

k#(s(0())) -> k#(s(s(0())))
k#(s(0())) -> k#(s(s(0())))
k#(s(0())) -> 
k#(s(s(0())))
k#(s(0())) -> k#(s(s(0())))
k#(s(0())) -> k#(s(s(0())))

k#(0()) -> k#(0())
f#(s(0())) -> f#(g(x))
f#(s(0())) -> f#(g(x))
f#(s(0())) -> 
f#(g(x))
