+#(x,y) -> +#(+(x,y),z)
+#(x,y) -> +#(+(x,y),z)
+#(x,y) -> +#(f(x),f(y))

+#(x,y) -> +#(f(x),+(f(y),z))
+#(x,y) -> +#(f(x),+(f(y),z))
+#(f(+(x,y)),z) -> 
+#(f(x),f(y))
+#(f(+(x,y)),z) -> +#(f(x),+(f(y),z))
+#(f(+(x,y)),z) -> 
+#(f(x),+(f(y),z))
+#(x,y) -> +#(+(x,y),z)
+#(x,y) -> +#(+(x,y),z)
+#(x,y) -> 
+#(f(x),f(y))
+#(x,y) -> +#(f(x),+(f(y),z))
+#(x,y) -> +#(f(x),+(f(y),z))

+#(y,z) -> +#(+(x,y),z)
+#(y,z) -> +#(+(x,y),z)
+#(y,z) -> +#(f(x),f(y))

+#(y,z) -> +#(f(x),+(f(y),z))
+#(y,z) -> +#(f(x),+(f(y),z))
+#(x,+(y,z)) -> 
+#(+(x,y),z)
+#(x,+(y,z)) -> +#(+(x,y),z)
+#(x,+(y,z)) -> +#(f(x),f(y))

+#(x,+(y,z)) -> +#(f(x),+(f(y),z))
+#(x,+(y,z)) -> +#(f(x),+(f(y),z))
