f#(x,z) -> f#(f(x,y),z)
f#(x,z) -> f#(f(x,y),z)
f#(x,z) -> f#(g(x,y),z)

f#(x,z) -> f#(g(x,y),z)
f#(y,z) -> f#(f(x,y),z)
f#(y,z) -> f#(f(x,y),z)

f#(y,z) -> f#(g(x,y),z)
f#(y,z) -> f#(g(x,y),z)
f#(x,f(y,z)) -> f#(f(x,y),z)

f#(x,f(y,z)) -> f#(f(x,y),z)
f#(x,f(y,z)) -> f#(g(x,y),z)
f#(x,f(y,z)) -> 
f#(g(x,y),z)
f#(y,z) -> f#(f(x,y),z)
f#(y,z) -> f#(f(x,y),z)
f#(y,z) -> 
f#(g(x,y),z)
f#(y,z) -> f#(g(x,y),z)
