*#(x,y) -> *#(x,+(y,z))
*#(x,y) -> *#(x,+(y,z))
*#(x,y) -> *#(x,+(y,z))

*#(x,y) -> *#(x,minus(y))
*#(x,y) -> *#(x,minus(y))
minus#(*(x,y)) -> 
minus#(+(x,y))
minus#(*(x,y)) -> minus#(+(x,y))
minus#(*(x,y)) -> minus#(+(x,y))

*#(x,z) -> *#(x,+(y,z))
*#(x,z) -> *#(x,+(y,z))
*#(x,z) -> *#(x,+(y,z))

*#(x,z) -> *#(x,minus(y))
*#(x,z) -> *#(x,minus(y))
*#(x,y) -> *#(x,+(y,z))

*#(x,y) -> *#(x,+(y,z))
*#(x,y) -> *#(x,+(y,z))
*#(x,y) -> *#(x,minus(y))

*#(x,y) -> *#(x,minus(y))
minus#(y) -> minus#(+(x,y))
minus#(y) -> minus#(+(x,y))

minus#(y) -> minus#(+(x,y))
minus#(x) -> minus#(+(x,y))
minus#(x) -> 
minus#(+(x,y))
minus#(x) -> minus#(+(x,y))
