f#(y) -> f#(g(x,y))
f#(y) -> f#(g(x,y))
f#(y) -> f#(g(x,y))
f#(y) -> 
f#(h(x,y))
f#(y) -> f#(h(x,y))
f#(y) -> f#(h(x,y))
f#(x) -> f#(g(x,y))

f#(x) -> f#(g(x,y))
f#(x) -> f#(g(x,y))
f#(x) -> f#(h(x,y))
f#(x) -> 
f#(h(x,y))
f#(x) -> f#(h(x,y))
f#(y) -> f#(g(x,y))
f#(y) -> f#(g(x,y))

f#(y) -> f#(g(x,y))
f#(y) -> f#(h(x,y))
f#(y) -> f#(h(x,y))
f#(y) -> 
f#(h(x,y))
f#(x) -> f#(g(x,y))
f#(x) -> f#(g(x,y))
f#(x) -> f#(g(x,y))

f#(x) -> f#(h(x,y))
f#(x) -> f#(h(x,y))
f#(x) -> f#(h(x,y))
