g#(g(y)) -> g#(f(x,y))
g#(g(y)) -> g#(f(x,y))
g#(g(y)) -> g#(f(x,y))

g#(g(y)) -> g#(f(x,y))
g#(g(x)) -> g#(f(x,y))
g#(g(x)) -> g#(f(x,y))

g#(g(x)) -> g#(f(x,y))
g#(g(x)) -> g#(f(x,y))
g#(y) -> g#(f(x,y))
g#(y) -> 
g#(f(x,y))
g#(y) -> g#(f(x,y))
g#(y) -> g#(f(x,y))
g#(x) -> g#(f(x,y))

g#(x) -> g#(f(x,y))
g#(x) -> g#(f(x,y))
g#(x) -> g#(f(x,y))
