last#(.(y,z)) -> last#(.(x,.(y,z)))
bubble#(.(y,z)) -> bubble#(.(x,.(y,z)))

bubble#(.(y,z)) -> bubble#(.(x,.(y,z)))
bubble#(.(x,z)) -> bubble#(.(x,.(y,z)))

bubble#(.(x,z)) -> bubble#(.(x,.(y,z)))
butlast#(.(y,z)) -> butlast#(.(x,.(y,z)))

last#(.(bubble(.(x,y)),bsort(butlast(bubble(.(x,y)))))) -> last#(.(x,.(y,z)))

bubble#(.(x,y)) -> bubble#(.(x,.(y,z)))
bubble#(.(x,y)) -> bubble#(.(x,.(y,z)))

butlast#(bubble(.(x,y))) -> butlast#(.(x,.(y,z)))
bsort#(butlast(bubble(.(x,y)))) -> 
bsort#(.(x,y))
bsort#(butlast(bubble(.(x,y)))) -> bsort#(.(x,y))
bsort#(butlast(bubble(.(x,y)))) -> 
bsort#(.(x,y))
bsort#(butlast(bubble(.(x,y)))) -> bsort#(.(x,y))
